{
    "@class": "com.kony.gen.viz.model.component.KVizTextArea2",
    "DNDConfig": null,
    "__parentReadjusting__": false,
    "_height_": {
        "type": "string",
        "value": "80px"
    },
    "_left_": {
        "type": "string",
        "value": "20px"
    },
    "_margin_": [
        2,
        2,
        2,
        2
    ],
    "_padding_": [
        2,
        2,
        2,
        2
    ],
    "_placeholder_": "Enter the value",
    "_right_": {
        "type": "string",
        "value": "20px"
    },
    "_skin_": "s86f48d49acf4fd9bad04ae6fc2fcd5a",
    "_text_": "",
    "_top_": {
        "type": "string",
        "value": "31px"
    },
    "autocapitalize": "none",
    "autocomplete": false,
    "autocorrect": false,
    "autofilter": false,
    "canUpdateUI": true,
    "closebuttontext": "",
    "containerheight": "",
    "containerheightmode": 1,
    "containerweight": 100,
    "contentalignment": 1,
    "desktopweb": {
        "psp": {
            "placeholderSkin": "s1d4aa48a0f94cc28987ce87a02972a9"
        }
    },
    "disabledSkins": {
        "placeholderSkin": "sb666942996d4c9e8fa3a4e96be4b0ad"
    },
    "focusskin": "scd524fe3a19422db55190dedbaeecf8",
    "id": "txtAreaAddConfigurationValue",
    "info": null,
    "iscustomlayout": false,
    "isvisible": true,
    "keyboardstyle": "A",
    "keyboardtype": "A",
    "kuid": "b1f3cd3f4d62475981aca0753a9758e3",
    "maxtextlength": 10000,
    "mode": "A",
    "name": "kony.ui.TextArea2",
    "numberofvisiblelines": 3,
    "parent": "flxAddConfigurationValue",
    "pf": "frmConfigurationBundles",
    "retaincontentalignment": false,
    "retainflexpositionproperties": false,
    "securetextentry": false,
    "showoprogressindicator": false,
    "showprogressindicator": false,
    "textinputmode": "A",
    "tooltip": "",
    "viewtype": "default",
    "wType": "TextArea",
    "zindex": 1
}