{
    "@class": "com.kony.gen.viz.model.component.KVizButton",
    "DNDConfig": null,
    "_height_": {
        "type": "number",
        "value": "15"
    },
    "_left_": {
        "type": "string",
        "value": "40dp"
    },
    "_margin_": [
        6,
        6,
        6,
        6
    ],
    "_padding_": [
        1,
        0,
        1,
        0
    ],
    "_skin_": "s06cc52b6c664bbe909a194f1387c402",
    "_text_": "Condition 1",
    "_top_": {
        "type": "string",
        "value": "12dp"
    },
    "_width_": {
        "type": "ref",
        "value": "preferred"
    },
    "canUpdateUI": true,
    "containerweight": 100,
    "contentalignment": 4,
    "desktopweb": {
        "psp": {
            "hoverSkin": "s06cc52b6c664bbe909a194f1387c402"
        }
    },
    "disabledSkins": {
        "focusSkin": "s5aa06a3b1364ab0afbadc12fdfdfd50"
    },
    "displaytext": true,
    "focusskin": null,
    "id": "btnConditionCount",
    "info": null,
    "iscustomlayout": false,
    "isvisible": true,
    "kuid": "h1f2809a4dc648c8a88943d809be79cf",
    "name": "kony.ui.Button",
    "parent": "addApprovalCondition",
    "pf": "userwidgetmodel",
    "retaincontentalignment": false,
    "retainflexpositionproperties": false,
    "wType": "Button",
    "zindex": 5
}