{
    "APPLICATION_THEME": "default",
    "Appoinments": "true",
    "Contacts": "true",
    "DisableApplicationScreenshot": "false",
    "Documents_Library_Access": "true",
    "Enterprise_Authentication": "true",
    "Home_or_Work_Networking": "true",
    "ID_CAP_APPOINTMENTS": "true",
    "ID_CAP_CAMERA": "false",
    "ID_CAP_CONTACTS": "true",
    "ID_CAP_GAMERSERVICES": "true",
    "ID_CAP_IDENTITY_DEVICE": "true",
    "ID_CAP_IDENTITY_USER": "true",
    "ID_CAP_ISV_CAMERA": "true",
    "ID_CAP_LOCATION": "true",
    "ID_CAP_MEDIALIB": "true",
    "ID_CAP_MICROPHONE": "true",
    "ID_CAP_NETWORKING": "true",
    "ID_CAP_PHONEDIALER": "true",
    "ID_CAP_PUSH_NOTIFICATION": "true",
    "ID_CAP_SENSORS": "true",
    "ID_CAP_WEBBROWSERCOMPONENT": "true",
    "ID_HW_FRONTCAMERA": "false",
    "Internet(Client)": "true",
    "Internet(Client_AND_Server)": "true",
    "KonyHTTPPublicKeyPinning": "false",
    "KonyPay": "false",
    "Location": "true",
    "Microphone": "true",
    "Music_Library": "true",
    "Pictures_Library_Access": "true",
    "Proximity": "true",
    "Removable_Storage": "true",
    "SELECTED_THEME": "default",
    "Server side mobile web": "false",
    "Shared_User_Certificate": "true",
    "Shared_User_Certificates": "true",
    "Text_Messaging": "true",
    "UseOpenSSLLibrary": "false",
    "UseOpenSSLLibraryandwear": "false",
    "UseSQLCipherFIPS": "false",
    "UseSQLCipherFIPSandwear": "false",
    "Videos_Library_Access": "true",
    "Webcam": "true",
    "_sys_use_consumer_push": "false",
    "access_internet": "true",
    "access_location_services": "false",
    "access_phone": "false",
    "access_pimdomain_calendars": "false",
    "access_pimdomain_contacts": "false",
    "access_pimdomain_messages": "false",
    "access_shared": "false",
    "access_sms_mms": "false",
    "addWatchBackgroundListenerToReceiveDataPayload": "false",
    "addWatchBackgroundListenerToReceiveDataPayloadAndWear": "false",
    "addWatchBackgroundListenerToReceiveMessagePayload": "false",
    "addWatchBackgroundListenerToReceiveMessagePayloadAndWear": "false",
    "allJoyn": "false",
    "allowselfsignedcertificate": "false",
    "andmaxsdkkey": "None",
    "andminsdkkey": "4.4 (19)",
    "androidInstallLocation": "Auto",
    "androidInstallLocnPref": "false",
    "android_allowselfsignedcertificates": "None",
    "androidloadindicatorkey": "true",
    "androidmapkey": "",
    "androidmapkey2": "",
    "androidorientation": "Device Default",
    "androidscreenanydensity": "true",
    "androidscreenextralarge": "true",
    "androidscreenlarge": "true",
    "androidscreennormal": "true",
    "androidscreenresizeable": "false",
    "androidscreensmall": "true",
    "androidwear_allowselfsignedcertificates": "None",
    "andtargetsdkkey": "4.4 (19)",
    "andwearapppackagekey": "com.konylabs.Customer360",
    "andwearappversioncode": "1",
    "andwearmaxsdkkey": "None",
    "andwearminsdkkey": "7.1 (25)",
    "andweartargetsdkkey": "7.1 (25)",
    "antialiaseddrawing": "false",
    "apmappload": "false",
    "apmapptransition": "false",
    "apmcrash": "true",
    "apmerrorunhandledexception": "true",
    "apmformEntry": "true",
    "apmformExit": "false",
    "apmgestureswipe": "false",
    "apmorientationchange": "false",
    "apmservicerequest": "false",
    "apmserviceresponse": "false",
    "apmtouchorclick": "false",
    "appaddrkey": "",
    "appidkey": "Spotlight",
    "appiniteventkey": "None",
    "applepushfunc": "None",
    "apploadeventkey": "None",
    "applogokey": "",
    "appmenu": {
        "context": {
            "channel": "mobile",
            "platform": "iphone"
        },
        "desktop": {
            "data": [
                {
                    "icon": {
                        "default": "option1.png"
                    },
                    "id": "appmenuitemid1",
                    "kuid": "b7c375ca90a841cf9ac9856c8234f0aa",
                    "title": "Item 1"
                },
                {
                    "icon": {
                        "default": "option2.png"
                    },
                    "id": "appmenuitemid2",
                    "kuid": "feb0b9fd26594ca1b99417eaf2905d00",
                    "title": "Item 2"
                },
                {
                    "icon": {
                        "default": "option3.png"
                    },
                    "id": "appmenuitemid3",
                    "kuid": "a1b288798ed844b9bc28ca79cecc7c55",
                    "title": "Item 3"
                },
                {
                    "icon": {
                        "default": "option4.png"
                    },
                    "id": "appmenuitemid4",
                    "kuid": "i69206929e784702b8bb39b81b99f93e",
                    "title": "Item 4"
                }
            ]
        },
        "focusSkin": null,
        "focusskin": null,
        "mobile": {
            "data": [
                {
                    "android": {
                        "showAsFlag": 0
                    },
                    "icon": {
                        "default": "option1.png"
                    },
                    "id": "appmenuitemid1",
                    "kuid": "fc50bdb0155240e1941210c65276bc4f",
                    "title": "Item 1"
                },
                {
                    "android": {
                        "showAsFlag": 0
                    },
                    "icon": {
                        "default": "option2.png"
                    },
                    "id": "appmenuitemid2",
                    "kuid": "e526c4f1163741bcb82903e52349630c",
                    "title": "Item 2"
                },
                {
                    "android": {
                        "showAsFlag": 0
                    },
                    "icon": {
                        "default": "option3.png"
                    },
                    "id": "appmenuitemid3",
                    "kuid": "e36742d716804039b473bf6d70fe1b50",
                    "title": "Item 3"
                },
                {
                    "android": {
                        "showAsFlag": 0
                    },
                    "icon": {
                        "default": "option4.png"
                    },
                    "id": "appmenuitemid4",
                    "kuid": "a19e2220e3fd4b9b8c19660dcb8c562c",
                    "title": "Item 4"
                }
            ]
        },
        "osPlatform": "",
        "osVersion": "iOS7",
        "skin": null,
        "tablet": {
            "data": [
                {
                    "android": {
                        "showAsFlag": 0
                    },
                    "icon": {
                        "default": "option1.png"
                    },
                    "id": "appmenuitemid1",
                    "kuid": "jdf18da1416a4e078372573fc5210605",
                    "title": "Item 1",
                    "windows8": {
                        "appBarButtonStyle": "No Style",
                        "position": "BOTTOM_LEFT"
                    }
                },
                {
                    "android": {
                        "showAsFlag": 0
                    },
                    "icon": {
                        "default": "option2.png"
                    },
                    "id": "appmenuitemid2",
                    "kuid": "d149c65038f24e7db8c2f989984504ab",
                    "title": "Item 2",
                    "windows8": {
                        "appBarButtonStyle": "No Style",
                        "position": "BOTTOM_LEFT"
                    }
                },
                {
                    "android": {
                        "showAsFlag": 0
                    },
                    "icon": {
                        "default": "option3.png"
                    },
                    "id": "appmenuitemid3",
                    "kuid": "gd554dd0793a42e9ba175d156a723f6a",
                    "title": "Item 3",
                    "windows8": {
                        "appBarButtonStyle": "No Style",
                        "position": "BOTTOM_LEFT"
                    }
                },
                {
                    "android": {
                        "showAsFlag": 0
                    },
                    "icon": {
                        "default": "option4.png"
                    },
                    "id": "appmenuitemid4",
                    "kuid": "a914cbf74cdc467491a357483ed3af47",
                    "title": "Item 4",
                    "windows8": {
                        "appBarButtonStyle": "No Style",
                        "position": "BOTTOM_LEFT"
                    }
                }
            ]
        },
        "wType": "Appmenu"
    },
    "appnamekey": "Customer360",
    "appointments": "false",
    "apppackagekey": "com.orgname.adminConsole",
    "apptitle": "",
    "appversioncode": "1",
    "appversionkey": "2.1.0",
    "backgroundMediaPlayback": "false",
    "backgroundmodes": "Disabled",
    "backward_compatibility_mode": "false",
    "bb10author": "",
    "bb10authorid": "",
    "bb10buildid": "",
    "bb10description": "",
    "bb10keystorepassword": "",
    "bb10orientationmode": "Default",
    "bb10packageid": "",
    "bb10theme": "Default",
    "bb10urlscheme": "",
    "bb10versionnumber": "",
    "bbserviceidentifierpattern": "",
    "bbservicemenuitemlabel": "",
    "bgcolorkey": "255,255,255",
    "blockedChatMessages": "false",
    "bluetooth": "false",
    "build": "debug",
    "buildExclusion": {},
    "buildWarCompatability": "false",
    "build_gradle_attrs_prefix": "",
    "build_gradle_attrs_prefix_andwear": "",
    "build_gradle_attrs_suffix": "",
    "build_gradle_attrs_suffix_andwear": "",
    "buttonAsLabel": true,
    "camerasettings": "",
    "category": "app",
    "certs_key_store_pwd": "kds/0eUc+i3BqFqSkpCk4g==",
    "certs_key_store_type": "JKS",
    "certs_ssl_algorithm": "TLS",
    "certs_trust_store_pwd": "kds/0eUc+i3BqFqSkpCk4g==",
    "certs_trust_store_type": "JKS",
    "chat": "false",
    "cloud_account_guid": "4af98d33-c546-4260-8ff7-91eac9209137",
    "cloud_account_id": "100026484",
    "cloud_config_ipaddress_list": "",
    "cloud_env_GUID": "c3bdb988-b1d9-4c82-87b2-a80ebcb14ade",
    "cloud_env_name": "dbxlendinguat",
    "cloud_http_redirect": "false",
    "cloud_selected_ipaddress_list": "",
    "cloud_url": "https://dbxlendinguat.konycloud.com",
    "cloud_web_xml_custom_filters": "",
    "cloud_web_xml_custom_listeners": "",
    "cloud_web_xml_custom_mappings": "",
    "cloud_web_xml_custom_others": "",
    "codeGeneration": "false",
    "contacts": "false",
    "cordovaModified": false,
    "cordovaVersionInfo": {
        "useGlobalCordova": false
    },
    "createdVizVersion": "7.3.0.5",
    "createdgaversion": "7.3.0.5",
    "currentgaversion": "9.2.43",
    "deeplinkkey": "None",
    "defaultlocalekey": "en_US",
    "defaulttheme": "defaultTheme",
    "desktopstartupformkey": "ef96bb3c9d2a44059e8d20563a5bbe4b",
    "desktopwebaligenmentoption": "left",
    "desktopwebbasefontsize": "12",
    "desktopwebfavico": "",
    "desktopwebmanifestjson": "",
    "desktopwebnoscriptmessage": "To use this site, first enable your browser's JavaScript support and then refresh this page.",
    "desktopwebtitle": "",
    "desktopwebwidthoption": "Percentage",
    "desktopwebwidthval": "100",
    "deviceexception": "Unknown Error Occurred <br/> Contact System Admin",
    "devicemsg": "This device is currently not supported",
    "disablehttpskey": "false",
    "enableAwssdk": "false",
    "enableCordova": false,
    "enableIdForAutomation": true,
    "enableMVCExtensions": true,
    "enableOfflineObjects": "false",
    "enableOfflineObjectsDW": "false",
    "enableOfflineObjectsSpa": "false",
    "enableProgressiveWeb": false,
    "enablePushNotificationsDW": false,
    "enableResponsive": false,
    "enableactionbar": false,
    "enableasyncdesktopweb": true,
    "enableasyncspa": false,
    "enableautomaticeventcap": "true",
    "enablecharts2d3diphone": "false",
    "enablefileupload": "false",
    "enablefocushtml5iphonbb": "false",
    "enablelocalnotifications": "false",
    "enablelocalnotificationsandroidwear": "false",
    "enablesearchbar": "false",
    "enablesearchbarandwear": "false",
    "enableseo": "false",
    "enablesso": false,
    "enablexfsdw": false,
    "enablexfsspa": false,
    "encryptionofsqlite": false,
    "enterpriseAuthentication": "false",
    "exceptionalert": "true",
    "export.type": "visualizer",
    "extendBottom": "false",
    "extendTop": "false",
    "fabric_runtime_app_version": "1.0",
    "fbxfolderpathkey": "",
    "fcmsenderid": "",
    "fgcolorkey": "255,255,255",
    "generateJavaCodeForForms": "false",
    "genericexceptionalert": "false",
    "gradle_properties_attrs": "",
    "gradle_properties_attrs_andwear": "",
    "hiddenAppGroups": {},
    "hostkey": "",
    "hostkey_andwear": "",
    "ide_appEvents": {
        "desktop": {
            "deeplink": "AS_AppEvents_d9f275df03bb4f2c9c87f0aca8dac598",
            "preappinit": "AS_AppEvents_hf8e5e479c1348dc9f9ed8e64ecde98e"
        }
    },
    "imagewhendownloading": "",
    "initialRotationPreferenceKey": "landscape",
    "inputaccessoryviewtype": "nextprevtoolbar",
    "internetClient": "false",
    "internetClientServer": "false",
    "ioscheckboxcorrection": "true",
    "iospopuptransitioncorrection": "true",
    "iosrespectimagesizecorrection": "true",
    "iostextboxpaddingcorrection": "true",
    "ipad_appicon_1x_76": "",
    "ipad_appicon_2x_76": "",
    "ipad_notificationicon_1x_20": "",
    "ipad_notificationicon_2x_20": "",
    "ipad_proappicon_2x_83Point5": "",
    "ipad_settingsicon_1x_29": "",
    "ipad_settingsicon_2x_29": "",
    "ipad_spotlighticon_1x_40": "",
    "ipad_spotlighticon_2x_40": "",
    "ipadlandscapemodekey": "false",
    "ipadlaunchmodekey": "Portrait",
    "ipadportraitmodekey": "true",
    "iphone_appicon_2x_60": "",
    "iphone_appicon_3x_60": "",
    "iphone_notificationicon_2x_20": "",
    "iphone_notificationicon_3x_20": "",
    "iphone_spotlighticon_2x_29": "",
    "iphone_spotlighticon_2x_40": "",
    "iphone_spotlighticon_3x_29": "",
    "iphone_spotlighticon_3x_40": "",
    "iphonebundleidentifierkey": "com.kony.adminConsole",
    "iphonebundleversionkey": "1.0.0",
    "iphoneipad_appstoreicon_1x_1024": "",
    "iphoneipadglossyeffectkey": "false",
    "iphoneloadindicatorkey": "true",
    "iphoneurlscheme": "",
    "iphonewebshrtcutkey": "",
    "isA11yConfigEnabled": false,
    "isDeveloperMode": "true",
    "isDpScaleFactor": true,
    "isI18nConfigEnabled": true,
    "isI18nLayoutConfigEnabled": false,
    "isLibraryBuild": "false",
    "isMVC": true,
    "isNewAppWithRespectToAndroidPackageName": "",
    "isNewAppWithRespectToAndroidWearPackageName": "true",
    "keyAlias": "",
    "keyAliasandwear": "",
    "keyPassword": "",
    "keyPasswordandwear": "",
    "keyStoreFilePath": "",
    "keyStoreFilePathandwear": "",
    "keyStorePassword": "",
    "keyStorePasswordandwear": "",
    "kfAppInfo": {
        "0baf8308-2387-4809-8c48-8bbb303dab3b": {
            "appName": "KonyBankingAdminConsole",
            "baseId": "92b54bcc-e43e-4a62-bbd9-f7d1ca009391",
            "id": "92b54bcc-e43e-4a62-bbd9-f7d1ca009391",
            "version": "1.0"
        },
        "147abad9-e5d0-4108-ab0b-70743455dc49": {
            "appName": "KonyBankingAdminConsole",
            "baseId": "2d58ba03-f8c4-4cd0-9518-d5f6dc7eb722",
            "id": "2d58ba03-f8c4-4cd0-9518-d5f6dc7eb722",
            "version": "1.0"
        },
        "14a7c529-50c7-4296-9199-6bef42b8a1b4": {
            "appName": "KonyBankingAdminConsole",
            "baseId": "d6f55c89-5285-4289-b2d3-b8dfed6221be",
            "id": "d6f55c89-5285-4289-b2d3-b8dfed6221be",
            "version": "1.0"
        },
        "2914a976-3ace-4f0a-a8b2-b8b6fdcfffdf": {
            "appName": "KonyBankingAdminConsole",
            "baseId": "e7251dc4-2e4a-455d-81ef-eb7c56b6fd90",
            "id": "e7251dc4-2e4a-455d-81ef-eb7c56b6fd90",
            "version": "1.0"
        },
        "37e2bb07-7a9a-4171-9735-43d0beba0705": {
            "appName": "KonyBankingAdminConsole",
            "baseId": "e1061d03-6e71-4150-b3fe-737f57230c81",
            "id": "e1061d03-6e71-4150-b3fe-737f57230c81",
            "version": "1.0"
        },
        "4067d5e2-62ff-4ac5-95c8-ce88f2f29f91": {
            "baseId": "a2a959df-17eb-47f9-a18d-456b5e336cfd",
            "id": "a2a959df-17eb-47f9-a18d-456b5e336cfd",
            "version": "1.0"
        },
        "4af98d33-c546-4260-8ff7-91eac9209137": {
            "appName": "KonyBankingAdminConsole",
            "baseId": "7323db5b-a6f0-45f8-9379-149560ebb8c2",
            "id": "7323db5b-a6f0-45f8-9379-149560ebb8c2",
            "version": "1.0"
        },
        "5d005816-04e8-44ce-8f0b-15bfdecddcd2": {
            "appName": "KonyBankingAdminConsole",
            "baseId": "8b46177e-21ed-4b8d-905a-4b00025af2a5",
            "id": "8b46177e-21ed-4b8d-905a-4b00025af2a5",
            "version": "1.0"
        },
        "6a43972d-f770-4ce5-89ce-202816fc4274": {
            "appName": "KonyBankingAdminConsole",
            "baseId": "eb59ea96-fe20-453a-b0ac-8ae6f5fc8a38",
            "id": "eb59ea96-fe20-453a-b0ac-8ae6f5fc8a38",
            "version": "1.0"
        },
        "6b0a6d31-2492-496d-a905-4f834fca2101": {
            "baseId": "e7a5501a-8961-4e75-ab33-bbebcb538f38",
            "id": "e7a5501a-8961-4e75-ab33-bbebcb538f38",
            "version": "1.0"
        },
        "7092916a-fc41-4cd8-aca1-e91122805a0f": {
            "appName": "KonyBankingAdminConsole",
            "baseId": "e2ad3a23-47d0-4cb3-88cf-da3005dc03a2",
            "id": "e2ad3a23-47d0-4cb3-88cf-da3005dc03a2",
            "version": "1.0"
        },
        "824f42e2-49cb-4ad1-b533-1951027e68dc": {
            "baseId": "8ed316ac-880f-40c4-b205-c3ee3ea87e55",
            "id": "8ed316ac-880f-40c4-b205-c3ee3ea87e55",
            "version": "1.0"
        },
        "8f30d362-3355-49a7-93a5-7d6310ca5746": {
            "appName": "KonyBankingAdminConsole",
            "baseId": "51a8365e-c44a-4579-be40-a61d3b42cd95",
            "id": "51a8365e-c44a-4579-be40-a61d3b42cd95",
            "version": "1.0"
        },
        "98b7de5b-8904-4763-8122-7f97e2df8d76": {
            "appName": "KonyBankingAdminConsole",
            "baseId": "e9318aa2-ec59-43dd-9331-7dde1cbfdead",
            "id": "e9318aa2-ec59-43dd-9331-7dde1cbfdead",
            "version": "1.0"
        },
        "bbd2d2b7-f8b9-42f6-9fa1-30f93aad0ab0": {
            "appName": "KonyBankingAdminConsole",
            "baseId": "bd9cbc34-d7a9-4563-ade1-22c2304fa580",
            "id": "bd9cbc34-d7a9-4563-ade1-22c2304fa580",
            "version": "1.0"
        },
        "be36fcf4-adf1-4f7c-9657-35e2ad4db6d6": {
            "baseId": "fd5af437-240a-408c-9ca6-ce2a92711381",
            "id": "fd5af437-240a-408c-9ca6-ce2a92711381",
            "version": "1.0"
        },
        "c2af3e20-de4d-42fe-8506-2987a8e98d56": {
            "baseId": "6316c9fa-eb34-40cb-ae31-48cfa815b687",
            "id": "6316c9fa-eb34-40cb-ae31-48cfa815b687",
            "version": "1.0"
        },
        "dd7a1ef1-a9c3-4c20-bb41-7261bd3f954c": {
            "baseId": "de26e2a4-f6e8-4973-a75a-10069fec6140",
            "id": "de26e2a4-f6e8-4973-a75a-10069fec6140",
            "version": "1.0"
        },
        "df1a4252-5e63-45d9-b6ba-c5e1a2283d5b": {
            "baseId": "35946c15-95e8-428a-9ad4-f8fc38d027f7",
            "id": "35946c15-95e8-428a-9ad4-f8fc38d027f7",
            "version": "1.0"
        },
        "e970d757-49d4-4a83-9205-4ab04aae2a5a": {
            "baseId": "20f6ff46-588e-4b68-bdb4-35585bb79678",
            "id": "20f6ff46-588e-4b68-bdb4-35585bb79678",
            "version": "1.0"
        },
        "ffb43a64-0e5b-4942-950e-957435a51936": {
            "appName": "KonyBankingAdminConsole",
            "baseId": "e11cdba2-e92e-4230-a47e-7d91757ce448",
            "id": "e11cdba2-e92e-4230-a47e-7d91757ce448",
            "version": "1.0"
        }
    },
    "konyVizVersion": "9.2.43",
    "lastmodifiedtime": "1576831476985",
    "location": "false",
    "log_level": "ERROR",
    "mangoapptitlekey": ",,,,,,",
    "mapkey": "",
    "marginsincludedinwidgetcontainerweight": "true",
    "mastersProperties": {
        "mastersVersion": "2.0.0"
    },
    "metatags": "",
    "microphone": "false",
    "musicLibrary": "false",
    "mwaddrkey": "",
    "mwcontextkey": "",
    "mwhttpsportkey": "",
    "mwportkey": "",
    "objects3D": "false",
    "organizationidsso": "",
    "passwordkey": "kds/0eUc+i3BqFqSkpCk4g==",
    "pasteboardtype": "systemlevel",
    "pathkey": "",
    "pathkey_andwear": "",
    "pathpatternkey": "",
    "pathpatternkey_andwear": "",
    "pathprefixkey": "",
    "pathprefixkey_andwear": "",
    "permissions": {
        "android": {
            "ACCESS_CHECKIN_PROPERTIES": "false",
            "ACCESS_COARSE_LOCATION": "false",
            "ACCESS_FINE_LOCATION": "false",
            "ACCESS_LOCATION_EXTRA_COMMANDS": "false",
            "ACCESS_MOCK_LOCATION": "false",
            "ACCESS_NETWORK_STATE": "true",
            "ACCESS_SURFACE_FLINGER": "false",
            "ACCESS_WIFI_STATE": "false",
            "ACCOUNT_MANAGER": "false",
            "AUTHENTICATE_ACCOUNTS": "false",
            "BATTERY_STATS": "false",
            "BIND_APPWIDGET": "false",
            "BIND_DEVICE_ADMIN": "false",
            "BIND_INPUT_METHOD": "false",
            "BIND_REMOTEVIEWS": "false",
            "BIND_WALLPAPER": "false",
            "BLUETOOTH": "false",
            "BLUETOOTH_ADMIN": "false",
            "BRICK": "false",
            "BROADCAST_PACKAGE_REMOVED": "false",
            "BROADCAST_SMS": "false",
            "BROADCAST_STICKY": "false",
            "BROADCAST_WAP_PUSH": "false",
            "CALL_PHONE": "false",
            "CALL_PRIVILEGED": "false",
            "CAMERA": "false",
            "CHANGE_COMPONENT_ENABLED_STATE": "false",
            "CHANGE_CONFIGURATION": "false",
            "CHANGE_NETWORK_STATE": "false",
            "CHANGE_WIFI_MULTICAST_STATE": "false",
            "CHANGE_WIFI_STATE": "false",
            "CLEAR_APP_CACHE": "false",
            "CLEAR_APP_USER_DATA": "false",
            "CONTROL_LOCATION_UPDATES": "false",
            "DELETE_CACHE_FILES": "false",
            "DELETE_PACKAGES": "false",
            "DEVICE_POWER": "false",
            "DIAGNOSTIC": "false",
            "DISABLE_KEYGUARD": "false",
            "DUMP": "false",
            "EXPAND_STATUS_BAR": "false",
            "FACTORY_TEST": "false",
            "FLASHLIGHT": "false",
            "FORCE_BACK": "false",
            "GET_ACCOUNTS": "false",
            "GET_PACKAGE_SIZE": "false",
            "GET_TASKS": "false",
            "GLOBAL_SEARCH": "false",
            "HARDWARE_TEST": "false",
            "INJECT_EVENTS": "false",
            "INSTALL_LOCATION_PROVIDER": "false",
            "INSTALL_PACKAGES": "false",
            "INTERNAL_SYSTEM_WINDOW": "false",
            "INTERNET": "true",
            "KILL_BACKGROUND_PROCESSES": "false",
            "MANAGE_ACCOUNTS": "false",
            "MANAGE_APP_TOKENS": "false",
            "MASTER_CLEAR": "false",
            "MODIFY_AUDIO_SETTINGS": "false",
            "MODIFY_PHONE_STATE": "false",
            "MOUNT_FORMAT_FILESYSTEMS": "false",
            "MOUNT_UNMOUNT_FILESYSTEMS": "false",
            "NFC": "false",
            "PERSISTENT_ACTIVITY": "false",
            "PROCESS_OUTGOING_CALLS": "false",
            "READ_CALENDAR": "false",
            "READ_CONTACTS": "false",
            "READ_FRAME_BUFFER": "false",
            "READ_HISTORY_BOOKMARKS": "false",
            "READ_INPUT_STATE": "false",
            "READ_LOGS": "false",
            "READ_PHONE_STATE": "true",
            "READ_SMS": "false",
            "READ_SYNC_SETTINGS": "false",
            "READ_SYNC_STATS": "false",
            "REBOOT": "false",
            "RECEIVE_BOOT_COMPLETED": "false",
            "RECEIVE_MMS": "false",
            "RECEIVE_SMS": "false",
            "RECEIVE_WAP_PUSH": "false",
            "RECORD_AUDIO": "false",
            "REORDER_TASKS": "false",
            "RESTART_PACKAGES": "false",
            "SEND_SMS": "false",
            "SET_ACTIVITY_WATCHER": "false",
            "SET_ALARM": "false",
            "SET_ALWAYS_FINISH": "false",
            "SET_ANIMATION_SCALE": "false",
            "SET_DEBUG_APP": "false",
            "SET_ORIENTATION": "false",
            "SET_PREFERRED_APPLICATIONS": "false",
            "SET_PROCESS_LIMIT": "false",
            "SET_TIME": "false",
            "SET_TIME_ZONE": "false",
            "SET_WALLPAPER": "false",
            "SET_WALLPAPER_HINTS": "false",
            "SIGNAL_PERSISTENT_PROCESSES": "false",
            "STATUS_BAR": "false",
            "SUBSCRIBED_FEEDS_READ": "false",
            "SUBSCRIBED_FEEDS_WRITE": "false",
            "SYSTEM_ALERT_WINDOW": "false",
            "UPDATE_DEVICE_STATS": "false",
            "USE_CREDENTIALS": "false",
            "USE_FINGERPRINT": "false",
            "USE_SIP": "false",
            "VIBRATE": "false",
            "WAKE_LOCK": "false",
            "WRITE_APN_SETTINGS": "false",
            "WRITE_CALENDAR": "false",
            "WRITE_CONTACTS": "false",
            "WRITE_EXTERNAL_STORAGE": "false",
            "WRITE_GSERVICES": "false",
            "WRITE_HISTORY_BOOKMARKS": "false",
            "WRITE_SECURE_SETTINGS": "false",
            "WRITE_SETTINGS": "false",
            "WRITE_SMS": "false",
            "WRITE_SYNC_SETTINGS": "false"
        },
        "androidwear": {
            "ACCESS_CHECKIN_PROPERTIES": "false",
            "ACCESS_COARSE_LOCATION": "false",
            "ACCESS_FINE_LOCATION": "false",
            "ACCESS_LOCATION_EXTRA_COMMANDS": "false",
            "ACCESS_MOCK_LOCATION": "false",
            "ACCESS_NETWORK_STATE": "true",
            "ACCESS_SURFACE_FLINGER": "false",
            "ACCESS_WIFI_STATE": "false",
            "ACCOUNT_MANAGER": "false",
            "AUTHENTICATE_ACCOUNTS": "false",
            "BATTERY_STATS": "false",
            "BIND_APPWIDGET": "false",
            "BIND_DEVICE_ADMIN": "false",
            "BIND_INPUT_METHOD": "false",
            "BIND_REMOTEVIEWS": "false",
            "BIND_WALLPAPER": "false",
            "BLUETOOTH": "false",
            "BLUETOOTH_ADMIN": "false",
            "BRICK": "false",
            "BROADCAST_PACKAGE_REMOVED": "false",
            "BROADCAST_SMS": "false",
            "BROADCAST_STICKY": "false",
            "BROADCAST_WAP_PUSH": "false",
            "CALL_PHONE": "false",
            "CALL_PRIVILEGED": "false",
            "CAMERA": "false",
            "CHANGE_COMPONENT_ENABLED_STATE": "false",
            "CHANGE_CONFIGURATION": "false",
            "CHANGE_NETWORK_STATE": "false",
            "CHANGE_WIFI_MULTICAST_STATE": "false",
            "CHANGE_WIFI_STATE": "false",
            "CLEAR_APP_CACHE": "false",
            "CLEAR_APP_USER_DATA": "false",
            "CONTROL_LOCATION_UPDATES": "false",
            "DELETE_CACHE_FILES": "false",
            "DELETE_PACKAGES": "false",
            "DEVICE_POWER": "false",
            "DIAGNOSTIC": "false",
            "DISABLE_KEYGUARD": "false",
            "DUMP": "false",
            "EXPAND_STATUS_BAR": "false",
            "FACTORY_TEST": "false",
            "FLASHLIGHT": "false",
            "FORCE_BACK": "false",
            "GET_ACCOUNTS": "false",
            "GET_PACKAGE_SIZE": "false",
            "GET_TASKS": "false",
            "GLOBAL_SEARCH": "false",
            "HARDWARE_TEST": "false",
            "INJECT_EVENTS": "false",
            "INSTALL_LOCATION_PROVIDER": "false",
            "INSTALL_PACKAGES": "false",
            "INTERNAL_SYSTEM_WINDOW": "false",
            "INTERNET": "true",
            "KILL_BACKGROUND_PROCESSES": "false",
            "MANAGE_ACCOUNTS": "false",
            "MANAGE_APP_TOKENS": "false",
            "MASTER_CLEAR": "false",
            "MODIFY_AUDIO_SETTINGS": "false",
            "MODIFY_PHONE_STATE": "false",
            "MOUNT_FORMAT_FILESYSTEMS": "false",
            "MOUNT_UNMOUNT_FILESYSTEMS": "false",
            "NFC": "false",
            "PERSISTENT_ACTIVITY": "false",
            "PROCESS_OUTGOING_CALLS": "false",
            "READ_CALENDAR": "false",
            "READ_CONTACTS": "false",
            "READ_FRAME_BUFFER": "false",
            "READ_HISTORY_BOOKMARKS": "false",
            "READ_INPUT_STATE": "false",
            "READ_LOGS": "false",
            "READ_PHONE_STATE": "true",
            "READ_SMS": "false",
            "READ_SYNC_SETTINGS": "false",
            "READ_SYNC_STATS": "false",
            "REBOOT": "false",
            "RECEIVE_BOOT_COMPLETED": "false",
            "RECEIVE_MMS": "false",
            "RECEIVE_SMS": "false",
            "RECEIVE_WAP_PUSH": "false",
            "RECORD_AUDIO": "false",
            "REORDER_TASKS": "false",
            "RESTART_PACKAGES": "false",
            "SEND_SMS": "false",
            "SET_ACTIVITY_WATCHER": "false",
            "SET_ALARM": "false",
            "SET_ALWAYS_FINISH": "false",
            "SET_ANIMATION_SCALE": "false",
            "SET_DEBUG_APP": "false",
            "SET_ORIENTATION": "false",
            "SET_PREFERRED_APPLICATIONS": "false",
            "SET_PROCESS_LIMIT": "false",
            "SET_TIME": "false",
            "SET_TIME_ZONE": "false",
            "SET_WALLPAPER": "false",
            "SET_WALLPAPER_HINTS": "false",
            "SIGNAL_PERSISTENT_PROCESSES": "false",
            "STATUS_BAR": "false",
            "SUBSCRIBED_FEEDS_READ": "false",
            "SUBSCRIBED_FEEDS_WRITE": "false",
            "SYSTEM_ALERT_WINDOW": "false",
            "UPDATE_DEVICE_STATS": "false",
            "USE_CREDENTIALS": "false",
            "USE_FINGERPRINT": "false",
            "USE_SIP": "false",
            "VIBRATE": "false",
            "WAKE_LOCK": "false",
            "WRITE_APN_SETTINGS": "false",
            "WRITE_CALENDAR": "false",
            "WRITE_CONTACTS": "false",
            "WRITE_EXTERNAL_STORAGE": "false",
            "WRITE_GSERVICES": "false",
            "WRITE_HISTORY_BOOKMARKS": "false",
            "WRITE_SECURE_SETTINGS": "false",
            "WRITE_SETTINGS": "false",
            "WRITE_SMS": "false",
            "WRITE_SYNC_SETTINGS": "false"
        }
    },
    "phantompath": "",
    "phoneCall": "false",
    "picturesLibrary": "false",
    "portkey": "",
    "portkey_andwear": "",
    "post_notification": "false",
    "previewshowpassword": "false",
    "privateNetworkClientServer": "false",
    "project.type": "js",
    "project_version": "sprint39",
    "protectedmodeenabled_android": "false",
    "protectedmodeenabled_androidwear": "false",
    "protectedmodeenabled_ios": "false",
    "proximity": "false",
    "pushcertificatetype": "",
    "rcringtonedatakey": "",
    "read_device_identifying_information": "false",
    "referenceWidth": "375",
    "registerForDeepLink": {
        "androidwear": false,
        "desktop": false,
        "mobile": false,
        "tablet": false,
        "watch": false
    },
    "remoteSystem": "false",
    "removableStorage": "false",
    "schemekey": "",
    "schemekey_andwear": "",
    "secondarytilefunctionkey": "None",
    "sessionmanager": "Http Session Manager",
    "settings_gradle_attrs": "",
    "settings_gradle_attrs_andwear": "",
    "sharedUserCertificates": "false",
    "spaandroidtab1024basefontsize": "12",
    "spaandroidtab1280basefontsize": "12",
    "spaandroidtab800basefontsize": "12",
    "spaandroidtabbasefontsize": "12",
    "spaipadbasefontsize": "12",
    "spamanifestjson": "",
    "spawindows320basefontsize": "12",
    "spawindows480basefontsize": "12",
    "spawindowstabbasefontsize": "12",
    "splashlogokey": "",
    "startupformkey": "",
    "statusBarHidden": "false",
    "statusBarStyle": "STATUS_BAR_STYLE_DEFAULT",
    "studiovizproject": "true",
    "support64bitandwear": "false",
    "supportX86Devices": "false",
    "supportX86Devicesandwear": "false",
    "tags": {
        "android": {
            "activity_child_tags": "",
            "activityattrs": "",
            "andapplicationattrs": "",
            "andapplicationtags": "",
            "andmanifesttags": "",
            "manifest_tag_attrs": ""
        },
        "androidwear": {
            "activity_child_tags_andwear": "",
            "activityattrs_andwear": "",
            "andwearapplicationattrs": "",
            "andwearapplicationtags": "",
            "andwearmanifesttags": "",
            "manifest_tag_attrs_andwear": ""
        }
    },
    "tcandroid240basefontsize": "12",
    "tcandroid320basefontsize": "12",
    "tcandroid360basefontsize": "12",
    "tcandroid400basefontsize": "12",
    "tcandroid440basefontsize": "12",
    "tcandroid480basefontsize": "12",
    "tcandroid640basefontsize": "12",
    "tcbb240basefontsize": "12",
    "tcbb320basefontsize": "12",
    "tcbb360basefontsize": "12",
    "tcbb400basefontsize": "12",
    "tcbb440basefontsize": "12",
    "tcbb480basefontsize": "12",
    "tcimportedjsfileskey": "",
    "tciphonebasefontsize": "12",
    "tcnoscriptmessage": "To use this site, first enable your browser's JavaScript support and then refresh this page.",
    "tcphoneformatindicator": "false",
    "tcrequiresGPSfuctionality": "false",
    "thinwebcontextkey": "",
    "tileUpdateRecurrenceKey": "",
    "universallinksupport": "",
    "urlschemanameorder": "",
    "urlschemanameorder_andwear": "",
    "useWatchCommunicationApis": "false",
    "useWatchCommunicationApisAndWear": "false",
    "use_camera": "false",
    "usegoogleplaylocationservices": "false",
    "usegoogleplaylocationservicesandwear": "false",
    "userAccountInformation": "false",
    "userNotificationListener": "false",
    "useridkey": "",
    "usevizactions": "false",
    "vendornamekey": "KonyLabs",
    "videosLibrary": "false",
    "voipCall": "false",
    "wap_android240_fontsize": "12",
    "wap_android320_fontsize": "12",
    "wap_android360_fontsize": "12",
    "wap_android400_fontsize": "12",
    "wap_android440_fontsize": "12",
    "wap_android480_fontsize": "12",
    "wap_android640_fontsize": "12",
    "wap_bb240_fontsize": "12",
    "wap_bb320_fontsize": "12",
    "wap_bb360_fontsize": "12",
    "wap_bb400_fontsize": "12",
    "wap_bb440_fontsize": "12",
    "wap_bb480_fontsize": "12",
    "wap_ip_fontsize": "12",
    "wap_spaandroidtab_fontsize": "12",
    "wap_spaandroidtabhdpi_fontsize": "12",
    "wap_spaandroidtabldpi_fontsize": "12",
    "wap_spaandroidtabmdpi_fontsize": "12",
    "wap_spaipad_fontsize": "12",
    "wap_spawindowstab_fontsize": "12",
    "wap_winphone320_fontsize": "12",
    "wap_winphone480_fontsize": "12",
    "watchos_companionSettings2x29": "",
    "watchos_companionSettings3x29": "",
    "watchos_homeScreen40": "",
    "watchos_longlooknotificationicon_38": "",
    "watchos_longlooknotificationicon_42": "",
    "watchos_notificationcentericon_38": "",
    "watchos_notificationcentericon_42": "",
    "watchos_shortlooknotificationicon_38": "",
    "watchos_shortlooknotificationicon_42": "",
    "watchos_shortlooknotificationicon_44": "",
    "watchos_watchMarketing1x": "",
    "webcam": "false",
    "win10bgagentclassname": "",
    "win10bgagentnamespace": "",
    "win10bgagentpath": "",
    "win10bgagenttaskname": "",
    "win10pfxkey": "",
    "win6xj2meonlysupported": "false",
    "win8applogokey": "",
    "win8badgelogokey": "",
    "win8bgagentclassname": "",
    "win8bgagentnamespace": "",
    "win8bgagentpath": "",
    "win8bgagenttaskname": "",
    "win8certificatekey": "",
    "win8descriptionkey": "Sample Test Application",
    "win8displaynamekey": "Customer360",
    "win8enablecrashlogkey": "false",
    "win8lockscreennotificationskey": "Not set",
    "win8packagedisplaynamekey": "Customer360",
    "win8packagelogokey": "",
    "win8packagenamekey": "Customer360",
    "win8packagepublichernamekey": "Kony",
    "win8publisherdisplaynamekey": "KonyLabs",
    "win8pvkkey": "",
    "win8shortnamekey": "Customer360",
    "win8shownamekey": "Not set",
    "win8smalllogokey": "",
    "win8toastcapablekey": "Not set",
    "win8versionbuildkey": "0",
    "win8versionmajorkey": "1",
    "win8versionminorkey": "0",
    "win8versionrevisionkey": "0",
    "win8widelogokey": "",
    "winDisableApplicationScreenshot": "false",
    "windesktop_allowselfsignedcertificate": "None",
    "windesktop_disableapplicationminimize": "false",
    "windesktop_enableBackwardCompatibility": "false",
    "windows10guid": "",
    "windowskioskguid": "",
    "windowsloadindicatorkey": "true",
    "windowsmapkey": "",
    "winenablecrashlogkey": "false",
    "winmangotiletitlekey": "Customer360",
    "winmobileguidkey": "",
    "winmobiletileimagekey": "",
    "winphn10bgagentclassname": "",
    "winphn10bgagentnamespace": "",
    "winphn10bgagentpath": "",
    "winphn10bgagenttaskname": "",
    "winphn81bgagentclassname": "",
    "winphn81bgagentnamespace": "",
    "winphn81bgagentpath": "",
    "winphone_allowselfsignedcertificate": "None",
    "winphoneurlscheme": "",
    "winsmoothscrollkey": "true",
    "wintab_allowselfsignedcertificate": "None",
    "wintaburlscheme": "",
    "wintilebackcolornamekey": "128,128,128",
    "wintileforegroundnamekey": "Light",
    "wp10allJoyn": "false",
    "wp10applogokey": "",
    "wp10appointments": "false",
    "wp10backgroundMediaPlayback": "false",
    "wp10badgelogokey": "",
    "wp10blockedChatMessages": "false",
    "wp10bluetooth": "false",
    "wp10chat": "false",
    "wp10codeGeneration": "false",
    "wp10contacts": "false",
    "wp10descriptionkey": "Sample Test Application",
    "wp10displayname": "adminConsole",
    "wp10enablecrashlogkey": "false",
    "wp10enterpriseAuthentication": "false",
    "wp10initialRotationPreferenceKey": "landscape",
    "wp10internetClient": "false",
    "wp10internetClientServer": "false",
    "wp10location": "false",
    "wp10lockscreennotificationskey": "Not set",
    "wp10microphone": "false",
    "wp10musicLibrary": "false",
    "wp10objects3D": "false",
    "wp10packagedisplaynamekey": "Customer360",
    "wp10packagelogokey": "",
    "wp10packagenamekey": "Customer360",
    "wp10packagepublichernamekey": "KonyLabs",
    "wp10pfxkey": "",
    "wp10phoneCall": "false",
    "wp10picturesLibrary": "false",
    "wp10privateNetworkClientServer": "false",
    "wp10proximity": "false",
    "wp10publisherdisplaynamekey": "",
    "wp10remoteSystem": "false",
    "wp10removableStorage": "false",
    "wp10sharedUserCertificates": "false",
    "wp10shortnamekey": "Customer360",
    "wp10shownamekey": "Not set",
    "wp10smalllogokey": "",
    "wp10tileUpdateRecurrenceKey": "",
    "wp10tilebackcolornamekey": "128,128,128",
    "wp10tileforegroundnamekey": "Light",
    "wp10toastcapablekey": "Not set",
    "wp10userAccountInformation": "false",
    "wp10userNotificationListener": "false",
    "wp10versionbuildkey": "0",
    "wp10versionmajorkey": "1",
    "wp10versionminorkey": "0",
    "wp10versionrevisionkey": "0",
    "wp10videosLibrary": "false",
    "wp10voipCall": "false",
    "wp10webcam": "false",
    "wp10widelogokey": "",
    "wp81sdescriptionkey": "Sample Test Application",
    "wp81sdisplaynamekey": "Customer360",
    "wp81slockscreennotificationskey": "Not set",
    "wp81spackagedisplaynamekey": "Customer360",
    "wp81spackagenamekey": "Customer360",
    "wp81spackagepublichernamekey": "Kony",
    "wp81spublisherdisplaynamekey": "KonyLabs",
    "wp81stoastcapablekey": "Not set",
    "wp8cycle1key": "",
    "wp8cycle2key": "",
    "wp8cycle3key": "",
    "wp8cycle4key": "",
    "wp8cycle5key": "",
    "wp8cycle6key": "",
    "wp8cycle7key": "",
    "wp8cycle8key": "",
    "wp8cycle9key": "",
    "wp8cyclesmallkey": "",
    "wp8doNotInstalllowerMemory": "false",
    "wp8fliplargekey": "",
    "wp8flipmediumkey": "",
    "wp8flipsmallkey": "",
    "wp8iconcountnotificationkey": "false",
    "wp8iconicmediumkey": "",
    "wp8iconicsmallkey": "",
    "wp8iconimagekey": "",
    "wp8lockscreenbackgroundkey": "false",
    "wp8packagepublisheridkey": "",
    "wp8packageversionkey": "",
    "wp8supportlargetileskey": "false",
    "wp8textnotificationkey": "false",
    "wp8tilestemplatekey": "FLIP_TILE",
    "wp8tilestitlekey": "",
    "xhtmlfavicokey": ""
}