{
    "assetPlatform": "Visualizer",
    "assetVersion": "1.0.0",
    "createdBy": "shivaansh.agarwal@temenos.com",
    "createdMFVersion": "9.2.1.2",
    "createdVizVersion": "9.2.9",
    "currentMFVersion": "9.2.1.2",
    "currentVizVersion": "9.2.9",
    "itemCategory": "app",
    "itemGuid": "i2e755e72b7d4e5f97939dc8a26ff99f",
    "itemName": "adminConsole",
    "libraryVersion": "libver4",
    "modifiedBy": "shivaansh.agarwal@temenos.com"
}