{
    "@class": "com.kony.gen.viz.model.component.KVizUserWidget",
    "DNDConfig": null,
    "_children_": [],
    "_height_": {
        "type": "string",
        "value": "100%"
    },
    "_left_": {
        "type": "string",
        "value": "0dp"
    },
    "_margin_": [
        0,
        0,
        0,
        0
    ],
    "_orientation_": 1,
    "_padding_": [
        0,
        0,
        0,
        0
    ],
    "_percent_": true,
    "_skin_": "sf9c55017e324e16b8d4a710f3a703ab",
    "_top_": {
        "type": "string",
        "value": "0dp"
    },
    "_width_": {
        "type": "string",
        "value": "100%"
    },
    "areflexpropsreferenced": false,
    "canUpdateUI": true,
    "clipbounds": true,
    "containerweight": 0,
    "dataDiffs": {
        "btnOption0": {
            "__events__": {},
            "__info__": {
                "kuid": "ef84bf91643b4c85b47c657025ffd8dd",
                "srcKUID": "b0462e862ea2439dab03c9c304127129",
                "wType": "Button"
            }
        },
        "btnOption1": {
            "__events__": {},
            "__info__": {
                "kuid": "d7a6801aabe54f8fbbe44b9b612f24cf",
                "srcKUID": "c2d257ab80ae4fc9ad9de81f29cce669",
                "wType": "Button"
            },
            "i18n_text": "i18n.frmEnrollCustomer.SelectAccounts_UC",
            "text": ""
        },
        "btnOption2": {
            "__events__": {},
            "__info__": {
                "kuid": "b15898a6f9d2404098fe9c7956db4665",
                "srcKUID": "d83597898b114ff6ba9ad6468bfe0703",
                "wType": "Button"
            },
            "i18n_text": "i18n.frmGroupsController.AssignFeaturesAndActions_UC",
            "right": {
                "Default": {
                    "type": "string",
                    "value": "45dp"
                }
            },
            "text": "",
            "width": {
                "Default": {
                    "type": "string",
                    "value": ""
                }
            }
        },
        "btnOption3": {
            "__events__": {},
            "__info__": {
                "kuid": "gb7c286d7dd347b8a40c68c7b351aff9",
                "srcKUID": "bf3a31bf3a97491fb5f7cefa8ee73867",
                "wType": "Button"
            },
            "i18n_text": "i18n.frmCustomerProfileFeaturesActions.OtherFeaturesAndActions_UC",
            "right": {
                "Default": {
                    "type": "string",
                    "value": "45dp"
                }
            },
            "text": ""
        },
        "btnOption4": {
            "__events__": {},
            "__info__": {
                "kuid": "d5afc98994c44b72b9d76706c9a12ac1",
                "srcKUID": "ed26afa7f6a4411c8fc5b4a0ebceb866",
                "wType": "Button"
            },
            "i18n_text": "i18n.frmCustomerCreate.AssignLimits_UC"
        },
        "btnOption5": {
            "__events__": {},
            "__info__": {
                "kuid": "j32b834fa73d4aaaa76f405d56b4f2af",
                "srcKUID": "jf0b291df3444fad8e18945e4283f7e2",
                "wType": "Button"
            }
        },
        "btnOption6": {
            "__events__": {},
            "__info__": {
                "kuid": "d95b69a0730e4c36b729f1c583e66528",
                "srcKUID": "iae539eb83db4eb196d7b6751e38f1a4",
                "wType": "Button"
            }
        },
        "flxAccountsLeftMenu": {
            "__events__": {},
            "__info__": {
                "kuid": "fe1523b083ca422694f3f137d669f938",
                "srcKUID": "bc6251d4ae6442b5909df982fcfdb281",
                "wType": "FlexContainer"
            }
        },
        "flxAccountsLeftMenu6": {
            "__events__": {},
            "__info__": {
                "kuid": "b6c84d8f07cc4c0dbc096bf6bf8a5ed3",
                "srcKUID": "g833370a8332419b8090817e88c0792b",
                "wType": "FlexContainer"
            }
        },
        "flxAddSeperator2": {
            "__events__": {},
            "__info__": {
                "kuid": "b1a4fdeb48eb4521aee6c402e5c5fe8b",
                "srcKUID": "a43fd8d574ac4f798c0f3c3e3322deec",
                "wType": "FlexContainer"
            }
        },
        "flxAddSeperator3": {
            "__events__": {},
            "__info__": {
                "kuid": "fb56f55b206c43c081ac000580c240a9",
                "srcKUID": "a832cb47fcee4853b9ee0ff4c76f6b95",
                "wType": "FlexContainer"
            }
        },
        "flxAddSeperator4": {
            "__events__": {},
            "__info__": {
                "kuid": "fc43d74f8bcb4d8ead1a3de06dc91a10",
                "srcKUID": "ac65fbb623d14d2f83b6f5c16c794d75",
                "wType": "FlexContainer"
            }
        },
        "flxAddSeperator5": {
            "__events__": {},
            "__info__": {
                "kuid": "g8a1934aa4ca457291332c05dd8297db",
                "srcKUID": "ed40756258fa498e87494a1a29e57bb1",
                "wType": "FlexContainer"
            }
        },
        "flxAddSeperator6": {
            "__events__": {},
            "__info__": {
                "kuid": "b1016bfccd3d47198da418d5634284ea",
                "srcKUID": "a7c0bd544dd3414fb5d63416643ef067",
                "wType": "FlexContainer"
            }
        },
        "flxBottomPadding": {
            "__events__": {},
            "__info__": {
                "kuid": "g0ca4af6c63c43658bf227717548d5eb",
                "srcKUID": "g81fc63ec8d0409f933bffee96c4055c",
                "wType": "FlexContainer"
            }
        },
        "flxContentConatainer2": {
            "__events__": {},
            "__info__": {
                "kuid": "bbee4b2267014b4d89d8a96957dc9d17",
                "srcKUID": "ad42152312114b89822bfea58b0dc1fe",
                "wType": "FlexContainer"
            }
        },
        "flxContentContainer0": {
            "__events__": {},
            "__info__": {
                "kuid": "bcdd89e083024361a1afc375da0a35ed",
                "srcKUID": "c210756c21e74841a16c631c7482c8c1",
                "wType": "FlexContainer"
            }
        },
        "flxContentContainer1": {
            "__events__": {},
            "__info__": {
                "kuid": "ic9c0161a672486c9df6c29aa6b0c284",
                "srcKUID": "idbd099d49124f14b54ee970ac8c6a42",
                "wType": "FlexContainer"
            }
        },
        "flxContentContainer3": {
            "__events__": {},
            "__info__": {
                "kuid": "cf089861e40046c6bf445320adc88a27",
                "srcKUID": "c2289fdeef59478f8ba41bcd5d08c6f1",
                "wType": "FlexContainer"
            }
        },
        "flxContentContainer4": {
            "__events__": {},
            "__info__": {
                "kuid": "ca1ba3f2816c43a78aaafac503ec413e",
                "srcKUID": "d2a847dda741477f9f23cc492c4d09e2",
                "wType": "FlexContainer"
            }
        },
        "flxContentContainer5": {
            "__events__": {},
            "__info__": {
                "kuid": "iea97182692c4b6891a3bc1b8a54e13a",
                "srcKUID": "f2eb1f949d7645b998cd638d05ef26fb",
                "wType": "FlexContainer"
            }
        },
        "flxContentContainer6": {
            "__events__": {},
            "__info__": {
                "kuid": "f93c4cbfbc5b4999ac118f73f4beaa28",
                "srcKUID": "i446bad4521848b886b314ff0bfc6444",
                "wType": "FlexContainer"
            }
        },
        "flxImgArrow0": {
            "__events__": {},
            "__info__": {
                "kuid": "a69bc9c712c84384b2f6c2b85d3c871b",
                "srcKUID": "fedfcf162ba64effa6e8ab6441c011fa",
                "wType": "FlexContainer"
            }
        },
        "flxImgArrow1": {
            "__events__": {},
            "__info__": {
                "kuid": "a537bda3ea1345a9a2303262d2939ccc",
                "srcKUID": "e8ae8c43f0674359894256cd63d25c5d",
                "wType": "FlexContainer"
            }
        },
        "flxImgArrow2": {
            "__events__": {},
            "__info__": {
                "kuid": "gc16ead4ef2e43e9bd1739a62c791039",
                "srcKUID": "i25a2be923e94d12bd0b5068118f49d6",
                "wType": "FlexContainer"
            }
        },
        "flxImgArrow3": {
            "__events__": {},
            "__info__": {
                "kuid": "f8740b2f1c4744c08e97c2af59507d47",
                "srcKUID": "g13150120aa9479180b94d0873a0f1f7",
                "wType": "FlexContainer"
            }
        },
        "flxImgArrow4": {
            "__events__": {},
            "__info__": {
                "kuid": "ae418982f4ad4e2e9cc02170dc986853",
                "srcKUID": "f95e86db33974f058e9b25cb6dc45968",
                "wType": "FlexContainer"
            }
        },
        "flxImgArrow5": {
            "__events__": {},
            "__info__": {
                "kuid": "c62f33b42cde4218bb316ec1072970f6",
                "srcKUID": "c46d007b1a244775895314e0f2207e2d",
                "wType": "FlexContainer"
            }
        },
        "flxImgArrow6": {
            "__events__": {},
            "__info__": {
                "kuid": "cc4d1f48d3c1495ebc22b99a2613f8eb",
                "srcKUID": "f824f7de0b474bc4ba8c662b5fb454c9",
                "wType": "FlexContainer"
            }
        },
        "flxOption0": {
            "__events__": {},
            "__info__": {
                "kuid": "c2171156ad1c443dbc12583ccab25c08",
                "srcKUID": "ged7e7fd27424fe7b843583206cd7e32",
                "wType": "FlexContainer"
            }
        },
        "flxOption1": {
            "__events__": {},
            "__info__": {
                "kuid": "f02bb7760e1843ceba845b776ae965dd",
                "srcKUID": "c33d73c6103a40cba0228b50e2e69aa3",
                "wType": "FlexContainer"
            }
        },
        "flxOption2": {
            "__events__": {},
            "__info__": {
                "kuid": "c58bde22cb67471f9e36730786c284b9",
                "srcKUID": "f21ca47907dd47c58c26b648b8f9caed",
                "wType": "FlexContainer"
            }
        },
        "flxOption3": {
            "__events__": {},
            "__info__": {
                "kuid": "b9719e6d719a4b6f8aeee33cb2eaaf13",
                "srcKUID": "b91156dac9fb4535bb8728902ba1a40d",
                "wType": "FlexContainer"
            }
        },
        "flxOption4": {
            "__events__": {},
            "__info__": {
                "kuid": "h37925da4cb24269be77694c08045727",
                "srcKUID": "j5e227538fd74aa1a10de913e775503a",
                "wType": "FlexContainer"
            },
            "isVisible": true
        },
        "flxOption5": {
            "__events__": {},
            "__info__": {
                "kuid": "eb44ac9814a44e8688af7029c65bd797",
                "srcKUID": "a619fba84079407794c46ecbb945daff",
                "wType": "FlexContainer"
            }
        },
        "flxOption6": {
            "__events__": {},
            "__info__": {
                "kuid": "c7208339fe7a4e8992018abb62f5ef28",
                "srcKUID": "he672f93d837433fa7fc13cbebd17cf9",
                "wType": "FlexContainer"
            }
        },
        "flxSepratorConatainer3": {
            "__events__": {},
            "__info__": {
                "kuid": "e76a4077eac6489a96c9d0ee5abfac07",
                "srcKUID": "fcc8f92764d44df3bf5cddbd2068e0b1",
                "wType": "FlexContainer"
            }
        },
        "flxSepratorContainer": {
            "__events__": {},
            "__info__": {
                "kuid": "c728cbbf9ed0441ebf54a512e8e93ea2",
                "srcKUID": "f4880cc9886e477692ff162f0aa553bb",
                "wType": "FlexContainer"
            }
        },
        "flxSepratorContainer5": {
            "__events__": {},
            "__info__": {
                "kuid": "c7ba54b21fc14776889c4bf19cac15b3",
                "srcKUID": "a8890499806a454fbc6308b7d64144cd",
                "wType": "FlexContainer"
            }
        },
        "flxSepratorContainer6": {
            "__events__": {},
            "__info__": {
                "kuid": "g391e97e25fe496bb3db679ed8f56331",
                "srcKUID": "a3cf3fa8acd247618c9a63faaa535d9d",
                "wType": "FlexContainer"
            }
        },
        "flxSepratorcontainer0": {
            "__events__": {},
            "__info__": {
                "kuid": "f6eca7c7558e41bfbd2ed8395eda35b9",
                "srcKUID": "cf0cb080035f4272a55e7616c1252dbc",
                "wType": "FlexContainer"
            }
        },
        "flxSepratorcontainer1": {
            "__events__": {},
            "__info__": {
                "kuid": "bc2b2e9a7e8142d4a61aca96d351f982",
                "srcKUID": "bbddfbc7a64e44b3afdbe2c78b3bbc67",
                "wType": "FlexContainer"
            }
        },
        "flxSepratorcontainer2": {
            "__events__": {},
            "__info__": {
                "kuid": "ic2960a3d16e46a8b5789d6dc3abf173",
                "srcKUID": "db2030651c844e68b6764bc9c54636c8",
                "wType": "FlexContainer"
            }
        },
        "flxoptionSeperator0": {
            "__events__": {},
            "__info__": {
                "kuid": "ffb5877f02bb42e6a07f14dadbac577a",
                "srcKUID": "a2bd37db9e8c438fb34de26679978363",
                "wType": "FlexContainer"
            }
        },
        "flxoptionSeperator1": {
            "__events__": {},
            "__info__": {
                "kuid": "dff734a2d0ac477786a97fc0ada9d347",
                "srcKUID": "bd02b1a331f7449ebcdd63dfb10eb39f",
                "wType": "FlexContainer"
            }
        },
        "imgSelected0": {
            "__events__": {},
            "__info__": {
                "kuid": "ce401ff73fd04c53ba240399bf7e9111",
                "srcKUID": "beaebd8b60c642f9b8cc4b3d1da7a1af",
                "wType": "Image"
            }
        },
        "imgSelected1": {
            "__events__": {},
            "__info__": {
                "kuid": "afe255029d174cfa8cc22f7f1ffd256a",
                "srcKUID": "h8d94be0e96c456889df45138e4b474d",
                "wType": "Image"
            }
        },
        "imgSelected2": {
            "__events__": {},
            "__info__": {
                "kuid": "d1869935965741d5abf645c06a7b1fb8",
                "srcKUID": "d05ad30dfe3f4458b98fe505ec781feb",
                "wType": "Image"
            }
        },
        "imgSelected3": {
            "__events__": {},
            "__info__": {
                "kuid": "ecc52f41d1bd4de492b40176d87637e7",
                "srcKUID": "idd953ebf1264d89becfab30f2eb4c60",
                "wType": "Image"
            }
        },
        "imgSelected4": {
            "__events__": {},
            "__info__": {
                "kuid": "ged6a7e96b4d48ecb7a4f0783fb49483",
                "srcKUID": "acd6c7a2a6404b8687f3674c9076c0fa",
                "wType": "Image"
            }
        },
        "imgSelected5": {
            "__events__": {},
            "__info__": {
                "kuid": "ba3588e4fac54b03bb5c01b244a9c871",
                "srcKUID": "c33c871cbc9e421897b3c7df9035a904",
                "wType": "Image"
            }
        },
        "imgSelected6": {
            "__events__": {},
            "__info__": {
                "kuid": "a3f5d96ca9b44d05bb82c6921c3c0c0b",
                "srcKUID": "dc4e9bfbf5a34877bb399a6bb90f6406",
                "wType": "Image"
            }
        },
        "lblIconDropArrow4": {
            "__events__": {},
            "__info__": {
                "kuid": "c389b61def284c15b2390967f954fa7a",
                "srcKUID": "e844a6106fa0476888e331b08c01b3e8",
                "wType": "Label"
            }
        },
        "lblIconDropArrow6": {
            "__events__": {},
            "__info__": {
                "kuid": "aed126eba110486e942221acda1ffd76",
                "srcKUID": "a0ec99898b15477fbfbf9d63c0721a57",
                "wType": "Label"
            }
        },
        "lblOptional0": {
            "__events__": {},
            "__info__": {
                "kuid": "j3ffa115f44e4806b978f629baba3b6f",
                "srcKUID": "bd1a1438ed4e444c96f4155db364a191",
                "wType": "Label"
            },
            "isVisible": false
        },
        "lblOptional1": {
            "__events__": {},
            "__info__": {
                "kuid": "i4c4cb5833fb4e7dba478b32bd7b572f",
                "srcKUID": "deb1cfaca2274d649727b5e19505aa12",
                "wType": "Label"
            },
            "isVisible": true
        },
        "lblOptional2": {
            "__events__": {},
            "__info__": {
                "kuid": "da6b1dfb266b4ce3946b8c534928140f",
                "srcKUID": "f66377c612464557b0f40accf4256b28",
                "wType": "Label"
            }
        },
        "lblOptional3": {
            "__events__": {},
            "__info__": {
                "kuid": "idd794a25a194ea0937ec64068674423",
                "srcKUID": "g3a2a4820c284dbcb5da95d358be1e3c",
                "wType": "Label"
            }
        },
        "lblOptional4": {
            "__events__": {},
            "__info__": {
                "kuid": "ic1fc93ce49e49ea8e6f6c540b94382d",
                "srcKUID": "b44d249e2afb48b5afc92ec10b841e6a",
                "wType": "Label"
            }
        },
        "lblOptional5": {
            "__events__": {},
            "__info__": {
                "kuid": "a01d208efc2a4d8db3ba3c9956cbf857",
                "srcKUID": "e0c0f850a53c44fdaa569a6d32e00070",
                "wType": "Label"
            }
        },
        "lblOptional6": {
            "__events__": {},
            "__info__": {
                "kuid": "a4e905e274434a1e8496733c5c9a6ab2",
                "srcKUID": "feb34ebd00e2401183b64f008277afdb",
                "wType": "Label"
            }
        },
        "lblSelected0": {
            "__events__": {},
            "__info__": {
                "kuid": "e17f41a4152c4e41812e892eabb09613",
                "srcKUID": "efab0483bef246ee89a4c766e3240751",
                "wType": "Label"
            }
        },
        "lblSelected1": {
            "__events__": {},
            "__info__": {
                "kuid": "f4cb6692ab8746d890f8492dc2df3b49",
                "srcKUID": "d043ec53e5a54be6abf204e013c22350",
                "wType": "Label"
            }
        },
        "lblSelected2": {
            "__events__": {},
            "__info__": {
                "kuid": "j789f9ee886d4394b6ca3bb09732a9b5",
                "srcKUID": "i96b73fb954147e79488d00a72193403",
                "wType": "Label"
            }
        },
        "lblSelected3": {
            "__events__": {},
            "__info__": {
                "kuid": "def7af6d23fa4c63a4e29872b30979c8",
                "srcKUID": "beb063e1e4864f2d911534ce0c1119ed",
                "wType": "Label"
            }
        },
        "lblSelected4": {
            "__events__": {},
            "__info__": {
                "kuid": "d8904574cb674d5c8c70b0775143d924",
                "srcKUID": "i11c8a1098be41628e8f1ec6e52604a0",
                "wType": "Label"
            }
        },
        "lblSelected5": {
            "__events__": {},
            "__info__": {
                "kuid": "e6cfe0c1b9194dfdb826bd670faac093",
                "srcKUID": "j8f6e45d2f6c4750a49caa8f7ea9381d",
                "wType": "Label"
            }
        },
        "lblSelected6": {
            "__events__": {},
            "__info__": {
                "kuid": "ia813f2873e44c7ba5ecf807914fbeb0",
                "srcKUID": "g89449575d554fc8b445356b9531e05d",
                "wType": "Label"
            }
        },
        "segCompanyAccount6": {
            "__events__": {},
            "__info__": {
                "kuid": "e173604bbbce4f9794f149b5a8a8a56c",
                "srcKUID": "c597e76829dc474992884093bab7bf08",
                "wType": "Segment"
            }
        },
        "segCompanyAccounts": {
            "__events__": {},
            "__info__": {
                "kuid": "de996a437ca64777b7d0b1e96e337cc5",
                "srcKUID": "ge935d2a265d4aa491d4bb76666a05b0",
                "wType": "Segment"
            }
        },
        "verticalTabs1": {
            "__events__": {},
            "__info__": {
                "isRoot": true,
                "kuid": "b1062cbb5eab4bcdbefd0857d9ee6c6f",
                "srcKUID": "b2dd89c660604ecf89526e48fed9adce",
                "wType": "FlexContainer"
            }
        }
    },
    "enablescrolling": true,
    "id": "AddedUserEditVerticalTabs",
    "info": null,
    "isdatareferenced": false,
    "isvisible": true,
    "kuid": "b1062cbb5eab4bcdbefd0857d9ee6c6f",
    "layouttype": 4,
    "masterType": 0,
    "name": "kony.ui.UserWidgetInstance",
    "parent": "flxAddeUserEditVerticalTabs",
    "pf": "frmCompanies",
    "snapgridsize": 10,
    "snaptogrid": true,
    "sourceUserWidget": "b2dd89c660604ecf89526e48fed9adce",
    "wType": "UserWidgetInstance"
}