{
    "@class": "com.kony.gen.viz.model.component.KVizButton",
    "DNDConfig": null,
    "_height_": {
        "type": "string",
        "value": "22px"
    },
    "_margin_": [
        6,
        6,
        6,
        6
    ],
    "_padding_": [
        0,
        0,
        0,
        0
    ],
    "_right_": {
        "type": "string",
        "value": "20px"
    },
    "_skin_": "s918f47f786b4145a0ce71b925c7b10d",
    "_text_": "Add Range",
    "_width_": {
        "type": "string",
        "value": "88px"
    },
    "canUpdateUI": true,
    "centery": {
        "type": "string",
        "value": "50%"
    },
    "containerweight": 100,
    "contentalignment": 5,
    "desktopweb": {
        "psp": {
            "hoverSkin": "s2298852c1d6475da8f5c3a9c70d0f64"
        }
    },
    "disabledSkins": {
        "focusSkin": "s152a8ebff2840e2b2942e5ec1abbdb5"
    },
    "displaytext": true,
    "id": "btnAddRangeApprovalRule",
    "info": null,
    "isvisible": true,
    "kuid": "g69270c4453648a9ab384e828eaf2b60",
    "name": "kony.ui.Button",
    "parent": "flxAddApprovalHeadingAAR",
    "pf": "frmCompanies",
    "wType": "Button",
    "zindex": 3
}