{
    "@class": "com.kony.gen.viz.model.component.KVizButton",
    "DNDConfig": null,
    "_height_": {
        "type": "string",
        "value": "40dp"
    },
    "_margin_": [
        6,
        6,
        6,
        6
    ],
    "_padding_": [
        0,
        0,
        0,
        0
    ],
    "_right_": {
        "type": "string",
        "value": "20dp"
    },
    "_skin_": "s0a871a142a8487a8ed7f5dad686fe5b",
    "_text_": "NEXT",
    "_width_": {
        "type": "string",
        "value": "100dp"
    },
    "canUpdateUI": true,
    "centery": {
        "type": "string",
        "value": "50%"
    },
    "containerweight": 100,
    "contentalignment": 5,
    "desktopweb": {
        "psp": {
            "hoverSkin": "s0a871a142a8487a8ed7f5dad686fe5b"
        }
    },
    "disabledSkins": {},
    "displaytext": true,
    "focusskin": "s0a871a142a8487a8ed7f5dad686fe5b",
    "id": "btnAddGroupNext1",
    "info": null,
    "isvisible": true,
    "kuid": "e613e6bed1b84585baa131f0948fc85c",
    "name": "kony.ui.Button",
    "parent": "flxAddGroupRightButtons1",
    "pf": "frmCompanies",
    "texti18n": "i18n.permission.NEXT",
    "wType": "Button",
    "zindex": 1
}