{
    "@class": "com.kony.gen.viz.model.component.KVizUserWidget",
    "DNDConfig": null,
    "_children_": [],
    "_height_": {
        "type": "string",
        "value": "40dp"
    },
    "_left_": {
        "type": "string",
        "value": "20dp"
    },
    "_margin_": [
        0,
        0,
        0,
        0
    ],
    "_orientation_": 1,
    "_padding_": [
        0,
        0,
        0,
        0
    ],
    "_percent_": true,
    "_skin_": "s8ff24328417401b877c3ceb2a5fa27c",
    "_top_": {
        "type": "string",
        "value": "40dp"
    },
    "_width_": {
        "type": "string",
        "value": "310dp"
    },
    "areflexpropsreferenced": false,
    "autogrowmode": 0,
    "canUpdateUI": true,
    "clipbounds": false,
    "containerweight": 0,
    "dataDiffs": {
        "btnPrimary": {
            "__events__": {},
            "__info__": {
                "kuid": "d4861c92d6564e95a4f98c994c79b383",
                "srcKUID": "jd88068ef39746998972cc6ae1042ab7",
                "wType": "Button"
            }
        },
        "customersDropdown": {
            "__events__": {},
            "__info__": {
                "isRoot": true,
                "kuid": "c0c8172d875b41b692333300c5f48cc5",
                "srcKUID": "ff4d811ecc9643b9b1b3988d3fcbc11d",
                "wType": "FlexContainer"
            },
            "autogrowMode": {
                "Default": 0
            },
            "height": {
                "Default": {
                    "type": "string",
                    "value": "40dp"
                }
            },
            "left": {
                "Default": {
                    "type": "string",
                    "value": "20dp"
                }
            },
            "top": {
                "Default": {
                    "type": "string",
                    "value": "40dp"
                }
            },
            "width": {
                "Default": {
                    "type": "string",
                    "value": "310dp"
                }
            },
            "zIndex": {
                "Default": 5
            }
        },
        "flxClearSearchImage": {
            "__events__": {},
            "__info__": {
                "kuid": "d55e49dfd953413c8630276b9cea76d6",
                "srcKUID": "i92b7909fca44a8a8e94b8da748ba9a7",
                "wType": "FlexContainer"
            }
        },
        "flxDropdown": {
            "__events__": {},
            "__info__": {
                "kuid": "i65a66b5990f46f894546eb61487eda6",
                "srcKUID": "b2114ca161054b12b31b1b16c1fc9d3e",
                "wType": "FlexContainer"
            }
        },
        "flxNoResult": {
            "__events__": {},
            "__info__": {
                "kuid": "bc2a542723b64871a978806e4cbc9d2f",
                "srcKUID": "i2f0e72e04aa40adbc6306d802820d43",
                "wType": "FlexContainer"
            }
        },
        "flxSearchContainer": {
            "__events__": {},
            "__info__": {
                "kuid": "d44bb92b37204fb1806b21dc3267e144",
                "srcKUID": "e0fb0ba678fe427aabdbc042aee167c2",
                "wType": "FlexContainer"
            }
        },
        "flxSegmentList": {
            "__events__": {},
            "__info__": {
                "kuid": "de682873aa674c4e8c378290be8b0646",
                "srcKUID": "j995dee928944688a02a1a5f7ae0d8c1",
                "wType": "FlexContainer"
            },
            "isVisible": false
        },
        "flxSelectedText": {
            "__events__": {},
            "__info__": {
                "kuid": "fc269441f8564896be814363393eefa9",
                "srcKUID": "a2392784b8ac475cb1d2f04e6dcb01dc",
                "wType": "FlexContainer"
            },
            "autogrowMode": {
                "Default": 0
            },
            "height": {
                "Default": {
                    "type": "string",
                    "value": "100%"
                }
            }
        },
        "fontIconClearSearch": {
            "__events__": {},
            "__info__": {
                "kuid": "f2800396020848f78b42835cd8696d23",
                "srcKUID": "f7cac6a395e54316b33f32279565a6e9",
                "wType": "Label"
            }
        },
        "fontIconSearch": {
            "__events__": {},
            "__info__": {
                "kuid": "cdd7580019e74e8d8d4552713494ec65",
                "srcKUID": "b8179919ab92415894b6985349fe57f7",
                "wType": "Label"
            }
        },
        "lblIconDropdown": {
            "__events__": {},
            "__info__": {
                "kuid": "b7c7dbdd5c974b60bbb83e85ed31ec3b",
                "srcKUID": "a333ea3556584c3b87fcc0972d83b6f9",
                "wType": "Label"
            }
        },
        "lblNoResult": {
            "__events__": {},
            "__info__": {
                "kuid": "d36e3961b2e347518d2b4a2625c0aba0",
                "srcKUID": "iaaefb2ec10c4332ada2a78a12213502",
                "wType": "Label"
            }
        },
        "lblSearchSeparator": {
            "__events__": {},
            "__info__": {
                "kuid": "adc9de638a9b4ba08cbf9037df80bec1",
                "srcKUID": "f852395c6fa34a6ba8ba5c5ef8366a62",
                "wType": "Label"
            }
        },
        "lblSelectedValue": {
            "__events__": {},
            "__info__": {
                "kuid": "a40e4c1d9f76433c9eed0b79354f49a5",
                "srcKUID": "gfb202ee046448adb76712930abb41b0",
                "wType": "Label"
            },
            "text": "Select a Customer"
        },
        "segList": {
            "__events__": {},
            "__info__": {
                "kuid": "c8dd4bd66dca452d87b1aa68d10c7023",
                "srcKUID": "g17bf1c5785741d2a4b69a3c21b59ce2",
                "wType": "Segment"
            }
        },
        "tbxSearchBox": {
            "__events__": {},
            "__info__": {
                "kuid": "d2eaacb74c1a42df8449118d13f86abf",
                "srcKUID": "e2d8311a6263449798ee9572b538be8b",
                "wType": "TextField"
            }
        }
    },
    "enablescrolling": true,
    "id": "contractCustomers",
    "info": null,
    "iscustomlayout": false,
    "isdatareferenced": false,
    "isvisible": true,
    "kuid": "c0c8172d875b41b692333300c5f48cc5",
    "layouttype": 2,
    "masterType": 0,
    "name": "kony.ui.UserWidgetInstance",
    "parent": "flxAddExistingUserRelatatedCustomer",
    "pf": "frmCompanies",
    "retaincontentalignment": false,
    "retainflexpositionproperties": false,
    "retainflowhorizontalalignment": false,
    "snapgridsize": 10,
    "snaptogrid": true,
    "sourceUserWidget": "ff4d811ecc9643b9b1b3988d3fcbc11d",
    "wType": "UserWidgetInstance",
    "zindex": 5
}