{
    "DNDConfig": null,
    "_bottom_": {
        "type": "string",
        "value": "0px"
    },
    "_height_": {
        "type": "string",
        "value": "80px"
    },
    "_left_": {
        "type": "string",
        "value": "30px"
    },
    "_margin_": [
        0,
        0,
        0,
        0
    ],
    "_orientation_": 6,
    "_padding_": [
        0,
        0,
        0,
        0
    ],
    "_percent_": true,
    "_right_": {
        "type": "string",
        "value": "30px"
    },
    "_skin_": "s70f207401314bbeaf01be036e14c79a",
    "allboxes": [],
    "autogrowmode": 0,
    "canUpdateUI": true,
    "children": [
        "addExistingcommonButtons"
    ],
    "clipbounds": false,
    "containerweight": 100,
    "enablescrolling": true,
    "id": "flxAddExistingCommonButtons",
    "info": null,
    "isvisible": true,
    "kuid": "a4e7eb690490426f8067ad946714c716",
    "layouttype": 2,
    "name": "kony.ui.FlexContainer",
    "parent": "flxAddExsitingUserPopUpBottomButtons",
    "pf": "frmCompanies",
    "snapgridsize": 10,
    "snaptogrid": true,
    "wType": "FlexContainer",
    "widgetalignment": 1,
    "zindex": 1
}