{
    "DNDConfig": null,
    "_height_": {
        "type": "string",
        "value": "50px"
    },
    "_left_": {
        "type": "string",
        "value": "0dp"
    },
    "_margin_": [
        0,
        0,
        0,
        0
    ],
    "_orientation_": 6,
    "_padding_": [
        0,
        0,
        0,
        0
    ],
    "_percent_": true,
    "_right_": {
        "type": "string",
        "value": "0dp"
    },
    "_skin_": "s8ff24328417401b877c3ceb2a5fa27c",
    "_top_": {
        "type": "string",
        "value": "135dp"
    },
    "allboxes": [],
    "autogrowmode": 0,
    "canUpdateUI": true,
    "children": [
        "flxAddRuleHeadingContAAR",
        "btnAddRangeApprovalRule",
        "flxAddRuleSeperatorAAR"
    ],
    "clipbounds": true,
    "containerweight": 100,
    "enablescrolling": true,
    "id": "flxAddApprovalHeadingAAR",
    "info": null,
    "iscustomlayout": false,
    "isvisible": true,
    "kuid": "ifd5f8b8bcff45779e079d819732ffc2",
    "layouttype": 2,
    "name": "kony.ui.FlexContainer",
    "parent": "flxAddApprovalRuleOuter",
    "pf": "frmCompanies",
    "retaincontentalignment": false,
    "retainflexpositionproperties": false,
    "snapgridsize": 10,
    "snaptogrid": true,
    "wType": "FlexContainer",
    "widgetalignment": 1
}