{
    "DNDConfig": null,
    "_bottom_": {
        "type": "string",
        "value": "95dp"
    },
    "_margin_": [
        0,
        0,
        0,
        0
    ],
    "_orientation_": 6,
    "_padding_": [
        0,
        0,
        0,
        0
    ],
    "_percent_": true,
    "_skin_": "s438947e0b124486a93d616f381275f9",
    "_top_": {
        "type": "string",
        "value": "95dp"
    },
    "_width_": {
        "type": "string",
        "value": "986dp"
    },
    "allboxes": [],
    "autogrowmode": 0,
    "canUpdateUI": true,
    "centerx": {
        "type": "string",
        "value": "50%"
    },
    "children": [
        "flxAddUserPopUpTopColor",
        "flxPopUpClose",
        "flxPopupHeaderContainer",
        "flxAddUserScreen"
    ],
    "clipbounds": true,
    "containerweight": 100,
    "enablescrolling": true,
    "id": "flxAddUserPopupContainer",
    "info": null,
    "iscustomlayout": false,
    "isvisible": true,
    "kuid": "e55057f7f53643fbb98ab69416b1fa7b",
    "layouttype": 2,
    "name": "kony.ui.FlexContainer",
    "parent": "flxAddUsersPopup",
    "pf": "frmCompanies",
    "retaincontentalignment": false,
    "retainflexpositionproperties": false,
    "retainflowhorizontalalignment": false,
    "snapgridsize": 10,
    "snaptogrid": true,
    "wType": "FlexContainer",
    "widgetalignment": 1
}