{
    "DNDConfig": null,
    "_bottom_": {
        "type": "string",
        "value": "0dp"
    },
    "_left_": {
        "type": "string",
        "value": "35dp"
    },
    "_margin_": [
        0,
        0,
        0,
        0
    ],
    "_orientation_": 6,
    "_padding_": [
        0,
        0,
        0,
        0
    ],
    "_percent_": true,
    "_right_": {
        "type": "string",
        "value": "35dp"
    },
    "_skin_": "s487fea701274cdaa8da223976bff746",
    "_top_": {
        "type": "string",
        "value": "0dp"
    },
    "allboxes": [],
    "autogrowmode": 0,
    "canUpdateUI": true,
    "children": [
        "flxHeaderContAAR",
        "flxApprovalBasicDetailsAAR",
        "flxAddApprovalHeadingAAR",
        "flxRulesListContainerAAR",
        "flxButtonsAAR"
    ],
    "clipbounds": true,
    "containerweight": 100,
    "enablescrolling": true,
    "id": "flxAddApprovalRuleOuter",
    "info": null,
    "iscustomlayout": false,
    "isvisible": true,
    "kuid": "g7174673f5ba43949ee700f835d33b29",
    "layouttype": 2,
    "name": "kony.ui.FlexContainer",
    "parent": "flxAddApprovalRule",
    "pf": "frmCompanies",
    "retaincontentalignment": false,
    "retainflexpositionproperties": false,
    "retainflowhorizontalalignment": false,
    "snapgridsize": 10,
    "snaptogrid": true,
    "wType": "FlexContainer",
    "widgetalignment": 1
}