{
    "DNDConfig": null,
    "_height_": {
        "type": "ref",
        "value": "preferred"
    },
    "_left_": {
        "type": "string",
        "value": "0dp"
    },
    "_margin_": [
        0,
        0,
        0,
        0
    ],
    "_orientation_": 6,
    "_padding_": [
        0,
        0,
        0,
        0
    ],
    "_percent_": true,
    "_skin_": "s8ff24328417401b877c3ceb2a5fa27c",
    "_top_": {
        "type": "string",
        "value": "60dp"
    },
    "_width_": {
        "type": "string",
        "value": "100%"
    },
    "allboxes": [],
    "autogrowmode": 1,
    "canUpdateUI": true,
    "children": [
        "lblDetailsHeadingAAR1",
        "lblDetailsValueAAR1",
        "lblDetailsHeadingAAR2",
        "lblDetailsValueAAR2",
        "lblDetailsHeadingAAR3",
        "lblDetailsValueAAR3"
    ],
    "clipbounds": true,
    "containerweight": 100,
    "enablescrolling": true,
    "id": "flxApprovalBasicDetailsAAR",
    "info": null,
    "iscustomlayout": false,
    "isvisible": true,
    "kuid": "c1390534889347d8b0713e17dd71a6ef",
    "layouttype": 2,
    "name": "kony.ui.FlexContainer",
    "parent": "flxAddApprovalRuleOuter",
    "pf": "frmCompanies",
    "retaincontentalignment": false,
    "retainflexpositionproperties": false,
    "snapgridsize": 10,
    "snaptogrid": true,
    "wType": "FlexContainer",
    "widgetalignment": 1
}