{
    "DNDConfig": null,
    "_bottom_": {
        "type": "string",
        "value": "15px"
    },
    "_height_": {
        "type": "string",
        "value": "40px"
    },
    "_margin_": [
        0,
        0,
        0,
        0
    ],
    "_orientation_": 6,
    "_padding_": [
        0,
        0,
        0,
        0
    ],
    "_percent_": true,
    "_right_": {
        "type": "string",
        "value": "20px"
    },
    "_skin_": "sb9d6e399da14265a46573f608f0a88f",
    "_top_": {
        "type": "string",
        "value": "122px"
    },
    "_width_": {
        "type": "string",
        "value": "50%"
    },
    "allboxes": [],
    "autogrowmode": 0,
    "canUpdateUI": true,
    "children": [
        "CopyflxBackground0a2e6f0ee702a43",
        "CopylblHorizSeperator0a699387735c044",
        "CopytbxTransactionSearch0af127b80b4254f",
        "CopyflxClearTransactionSearch0i6a06d8a37bb45"
    ],
    "clipbounds": true,
    "containerweight": 100,
    "desktopweb": {
        "psp": {}
    },
    "disabledSkins": {
        "focusSkin": "s85984211b6b4a518da4cc9a77aee487",
        "hoverSkin": "s85984211b6b4a518da4cc9a77aee487"
    },
    "enablescrolling": true,
    "focusskin": null,
    "id": "flxApprovalMatrixSearch",
    "info": null,
    "isvisible": true,
    "kuid": "f0dc2d05924945ff89a77b0200bdfe2c",
    "layouttype": 2,
    "name": "kony.ui.FlexContainer",
    "parent": "flxViewLimitsContainer",
    "pf": "frmCompanies",
    "snapgridsize": 10,
    "snaptogrid": true,
    "wType": "FlexContainer",
    "widgetalignment": 1,
    "zindex": 1
}