{
    "DNDConfig": null,
    "_height_": {
        "type": "ref",
        "value": "preferred"
    },
    "_left_": {
        "type": "string",
        "value": "0"
    },
    "_margin_": [
        0,
        0,
        0,
        0
    ],
    "_orientation_": 6,
    "_padding_": [
        0,
        0,
        0,
        0
    ],
    "_percent_": true,
    "_skin_": "s8ff24328417401b877c3ceb2a5fa27c",
    "_top_": {
        "type": "string",
        "value": "0"
    },
    "_width_": {
        "type": "string",
        "value": "100%"
    },
    "allboxes": [],
    "autogrowmode": 1,
    "canUpdateUI": true,
    "children": [
        "flxAccountsLeftMenu",
        "flxLeftTabsSeperatorLine",
        "flxViewLimitsContainer",
        "flxAccountsBackAM",
        "flxSelectionSearchContAM",
        "flxApprovalMatrixCardCont"
    ],
    "clipbounds": true,
    "containerweight": 100,
    "enablescrolling": true,
    "id": "flxCompanyDetailsApprovalMatrix",
    "info": null,
    "iscustomlayout": false,
    "isvisible": false,
    "kuid": "b5b246c0fee84b76ae572ef3facf0e0c",
    "layouttype": 2,
    "name": "kony.ui.FlexContainer",
    "parent": "flxDetailsContainer",
    "pf": "frmCompanies",
    "retaincontentalignment": false,
    "retainflexpositionproperties": false,
    "retainflowhorizontalalignment": false,
    "snapgridsize": 10,
    "snaptogrid": true,
    "wType": "FlexContainer",
    "widgetalignment": 1
}