{
    "DNDConfig": null,
    "_height_": {
        "type": "string",
        "value": "40px"
    },
    "_margin_": [
        0,
        0,
        0,
        0
    ],
    "_orientation_": 6,
    "_padding_": [
        0,
        0,
        0,
        0
    ],
    "_percent_": true,
    "_right_": {
        "type": "string",
        "value": "20px"
    },
    "_skin_": "sb9d6e399da14265a46573f608f0a88f",
    "_top_": {
        "type": "string",
        "value": "10px"
    },
    "_width_": {
        "type": "string",
        "value": "508px"
    },
    "allboxes": [],
    "autogrowmode": 0,
    "canUpdateUI": true,
    "children": [
        "flxGroupsBackground",
        "lblSearchSeperator",
        "tbxGroupsSearch",
        "flxClearGroupsSearch"
    ],
    "clipbounds": true,
    "containerweight": 100,
    "desktopweb": {
        "psp": {}
    },
    "disabledSkins": {
        "focusSkin": "s85984211b6b4a518da4cc9a77aee487",
        "hoverSkin": "s85984211b6b4a518da4cc9a77aee487"
    },
    "enablescrolling": true,
    "focusskin": null,
    "id": "flxGroupsSearchContainer",
    "info": null,
    "isvisible": true,
    "kuid": "f7c41d5957d2438ab19e53b8cc215398",
    "layouttype": 2,
    "name": "kony.ui.FlexContainer",
    "parent": "flxGroupsSearchHeaders",
    "pf": "frmCompanies",
    "snapgridsize": 10,
    "snaptogrid": true,
    "wType": "FlexContainer",
    "widgetalignment": 1,
    "zindex": 1
}