{
    "DNDConfig": null,
    "_height_": {
        "type": "string",
        "value": "100%"
    },
    "_left_": {
        "type": "string",
        "value": "0dp"
    },
    "_margin_": [
        0,
        0,
        0,
        0
    ],
    "_orientation_": 6,
    "_padding_": [
        0,
        0,
        0,
        0
    ],
    "_percent_": true,
    "_skin_": "s18e2ced6ee54b75a5ba66f8d41070d5",
    "_top_": {
        "type": "string",
        "value": "0dp"
    },
    "_width_": {
        "type": "string",
        "value": "100%"
    },
    "allboxes": [],
    "autogrowmode": 0,
    "canUpdateUI": true,
    "children": [
        "flxLeftPanel",
        "flxRightPanel",
        "flxToastMessage",
        "flxHeaderDropdown",
        "flxLoading",
        "flxUnlinkAccount",
        "flxSuspendFeaturePopup",
        "flxSuspendEditFeaturePopup",
        "flxFeatureDetails",
        "settingsMenu",
        "flxCustomerSearchPopUp",
        "flxAddUserFromExistingCustomerContainer",
        "flxAddOtherUserContainer",
        "flxAddCustomerContainer",
        "flxBulkUpdateFeaturesPopup",
        "flxAddUsersPopup",
        "flxBulkUpdateFeaturesPopupForAddUser",
        "flxContractDetailsPopup",
        "ToolTip"
    ],
    "clipbounds": true,
    "containerweight": 100,
    "enablescrolling": true,
    "id": "flxMain",
    "info": null,
    "iscustomlayout": false,
    "isvisible": true,
    "kuid": "ja6c5b6b544b427ea43fbd5f5cfe24a6",
    "layouttype": 2,
    "name": "kony.ui.FlexContainer",
    "parent": "frmCompanies",
    "pf": "frmCompanies",
    "retaincontentalignment": false,
    "retainflexpositionproperties": false,
    "snapgridsize": 10,
    "snaptogrid": true,
    "wType": "FlexContainer",
    "widgetalignment": 1,
    "zindex": 1
}