{
    "DNDConfig": null,
    "_height_": {
        "type": "ref",
        "value": "preferred"
    },
    "_left_": {
        "type": "string",
        "value": "230dp"
    },
    "_margin_": [
        0,
        0,
        0,
        0
    ],
    "_orientation_": 6,
    "_padding_": [
        0,
        0,
        0,
        0
    ],
    "_percent_": true,
    "_right_": {
        "type": "string",
        "value": "0dp"
    },
    "_skin_": "s8ff24328417401b877c3ceb2a5fa27c",
    "_top_": {
        "type": "string",
        "value": "0dp"
    },
    "_width_": {
        "type": "ref",
        "value": "preferred"
    },
    "allboxes": [],
    "autogrowmode": 1,
    "canUpdateUI": true,
    "children": [
        "tabs",
        "flxPerTransactionLimitsContent",
        "flxDailyTransactionLimitsContent",
        "flxWeeklyTransactionLimitsContent",
        "flxApprovalMatrixSearch",
        "flxPhraseStatus"
    ],
    "clipbounds": true,
    "containerweight": 100,
    "enablescrolling": true,
    "id": "flxViewLimitsContainer",
    "info": null,
    "iscustomlayout": false,
    "isvisible": true,
    "kuid": "g5acc765b69b44bab4797863a684e7a7",
    "layouttype": 2,
    "name": "kony.ui.FlexContainer",
    "parent": "flxCompanyDetailsApprovalMatrix",
    "pf": "frmCompanies",
    "retaincontentalignment": false,
    "retainflexpositionproperties": false,
    "retainflowhorizontalalignment": false,
    "snapgridsize": 10,
    "snaptogrid": true,
    "wType": "FlexContainer",
    "widgetalignment": 1
}