{
    "@class": "com.kony.gen.viz.model.component.KVizLabel",
    "DNDConfig": null,
    "_height_": {
        "type": "ref",
        "value": "preferred"
    },
    "_margin_": [
        1,
        1,
        1,
        1
    ],
    "_padding_": [
        0,
        0,
        0,
        0
    ],
    "_skin_": "s601d7c6ae7e4384beba2a1e569950f5",
    "_text_": "Active",
    "_width_": {
        "type": "string",
        "value": "50px"
    },
    "_wrapping_": 2,
    "android": {
        "textStyle": {
            "letterSpacing": 0,
            "strikeThrough": false
        }
    },
    "canUpdateUI": true,
    "centery": {
        "type": "string",
        "value": "50%"
    },
    "containerweight": 100,
    "contentalignment": 4,
    "desktopweb": {
        "contentAlignment": 4
    },
    "id": "lblPhraseStatus",
    "info": null,
    "ipad": {
        "psp": {
            "wrapping": 2
        }
    },
    "iphone": {
        "psp": {
            "wrapping": 2
        }
    },
    "isvisible": true,
    "kuid": "hd6eaf83eddd4c7bbd022efcd828a482",
    "name": "kony.ui.Label",
    "parent": "flxPhraseStatus",
    "pf": "frmCompanies",
    "texti18n": "i18n.permission.Active",
    "tooltip": "",
    "wType": "Label",
    "zindex": 1
}