{
    "@class": "com.kony.gen.viz.model.container.KVizSegment2",
    "DNDConfig": null,
    "_bottom_": {
        "type": "string",
        "value": "0dp"
    },
    "_data_": [
        {
            "lblAddApprovalCondition": {
                "@class": "com.viz.ide.model.segment.SimpleTextSegmentData",
                "text": "Add Condition"
            },
            "lblApprovalCondNA": {
                "@class": "com.viz.ide.model.segment.SimpleTextSegmentData",
                "text": "N/A"
            },
            "lblApprovalRequired": {
                "@class": "com.viz.ide.model.segment.SimpleTextSegmentData",
                "text": "Label"
            },
            "lblErrorText1": {
                "@class": "com.viz.ide.model.segment.SimpleTextSegmentData",
                "text": "Error"
            },
            "lblErrorText2": {
                "@class": "com.viz.ide.model.segment.SimpleTextSegmentData",
                "text": "Error"
            },
            "lblErrorText3": {
                "@class": "com.viz.ide.model.segment.SimpleTextSegmentData",
                "text": "Error"
            },
            "lblIconCurrencyFrom": {
                "@class": "com.viz.ide.model.segment.SimpleTextSegmentData",
                "text": ""
            },
            "lblIconCurrencySingle": {
                "@class": "com.viz.ide.model.segment.SimpleTextSegmentData",
                "text": ""
            },
            "lblIconCurrencyTo": {
                "@class": "com.viz.ide.model.segment.SimpleTextSegmentData",
                "text": ""
            },
            "lblIconDeleteRule": {
                "@class": "com.viz.ide.model.segment.SimpleTextSegmentData",
                "text": ""
            },
            "lblIconError1": {
                "@class": "com.viz.ide.model.segment.SimpleTextSegmentData",
                "text": ""
            },
            "lblIconError2": {
                "@class": "com.viz.ide.model.segment.SimpleTextSegmentData",
                "text": ""
            },
            "lblIconError3": {
                "@class": "com.viz.ide.model.segment.SimpleTextSegmentData",
                "text": ""
            },
            "lblSeperator": {
                "@class": "com.viz.ide.model.segment.SimpleTextSegmentData",
                "text": "Label"
            },
            "lstBoxRangeType": {
                "@class": "com.viz.ide.model.segment.CheckableSegmentData",
                "masterData": [
                    [
                        "lb1",
                        "Placeholder One"
                    ],
                    [
                        "lb2",
                        "Placeholder Two"
                    ],
                    [
                        "lb3",
                        "Placeholder Three"
                    ]
                ],
                "selectedKey": null,
                "selectedKeys": null
            },
            "switchToggle": {
                "@class": "com.viz.ide.model.segment.SelectedIndexSegmentData",
                "selectedIndex": 0
            },
            "tbxFromRangeValue": {
                "@class": "com.viz.ide.model.segment.ComplexTextSegmentData",
                "placeholder": "Placeholder",
                "text": ""
            },
            "tbxSingleRangeValue": {
                "@class": "com.viz.ide.model.segment.ComplexTextSegmentData",
                "placeholder": "Placeholder",
                "text": ""
            },
            "tbxToRangeValue": {
                "@class": "com.viz.ide.model.segment.ComplexTextSegmentData",
                "placeholder": "Placeholder",
                "text": ""
            }
        },
        {
            "lblAddApprovalCondition": {
                "@class": "com.viz.ide.model.segment.SimpleTextSegmentData",
                "text": "Add Condition"
            },
            "lblApprovalCondNA": {
                "@class": "com.viz.ide.model.segment.SimpleTextSegmentData",
                "text": "N/A"
            },
            "lblApprovalRequired": {
                "@class": "com.viz.ide.model.segment.SimpleTextSegmentData",
                "text": "Label"
            },
            "lblErrorText1": {
                "@class": "com.viz.ide.model.segment.SimpleTextSegmentData",
                "text": "Error"
            },
            "lblErrorText2": {
                "@class": "com.viz.ide.model.segment.SimpleTextSegmentData",
                "text": "Error"
            },
            "lblErrorText3": {
                "@class": "com.viz.ide.model.segment.SimpleTextSegmentData",
                "text": "Error"
            },
            "lblIconCurrencyFrom": {
                "@class": "com.viz.ide.model.segment.SimpleTextSegmentData",
                "text": ""
            },
            "lblIconCurrencySingle": {
                "@class": "com.viz.ide.model.segment.SimpleTextSegmentData",
                "text": ""
            },
            "lblIconCurrencyTo": {
                "@class": "com.viz.ide.model.segment.SimpleTextSegmentData",
                "text": ""
            },
            "lblIconDeleteRule": {
                "@class": "com.viz.ide.model.segment.SimpleTextSegmentData",
                "text": ""
            },
            "lblIconError1": {
                "@class": "com.viz.ide.model.segment.SimpleTextSegmentData",
                "text": ""
            },
            "lblIconError2": {
                "@class": "com.viz.ide.model.segment.SimpleTextSegmentData",
                "text": ""
            },
            "lblIconError3": {
                "@class": "com.viz.ide.model.segment.SimpleTextSegmentData",
                "text": ""
            },
            "lblSeperator": {
                "@class": "com.viz.ide.model.segment.SimpleTextSegmentData",
                "text": "Label"
            },
            "lstBoxRangeType": {
                "@class": "com.viz.ide.model.segment.CheckableSegmentData",
                "masterData": [
                    [
                        "lb1",
                        "Placeholder One"
                    ],
                    [
                        "lb2",
                        "Placeholder Two"
                    ],
                    [
                        "lb3",
                        "Placeholder Three"
                    ]
                ],
                "selectedKey": null,
                "selectedKeys": null
            },
            "switchToggle": {
                "@class": "com.viz.ide.model.segment.SelectedIndexSegmentData",
                "selectedIndex": 0
            },
            "tbxFromRangeValue": {
                "@class": "com.viz.ide.model.segment.ComplexTextSegmentData",
                "placeholder": "Placeholder",
                "text": ""
            },
            "tbxSingleRangeValue": {
                "@class": "com.viz.ide.model.segment.ComplexTextSegmentData",
                "placeholder": "Placeholder",
                "text": ""
            },
            "tbxToRangeValue": {
                "@class": "com.viz.ide.model.segment.ComplexTextSegmentData",
                "placeholder": "Placeholder",
                "text": ""
            }
        },
        {
            "lblAddApprovalCondition": {
                "@class": "com.viz.ide.model.segment.SimpleTextSegmentData",
                "text": "Add Condition"
            },
            "lblApprovalCondNA": {
                "@class": "com.viz.ide.model.segment.SimpleTextSegmentData",
                "text": "N/A"
            },
            "lblApprovalRequired": {
                "@class": "com.viz.ide.model.segment.SimpleTextSegmentData",
                "text": "Label"
            },
            "lblErrorText1": {
                "@class": "com.viz.ide.model.segment.SimpleTextSegmentData",
                "text": "Error"
            },
            "lblErrorText2": {
                "@class": "com.viz.ide.model.segment.SimpleTextSegmentData",
                "text": "Error"
            },
            "lblErrorText3": {
                "@class": "com.viz.ide.model.segment.SimpleTextSegmentData",
                "text": "Error"
            },
            "lblIconCurrencyFrom": {
                "@class": "com.viz.ide.model.segment.SimpleTextSegmentData",
                "text": ""
            },
            "lblIconCurrencySingle": {
                "@class": "com.viz.ide.model.segment.SimpleTextSegmentData",
                "text": ""
            },
            "lblIconCurrencyTo": {
                "@class": "com.viz.ide.model.segment.SimpleTextSegmentData",
                "text": ""
            },
            "lblIconDeleteRule": {
                "@class": "com.viz.ide.model.segment.SimpleTextSegmentData",
                "text": ""
            },
            "lblIconError1": {
                "@class": "com.viz.ide.model.segment.SimpleTextSegmentData",
                "text": ""
            },
            "lblIconError2": {
                "@class": "com.viz.ide.model.segment.SimpleTextSegmentData",
                "text": ""
            },
            "lblIconError3": {
                "@class": "com.viz.ide.model.segment.SimpleTextSegmentData",
                "text": ""
            },
            "lblSeperator": {
                "@class": "com.viz.ide.model.segment.SimpleTextSegmentData",
                "text": "Label"
            },
            "lstBoxRangeType": {
                "@class": "com.viz.ide.model.segment.CheckableSegmentData",
                "masterData": [
                    [
                        "lb1",
                        "Placeholder One"
                    ],
                    [
                        "lb2",
                        "Placeholder Two"
                    ],
                    [
                        "lb3",
                        "Placeholder Three"
                    ]
                ],
                "selectedKey": null,
                "selectedKeys": null
            },
            "switchToggle": {
                "@class": "com.viz.ide.model.segment.SelectedIndexSegmentData",
                "selectedIndex": 0
            },
            "tbxFromRangeValue": {
                "@class": "com.viz.ide.model.segment.ComplexTextSegmentData",
                "placeholder": "Placeholder",
                "text": ""
            },
            "tbxSingleRangeValue": {
                "@class": "com.viz.ide.model.segment.ComplexTextSegmentData",
                "placeholder": "Placeholder",
                "text": ""
            },
            "tbxToRangeValue": {
                "@class": "com.viz.ide.model.segment.ComplexTextSegmentData",
                "placeholder": "Placeholder",
                "text": ""
            }
        },
        {
            "lblAddApprovalCondition": {
                "@class": "com.viz.ide.model.segment.SimpleTextSegmentData",
                "text": "Add Condition"
            },
            "lblApprovalCondNA": {
                "@class": "com.viz.ide.model.segment.SimpleTextSegmentData",
                "text": "N/A"
            },
            "lblApprovalRequired": {
                "@class": "com.viz.ide.model.segment.SimpleTextSegmentData",
                "text": "Label"
            },
            "lblErrorText1": {
                "@class": "com.viz.ide.model.segment.SimpleTextSegmentData",
                "text": "Error"
            },
            "lblErrorText2": {
                "@class": "com.viz.ide.model.segment.SimpleTextSegmentData",
                "text": "Error"
            },
            "lblErrorText3": {
                "@class": "com.viz.ide.model.segment.SimpleTextSegmentData",
                "text": "Error"
            },
            "lblIconCurrencyFrom": {
                "@class": "com.viz.ide.model.segment.SimpleTextSegmentData",
                "text": ""
            },
            "lblIconCurrencySingle": {
                "@class": "com.viz.ide.model.segment.SimpleTextSegmentData",
                "text": ""
            },
            "lblIconCurrencyTo": {
                "@class": "com.viz.ide.model.segment.SimpleTextSegmentData",
                "text": ""
            },
            "lblIconDeleteRule": {
                "@class": "com.viz.ide.model.segment.SimpleTextSegmentData",
                "text": ""
            },
            "lblIconError1": {
                "@class": "com.viz.ide.model.segment.SimpleTextSegmentData",
                "text": ""
            },
            "lblIconError2": {
                "@class": "com.viz.ide.model.segment.SimpleTextSegmentData",
                "text": ""
            },
            "lblIconError3": {
                "@class": "com.viz.ide.model.segment.SimpleTextSegmentData",
                "text": ""
            },
            "lblSeperator": {
                "@class": "com.viz.ide.model.segment.SimpleTextSegmentData",
                "text": "Label"
            },
            "lstBoxRangeType": {
                "@class": "com.viz.ide.model.segment.CheckableSegmentData",
                "masterData": [
                    [
                        "lb1",
                        "Placeholder One"
                    ],
                    [
                        "lb2",
                        "Placeholder Two"
                    ],
                    [
                        "lb3",
                        "Placeholder Three"
                    ]
                ],
                "selectedKey": null,
                "selectedKeys": null
            },
            "switchToggle": {
                "@class": "com.viz.ide.model.segment.SelectedIndexSegmentData",
                "selectedIndex": 0
            },
            "tbxFromRangeValue": {
                "@class": "com.viz.ide.model.segment.ComplexTextSegmentData",
                "placeholder": "Placeholder",
                "text": ""
            },
            "tbxSingleRangeValue": {
                "@class": "com.viz.ide.model.segment.ComplexTextSegmentData",
                "placeholder": "Placeholder",
                "text": ""
            },
            "tbxToRangeValue": {
                "@class": "com.viz.ide.model.segment.ComplexTextSegmentData",
                "placeholder": "Placeholder",
                "text": ""
            }
        },
        {
            "lblAddApprovalCondition": {
                "@class": "com.viz.ide.model.segment.SimpleTextSegmentData",
                "text": "Add Condition"
            },
            "lblApprovalCondNA": {
                "@class": "com.viz.ide.model.segment.SimpleTextSegmentData",
                "text": "N/A"
            },
            "lblApprovalRequired": {
                "@class": "com.viz.ide.model.segment.SimpleTextSegmentData",
                "text": "Label"
            },
            "lblErrorText1": {
                "@class": "com.viz.ide.model.segment.SimpleTextSegmentData",
                "text": "Error"
            },
            "lblErrorText2": {
                "@class": "com.viz.ide.model.segment.SimpleTextSegmentData",
                "text": "Error"
            },
            "lblErrorText3": {
                "@class": "com.viz.ide.model.segment.SimpleTextSegmentData",
                "text": "Error"
            },
            "lblIconCurrencyFrom": {
                "@class": "com.viz.ide.model.segment.SimpleTextSegmentData",
                "text": ""
            },
            "lblIconCurrencySingle": {
                "@class": "com.viz.ide.model.segment.SimpleTextSegmentData",
                "text": ""
            },
            "lblIconCurrencyTo": {
                "@class": "com.viz.ide.model.segment.SimpleTextSegmentData",
                "text": ""
            },
            "lblIconDeleteRule": {
                "@class": "com.viz.ide.model.segment.SimpleTextSegmentData",
                "text": ""
            },
            "lblIconError1": {
                "@class": "com.viz.ide.model.segment.SimpleTextSegmentData",
                "text": ""
            },
            "lblIconError2": {
                "@class": "com.viz.ide.model.segment.SimpleTextSegmentData",
                "text": ""
            },
            "lblIconError3": {
                "@class": "com.viz.ide.model.segment.SimpleTextSegmentData",
                "text": ""
            },
            "lblSeperator": {
                "@class": "com.viz.ide.model.segment.SimpleTextSegmentData",
                "text": "Label"
            },
            "lstBoxRangeType": {
                "@class": "com.viz.ide.model.segment.CheckableSegmentData",
                "masterData": [
                    [
                        "lb1",
                        "Placeholder One"
                    ],
                    [
                        "lb2",
                        "Placeholder Two"
                    ],
                    [
                        "lb3",
                        "Placeholder Three"
                    ]
                ],
                "selectedKey": null,
                "selectedKeys": null
            },
            "switchToggle": {
                "@class": "com.viz.ide.model.segment.SelectedIndexSegmentData",
                "selectedIndex": 0
            },
            "tbxFromRangeValue": {
                "@class": "com.viz.ide.model.segment.ComplexTextSegmentData",
                "placeholder": "Placeholder",
                "text": ""
            },
            "tbxSingleRangeValue": {
                "@class": "com.viz.ide.model.segment.ComplexTextSegmentData",
                "placeholder": "Placeholder",
                "text": ""
            },
            "tbxToRangeValue": {
                "@class": "com.viz.ide.model.segment.ComplexTextSegmentData",
                "placeholder": "Placeholder",
                "text": ""
            }
        },
        {
            "lblAddApprovalCondition": {
                "@class": "com.viz.ide.model.segment.SimpleTextSegmentData",
                "text": "Add Condition"
            },
            "lblApprovalCondNA": {
                "@class": "com.viz.ide.model.segment.SimpleTextSegmentData",
                "text": "N/A"
            },
            "lblApprovalRequired": {
                "@class": "com.viz.ide.model.segment.SimpleTextSegmentData",
                "text": "Label"
            },
            "lblErrorText1": {
                "@class": "com.viz.ide.model.segment.SimpleTextSegmentData",
                "text": "Error"
            },
            "lblErrorText2": {
                "@class": "com.viz.ide.model.segment.SimpleTextSegmentData",
                "text": "Error"
            },
            "lblErrorText3": {
                "@class": "com.viz.ide.model.segment.SimpleTextSegmentData",
                "text": "Error"
            },
            "lblIconCurrencyFrom": {
                "@class": "com.viz.ide.model.segment.SimpleTextSegmentData",
                "text": ""
            },
            "lblIconCurrencySingle": {
                "@class": "com.viz.ide.model.segment.SimpleTextSegmentData",
                "text": ""
            },
            "lblIconCurrencyTo": {
                "@class": "com.viz.ide.model.segment.SimpleTextSegmentData",
                "text": ""
            },
            "lblIconDeleteRule": {
                "@class": "com.viz.ide.model.segment.SimpleTextSegmentData",
                "text": ""
            },
            "lblIconError1": {
                "@class": "com.viz.ide.model.segment.SimpleTextSegmentData",
                "text": ""
            },
            "lblIconError2": {
                "@class": "com.viz.ide.model.segment.SimpleTextSegmentData",
                "text": ""
            },
            "lblIconError3": {
                "@class": "com.viz.ide.model.segment.SimpleTextSegmentData",
                "text": ""
            },
            "lblSeperator": {
                "@class": "com.viz.ide.model.segment.SimpleTextSegmentData",
                "text": "Label"
            },
            "lstBoxRangeType": {
                "@class": "com.viz.ide.model.segment.CheckableSegmentData",
                "masterData": [
                    [
                        "lb1",
                        "Placeholder One"
                    ],
                    [
                        "lb2",
                        "Placeholder Two"
                    ],
                    [
                        "lb3",
                        "Placeholder Three"
                    ]
                ],
                "selectedKey": null,
                "selectedKeys": null
            },
            "switchToggle": {
                "@class": "com.viz.ide.model.segment.SelectedIndexSegmentData",
                "selectedIndex": 0
            },
            "tbxFromRangeValue": {
                "@class": "com.viz.ide.model.segment.ComplexTextSegmentData",
                "placeholder": "Placeholder",
                "text": ""
            },
            "tbxSingleRangeValue": {
                "@class": "com.viz.ide.model.segment.ComplexTextSegmentData",
                "placeholder": "Placeholder",
                "text": ""
            },
            "tbxToRangeValue": {
                "@class": "com.viz.ide.model.segment.ComplexTextSegmentData",
                "placeholder": "Placeholder",
                "text": ""
            }
        },
        {
            "lblAddApprovalCondition": {
                "@class": "com.viz.ide.model.segment.SimpleTextSegmentData",
                "text": "Add Condition"
            },
            "lblApprovalCondNA": {
                "@class": "com.viz.ide.model.segment.SimpleTextSegmentData",
                "text": "N/A"
            },
            "lblApprovalRequired": {
                "@class": "com.viz.ide.model.segment.SimpleTextSegmentData",
                "text": "Label"
            },
            "lblErrorText1": {
                "@class": "com.viz.ide.model.segment.SimpleTextSegmentData",
                "text": "Error"
            },
            "lblErrorText2": {
                "@class": "com.viz.ide.model.segment.SimpleTextSegmentData",
                "text": "Error"
            },
            "lblErrorText3": {
                "@class": "com.viz.ide.model.segment.SimpleTextSegmentData",
                "text": "Error"
            },
            "lblIconCurrencyFrom": {
                "@class": "com.viz.ide.model.segment.SimpleTextSegmentData",
                "text": ""
            },
            "lblIconCurrencySingle": {
                "@class": "com.viz.ide.model.segment.SimpleTextSegmentData",
                "text": ""
            },
            "lblIconCurrencyTo": {
                "@class": "com.viz.ide.model.segment.SimpleTextSegmentData",
                "text": ""
            },
            "lblIconDeleteRule": {
                "@class": "com.viz.ide.model.segment.SimpleTextSegmentData",
                "text": ""
            },
            "lblIconError1": {
                "@class": "com.viz.ide.model.segment.SimpleTextSegmentData",
                "text": ""
            },
            "lblIconError2": {
                "@class": "com.viz.ide.model.segment.SimpleTextSegmentData",
                "text": ""
            },
            "lblIconError3": {
                "@class": "com.viz.ide.model.segment.SimpleTextSegmentData",
                "text": ""
            },
            "lblSeperator": {
                "@class": "com.viz.ide.model.segment.SimpleTextSegmentData",
                "text": "Label"
            },
            "lstBoxRangeType": {
                "@class": "com.viz.ide.model.segment.CheckableSegmentData",
                "masterData": [
                    [
                        "lb1",
                        "Placeholder One"
                    ],
                    [
                        "lb2",
                        "Placeholder Two"
                    ],
                    [
                        "lb3",
                        "Placeholder Three"
                    ]
                ],
                "selectedKey": null,
                "selectedKeys": null
            },
            "switchToggle": {
                "@class": "com.viz.ide.model.segment.SelectedIndexSegmentData",
                "selectedIndex": 0
            },
            "tbxFromRangeValue": {
                "@class": "com.viz.ide.model.segment.ComplexTextSegmentData",
                "placeholder": "Placeholder",
                "text": ""
            },
            "tbxSingleRangeValue": {
                "@class": "com.viz.ide.model.segment.ComplexTextSegmentData",
                "placeholder": "Placeholder",
                "text": ""
            },
            "tbxToRangeValue": {
                "@class": "com.viz.ide.model.segment.ComplexTextSegmentData",
                "placeholder": "Placeholder",
                "text": ""
            }
        },
        {
            "lblAddApprovalCondition": {
                "@class": "com.viz.ide.model.segment.SimpleTextSegmentData",
                "text": "Add Condition"
            },
            "lblApprovalCondNA": {
                "@class": "com.viz.ide.model.segment.SimpleTextSegmentData",
                "text": "N/A"
            },
            "lblApprovalRequired": {
                "@class": "com.viz.ide.model.segment.SimpleTextSegmentData",
                "text": "Label"
            },
            "lblErrorText1": {
                "@class": "com.viz.ide.model.segment.SimpleTextSegmentData",
                "text": "Error"
            },
            "lblErrorText2": {
                "@class": "com.viz.ide.model.segment.SimpleTextSegmentData",
                "text": "Error"
            },
            "lblErrorText3": {
                "@class": "com.viz.ide.model.segment.SimpleTextSegmentData",
                "text": "Error"
            },
            "lblIconCurrencyFrom": {
                "@class": "com.viz.ide.model.segment.SimpleTextSegmentData",
                "text": ""
            },
            "lblIconCurrencySingle": {
                "@class": "com.viz.ide.model.segment.SimpleTextSegmentData",
                "text": ""
            },
            "lblIconCurrencyTo": {
                "@class": "com.viz.ide.model.segment.SimpleTextSegmentData",
                "text": ""
            },
            "lblIconDeleteRule": {
                "@class": "com.viz.ide.model.segment.SimpleTextSegmentData",
                "text": ""
            },
            "lblIconError1": {
                "@class": "com.viz.ide.model.segment.SimpleTextSegmentData",
                "text": ""
            },
            "lblIconError2": {
                "@class": "com.viz.ide.model.segment.SimpleTextSegmentData",
                "text": ""
            },
            "lblIconError3": {
                "@class": "com.viz.ide.model.segment.SimpleTextSegmentData",
                "text": ""
            },
            "lblSeperator": {
                "@class": "com.viz.ide.model.segment.SimpleTextSegmentData",
                "text": "Label"
            },
            "lstBoxRangeType": {
                "@class": "com.viz.ide.model.segment.CheckableSegmentData",
                "masterData": [
                    [
                        "lb1",
                        "Placeholder One"
                    ],
                    [
                        "lb2",
                        "Placeholder Two"
                    ],
                    [
                        "lb3",
                        "Placeholder Three"
                    ]
                ],
                "selectedKey": null,
                "selectedKeys": null
            },
            "switchToggle": {
                "@class": "com.viz.ide.model.segment.SelectedIndexSegmentData",
                "selectedIndex": 0
            },
            "tbxFromRangeValue": {
                "@class": "com.viz.ide.model.segment.ComplexTextSegmentData",
                "placeholder": "Placeholder",
                "text": ""
            },
            "tbxSingleRangeValue": {
                "@class": "com.viz.ide.model.segment.ComplexTextSegmentData",
                "placeholder": "Placeholder",
                "text": ""
            },
            "tbxToRangeValue": {
                "@class": "com.viz.ide.model.segment.ComplexTextSegmentData",
                "placeholder": "Placeholder",
                "text": ""
            }
        },
        {
            "lblAddApprovalCondition": {
                "@class": "com.viz.ide.model.segment.SimpleTextSegmentData",
                "text": "Add Condition"
            },
            "lblApprovalCondNA": {
                "@class": "com.viz.ide.model.segment.SimpleTextSegmentData",
                "text": "N/A"
            },
            "lblApprovalRequired": {
                "@class": "com.viz.ide.model.segment.SimpleTextSegmentData",
                "text": "Label"
            },
            "lblErrorText1": {
                "@class": "com.viz.ide.model.segment.SimpleTextSegmentData",
                "text": "Error"
            },
            "lblErrorText2": {
                "@class": "com.viz.ide.model.segment.SimpleTextSegmentData",
                "text": "Error"
            },
            "lblErrorText3": {
                "@class": "com.viz.ide.model.segment.SimpleTextSegmentData",
                "text": "Error"
            },
            "lblIconCurrencyFrom": {
                "@class": "com.viz.ide.model.segment.SimpleTextSegmentData",
                "text": ""
            },
            "lblIconCurrencySingle": {
                "@class": "com.viz.ide.model.segment.SimpleTextSegmentData",
                "text": ""
            },
            "lblIconCurrencyTo": {
                "@class": "com.viz.ide.model.segment.SimpleTextSegmentData",
                "text": ""
            },
            "lblIconDeleteRule": {
                "@class": "com.viz.ide.model.segment.SimpleTextSegmentData",
                "text": ""
            },
            "lblIconError1": {
                "@class": "com.viz.ide.model.segment.SimpleTextSegmentData",
                "text": ""
            },
            "lblIconError2": {
                "@class": "com.viz.ide.model.segment.SimpleTextSegmentData",
                "text": ""
            },
            "lblIconError3": {
                "@class": "com.viz.ide.model.segment.SimpleTextSegmentData",
                "text": ""
            },
            "lblSeperator": {
                "@class": "com.viz.ide.model.segment.SimpleTextSegmentData",
                "text": "Label"
            },
            "lstBoxRangeType": {
                "@class": "com.viz.ide.model.segment.CheckableSegmentData",
                "masterData": [
                    [
                        "lb1",
                        "Placeholder One"
                    ],
                    [
                        "lb2",
                        "Placeholder Two"
                    ],
                    [
                        "lb3",
                        "Placeholder Three"
                    ]
                ],
                "selectedKey": null,
                "selectedKeys": null
            },
            "switchToggle": {
                "@class": "com.viz.ide.model.segment.SelectedIndexSegmentData",
                "selectedIndex": 0
            },
            "tbxFromRangeValue": {
                "@class": "com.viz.ide.model.segment.ComplexTextSegmentData",
                "placeholder": "Placeholder",
                "text": ""
            },
            "tbxSingleRangeValue": {
                "@class": "com.viz.ide.model.segment.ComplexTextSegmentData",
                "placeholder": "Placeholder",
                "text": ""
            },
            "tbxToRangeValue": {
                "@class": "com.viz.ide.model.segment.ComplexTextSegmentData",
                "placeholder": "Placeholder",
                "text": ""
            }
        },
        {
            "lblAddApprovalCondition": {
                "@class": "com.viz.ide.model.segment.SimpleTextSegmentData",
                "text": "Add Condition"
            },
            "lblApprovalCondNA": {
                "@class": "com.viz.ide.model.segment.SimpleTextSegmentData",
                "text": "N/A"
            },
            "lblApprovalRequired": {
                "@class": "com.viz.ide.model.segment.SimpleTextSegmentData",
                "text": "Label"
            },
            "lblErrorText1": {
                "@class": "com.viz.ide.model.segment.SimpleTextSegmentData",
                "text": "Error"
            },
            "lblErrorText2": {
                "@class": "com.viz.ide.model.segment.SimpleTextSegmentData",
                "text": "Error"
            },
            "lblErrorText3": {
                "@class": "com.viz.ide.model.segment.SimpleTextSegmentData",
                "text": "Error"
            },
            "lblIconCurrencyFrom": {
                "@class": "com.viz.ide.model.segment.SimpleTextSegmentData",
                "text": ""
            },
            "lblIconCurrencySingle": {
                "@class": "com.viz.ide.model.segment.SimpleTextSegmentData",
                "text": ""
            },
            "lblIconCurrencyTo": {
                "@class": "com.viz.ide.model.segment.SimpleTextSegmentData",
                "text": ""
            },
            "lblIconDeleteRule": {
                "@class": "com.viz.ide.model.segment.SimpleTextSegmentData",
                "text": ""
            },
            "lblIconError1": {
                "@class": "com.viz.ide.model.segment.SimpleTextSegmentData",
                "text": ""
            },
            "lblIconError2": {
                "@class": "com.viz.ide.model.segment.SimpleTextSegmentData",
                "text": ""
            },
            "lblIconError3": {
                "@class": "com.viz.ide.model.segment.SimpleTextSegmentData",
                "text": ""
            },
            "lblSeperator": {
                "@class": "com.viz.ide.model.segment.SimpleTextSegmentData",
                "text": "Label"
            },
            "lstBoxRangeType": {
                "@class": "com.viz.ide.model.segment.CheckableSegmentData",
                "masterData": [
                    [
                        "lb1",
                        "Placeholder One"
                    ],
                    [
                        "lb2",
                        "Placeholder Two"
                    ],
                    [
                        "lb3",
                        "Placeholder Three"
                    ]
                ],
                "selectedKey": null,
                "selectedKeys": null
            },
            "switchToggle": {
                "@class": "com.viz.ide.model.segment.SelectedIndexSegmentData",
                "selectedIndex": 0
            },
            "tbxFromRangeValue": {
                "@class": "com.viz.ide.model.segment.ComplexTextSegmentData",
                "placeholder": "Placeholder",
                "text": ""
            },
            "tbxSingleRangeValue": {
                "@class": "com.viz.ide.model.segment.ComplexTextSegmentData",
                "placeholder": "Placeholder",
                "text": ""
            },
            "tbxToRangeValue": {
                "@class": "com.viz.ide.model.segment.ComplexTextSegmentData",
                "placeholder": "Placeholder",
                "text": ""
            }
        }
    ],
    "_indicator_": "none",
    "_left_": {
        "type": "string",
        "value": "0"
    },
    "_margin_": [
        0,
        0,
        0,
        0
    ],
    "_orientation_": 2,
    "_padding_": [
        0,
        0,
        0,
        0
    ],
    "_top_": {
        "type": "string",
        "value": "60dp"
    },
    "_width_": {
        "type": "string",
        "value": "100%"
    },
    "autogrowmode": 0,
    "canUpdateUI": true,
    "containerweight": 100,
    "counter": "09",
    "focusedindex": null,
    "focuseditem": null,
    "groupcells": false,
    "hasSections": false,
    "id": "segAddApprovalRuleAAR",
    "info": null,
    "ipad": {
        "psp": {
            "indicator": "rowselect"
        }
    },
    "iphone": {
        "psp": {
            "indicator": "rowselect"
        }
    },
    "iscustomlayout": false,
    "isvisible": true,
    "kuid": "c988da3084bd4ba4a415e8d539dae251",
    "masterdata": {},
    "name": "kony.ui.SegmentedUI2",
    "needpageindicator": true,
    "pageoffdotimage": "pageoffdot.png",
    "pageondotimage": "pageondot.png",
    "paginationconfig": {
        "position": "bottom"
    },
    "parent": "flxRulesListContainerAAR",
    "pf": "frmCompanies",
    "retaincontentalignment": false,
    "retainflexpositionproperties": false,
    "retainselection": false,
    "rowTemplateId": "f5ddd45a4bcf49e581fe7d8dc95e554b",
    "rowcounter": 9,
    "rowfocusskin": "se901dcdd2ae4a58a81f21c009edf99e",
    "rowskin": "s54014e0d4204ce9acd27107655ded87",
    "rowtemplate": "flxAddApprovalRule",
    "screenlevelwidget": false,
    "seccounter": 0,
    "sectionheaderskin": "sffa0c1a0560403189088e98f7b4f498",
    "selectedRows": null,
    "selectedState": false,
    "selectedindex": null,
    "selectedindices": null,
    "selecteditems": null,
    "selectedsectionindex": 0,
    "selectionbehavior": "default",
    "separatorrequired": false,
    "showscrollbars": true,
    "viewtype": "tableview",
    "vizProps": {},
    "wType": "Segment",
    "widgetalignment": 5,
    "widgetdatamap": {
        "flxAddApprovalCont": "flxAddApprovalCont",
        "flxAddApprovalRule": "flxAddApprovalRule",
        "flxApprovalSwitch": "flxApprovalSwitch",
        "flxDeleteRule": "flxDeleteRule",
        "flxFromRangeCont": "flxFromRangeCont",
        "flxFromValError": "flxFromValError",
        "flxRangeMultiValue": "flxRangeMultiValue",
        "flxRangeSingleValue": "flxRangeSingleValue",
        "flxRequiredSwitch": "flxRequiredSwitch",
        "flxSingleValError": "flxSingleValError",
        "flxToRangeCont": "flxToRangeCont",
        "flxToValError": "flxToValError",
        "lblAddApprovalCondition": "lblAddApprovalCondition",
        "lblApprovalCondNA": "lblApprovalCondNA",
        "lblApprovalRequired": "lblApprovalRequired",
        "lblErrorText1": "lblErrorText1",
        "lblErrorText2": "lblErrorText2",
        "lblErrorText3": "lblErrorText3",
        "lblIconCurrencyFrom": "lblIconCurrencyFrom",
        "lblIconCurrencySingle": "lblIconCurrencySingle",
        "lblIconCurrencyTo": "lblIconCurrencyTo",
        "lblIconDeleteRule": "lblIconDeleteRule",
        "lblIconError1": "lblIconError1",
        "lblIconError2": "lblIconError2",
        "lblIconError3": "lblIconError3",
        "lblSeperator": "lblSeperator",
        "lstBoxRangeType": "lstBoxRangeType",
        "switchToggle": "switchToggle",
        "tbxFromRangeValue": "tbxFromRangeValue",
        "tbxSingleRangeValue": "tbxSingleRangeValue",
        "tbxToRangeValue": "tbxToRangeValue"
    }
}