{
    "@class": "com.kony.gen.viz.model.component.KVizUserWidget",
    "DNDConfig": null,
    "_children_": [],
    "_height_": {
        "type": "ref",
        "value": "preferred"
    },
    "_left_": {
        "type": "string",
        "value": "0dp"
    },
    "_margin_": [
        0,
        0,
        0,
        0
    ],
    "_orientation_": 1,
    "_padding_": [
        0,
        0,
        0,
        0
    ],
    "_percent_": true,
    "_skin_": "s8ff24328417401b877c3ceb2a5fa27c",
    "_top_": {
        "type": "string",
        "value": "48dp"
    },
    "_width_": {
        "type": "string",
        "value": "100%"
    },
    "areflexpropsreferenced": false,
    "autogrowmode": 1,
    "canUpdateUI": true,
    "clipbounds": true,
    "containerweight": 0,
    "dataDiffs": {
        "btnTab1": {
            "__events__": {},
            "__info__": {
                "kuid": "h7e0e185f3454bc59b00a239a6292ee6",
                "srcKUID": "ac525a58ca754d97b397c28a9302f0ea",
                "wType": "Button"
            },
            "height": {
                "Default": {
                    "type": "string",
                    "value": "40dp"
                }
            },
            "i18n_text": null,
            "left": {
                "Default": {
                    "type": "string",
                    "value": "20dp"
                }
            },
            "maxWidth": {
                "Default": {
                    "type": "string",
                    "value": ""
                }
            },
            "text": "PER TRANSACTION LIMIT"
        },
        "btnTab2": {
            "__events__": {},
            "__info__": {
                "kuid": "bae530c059e04908b88aac18d24115ee",
                "srcKUID": "h1be0fb22c02453c8b710730c210948c",
                "wType": "Button"
            },
            "height": {
                "Default": {
                    "type": "string",
                    "value": "40dp"
                }
            },
            "text": "DAILY TRANSACTION LIMIT"
        },
        "btnTab3": {
            "__events__": {},
            "__info__": {
                "kuid": "j950da87a98647818699c2bf3415f026",
                "srcKUID": "ce2cff209e824170b77f040dcfc8046c",
                "wType": "Button"
            },
            "height": {
                "Default": {
                    "type": "string",
                    "value": "40dp"
                }
            },
            "isVisible": true,
            "text": "WEEKLY TRANSACTION LIMIT"
        },
        "btnTab4": {
            "__events__": {},
            "__info__": {
                "kuid": "i2780497e7a247259d917ef787643227",
                "srcKUID": "bbc9517c9a414d92b287fedceabe084c",
                "wType": "Button"
            },
            "height": {
                "Default": {
                    "type": "string",
                    "value": "40dp"
                }
            },
            "isVisible": false
        },
        "flxTabsContainer": {
            "__events__": {},
            "__info__": {
                "kuid": "d74f2c70e4344f169a29cfe341dbe1ce",
                "srcKUID": "j165b5e060d146a2858d658676092c14",
                "wType": "FlexContainer"
            },
            "autogrowMode": {
                "Default": 0
            },
            "height": {
                "Default": {
                    "type": "string",
                    "value": "50dp"
                }
            },
            "left": {
                "Default": {
                    "type": "string",
                    "value": "0dp"
                }
            },
            "right": {
                "Default": {
                    "type": "string",
                    "value": ""
                }
            },
            "width": {
                "Default": {
                    "type": "string",
                    "value": "100%"
                }
            },
            "zIndex": {
                "Default": 2
            }
        },
        "lblSeperator": {
            "__events__": {},
            "__info__": {
                "kuid": "h13b9088959544baa8a1d7af23f72bf3",
                "srcKUID": "g3402cc5d48240eea056aeb9f81c4865",
                "wType": "Label"
            },
            "height": {
                "Default": {
                    "type": "string",
                    "value": "1px"
                }
            },
            "isVisible": true,
            "top": {
                "Default": {
                    "type": "string",
                    "value": "49dp"
                }
            }
        },
        "tabs": {
            "__events__": {},
            "__info__": {
                "isRoot": true,
                "kuid": "a3b2ea5b54044c79a286ddc340397c37",
                "srcKUID": "abb53d2c6ac44d4ba1894b77e0496429",
                "wType": "FlexContainer"
            },
            "autogrowMode": {
                "Default": 1
            },
            "height": {
                "Default": {
                    "type": "ref",
                    "value": "preferred"
                }
            },
            "left": {
                "Default": {
                    "type": "string",
                    "value": "0dp"
                }
            },
            "top": {
                "Default": {
                    "type": "string",
                    "value": "48dp"
                }
            }
        }
    },
    "enablescrolling": true,
    "id": "tabs",
    "info": null,
    "iscustomlayout": false,
    "isdatareferenced": false,
    "issegmentchild": false,
    "isvisible": true,
    "kuid": "a3b2ea5b54044c79a286ddc340397c37",
    "layouttype": 2,
    "masterType": 0,
    "name": "kony.ui.UserWidgetInstance",
    "parent": "flxViewLimitsContainer",
    "pf": "frmCompanies",
    "retaincontentalignment": false,
    "retainflexpositionproperties": false,
    "retainflowhorizontalalignment": false,
    "snapgridsize": 10,
    "snaptogrid": true,
    "sourceUserWidget": "abb53d2c6ac44d4ba1894b77e0496429",
    "wType": "UserWidgetInstance"
}