{
    "@class": "com.kony.gen.viz.model.component.KVizUserWidget",
    "DNDConfig": null,
    "__parentReadjusting__": false,
    "_children_": [],
    "_height_": {
        "type": "string",
        "value": "106px"
    },
    "_left_": {
        "type": "string",
        "value": "0"
    },
    "_margin_": [
        0,
        0,
        0,
        0
    ],
    "_orientation_": 1,
    "_padding_": [
        0,
        0,
        0,
        0
    ],
    "_percent_": true,
    "_render_": true,
    "_skin_": "s4886d30205846ce90dddbeb96d1d6ef",
    "_top_": {
        "type": "string",
        "value": "0"
    },
    "_width_": {
        "type": "string",
        "value": "100%"
    },
    "areflexpropsreferenced": false,
    "canUpdateUI": true,
    "clipbounds": true,
    "containerweight": 0,
    "dataDiffs": {
        "btnAddNewOption": {
            "__events__": {},
            "__info__": {
                "kuid": "c51d8e9d307d46148dca24e50abf77de",
                "srcKUID": "ada5d4a4ecde43cca0304c5882f66bb7",
                "wType": "Button"
            },
            "isVisible": false,
            "right": {
                "Default": {
                    "type": "string",
                    "value": "0dp"
                }
            },
            "text": "IMPORT CUSTOMER"
        },
        "btnDropdownList": {
            "__events__": {},
            "__info__": {
                "kuid": "f7107653761d4b8385125e432b315f08",
                "srcKUID": "b43698c27a4f4d988b5a7d3585c0a45b",
                "wType": "Button"
            },
            "isVisible": false,
            "vizProps": {
                "hide": false
            }
        },
        "flxAddNewOption": {
            "__events__": {},
            "__info__": {
                "kuid": "f710cc210bbb46769d7a5ef26fc53d45",
                "srcKUID": "gcf4f343946b48eb8cfdddb8ea99ee15",
                "wType": "FlexContainer"
            }
        },
        "flxButtons": {
            "__events__": {},
            "__info__": {
                "kuid": "d747307cb26a4bf2913f9ad15adb6364",
                "srcKUID": "ie1e60199eb3482b836d57a31097ad15",
                "wType": "FlexContainer"
            },
            "top": {
                "Default": {
                    "type": "string",
                    "value": "58px"
                }
            }
        },
        "flxDownloadList": {
            "__events__": {},
            "__info__": {
                "kuid": "eddbc0b67abd4de2828623fc4662a531",
                "srcKUID": "hed9c70306a244ed9913ad2c67adf9b5",
                "wType": "FlexContainer"
            }
        },
        "flxHeaderSeperator": {
            "__events__": {},
            "__info__": {
                "kuid": "j965a9d9d13a42d5a15f0beb2eb95e47",
                "srcKUID": "d5e902ebe40e41059acd4452ef74ee71",
                "wType": "FlexContainer"
            }
        },
        "flxHeaderUserOptions": {
            "__events__": {},
            "__info__": {
                "kuid": "b3651d3023ee45d98c41b763b970c9d4",
                "srcKUID": "e340add28ee8424ab0f160b52c1c3c49",
                "wType": "FlexContainer"
            }
        },
        "flxMainHeader": {
            "__events__": {},
            "__info__": {
                "kuid": "dd7a212e87fa4f06aaba6199ae38c8e0",
                "srcKUID": "b5acbdce2d1f4b79be60f46a616882ae",
                "wType": "FlexContainer"
            }
        },
        "imgLogout": {
            "__events__": {},
            "__info__": {
                "kuid": "ca3ecedca38a4ee7b00eb30bdc7bb5f7",
                "srcKUID": "ff744a337cf24ffa97ecc82ef9964a85",
                "wType": "Image"
            }
        },
        "lblAddNewOption": {
            "__events__": {},
            "__info__": {
                "kuid": "i5cf85068a7c4c82b5b14fb6a3c24593",
                "srcKUID": "b3a6223eaac240c2aec04f4e88d4c9a7",
                "wType": "Label"
            }
        },
        "lblDownloadList": {
            "__events__": {},
            "__info__": {
                "kuid": "i561652ba5d4494c83df14f27710aaf4",
                "srcKUID": "b6599b7f52704e498d2f53cc4ab1f6e7",
                "wType": "Label"
            }
        },
        "lblHeading": {
            "__events__": {},
            "__info__": {
                "kuid": "c23168cff9704f7e8db80357f6df636d",
                "srcKUID": "a773cdbb83be4b82acfb733f2e46eb06",
                "wType": "Label"
            },
            "i18n_text": "i18n.leftmenu.customer_Management",
            "text": "Customer Management  "
        },
        "lblUserName": {
            "__events__": {},
            "__info__": {
                "kuid": "h404547cefdb4b4e983b56dad189417f",
                "srcKUID": "i605a8166a1941eead62b15cbf43026c",
                "wType": "Label"
            }
        },
        "mainHeader": {
            "__events__": {},
            "__info__": {
                "isRoot": true,
                "kuid": "c70562ce5913493c89c2f4eed5cde9b3",
                "srcKUID": "a90b792b68af4d448d2757e88c7e1671",
                "wType": "FlexContainer"
            },
            "left": {
                "Default": {
                    "type": "string",
                    "value": "0"
                }
            },
            "top": {
                "Default": {
                    "type": "string",
                    "value": "0"
                }
            }
        }
    },
    "id": "mainHeader",
    "info": null,
    "isdatareferenced": false,
    "isvisible": true,
    "kuid": "c70562ce5913493c89c2f4eed5cde9b3",
    "layouttype": 2,
    "masterType": 0,
    "name": "kony.ui.UserWidgetInstance",
    "parent": "flxMainHeader",
    "pf": "frmCustomerProfileDeviceInfo",
    "snaptogrid": true,
    "sourceUserWidget": "a90b792b68af4d448d2757e88c7e1671",
    "vizprops": {
        "hidewidgethierarchy": false
    },
    "wType": "UserWidgetInstance"
}