{
    "@class": "com.kony.gen.viz.model.component.KVizButton",
    "DNDConfig": null,
    "_height_": {
        "type": "string",
        "value": "22px"
    },
    "_margin_": [
        6,
        6,
        6,
        6
    ],
    "_padding_": [
        0,
        0,
        0,
        0
    ],
    "_skin_": "s05c3f1841124eb7b35b6acb92e16474",
    "_text_": "Add Feature",
    "_top_": {
        "type": "string",
        "value": "20px"
    },
    "_width_": {
        "type": "string",
        "value": "100px"
    },
    "canUpdateUI": true,
    "centerx": {
        "type": "string",
        "value": "50%"
    },
    "containerweight": 100,
    "contentalignment": 5,
    "displaytext": true,
    "focusskin": null,
    "id": "btnAddFeature2",
    "info": null,
    "iscustomlayout": false,
    "isvisible": true,
    "kuid": "b457c6e1c7bc49f69c9ef0788740ddfa",
    "name": "kony.ui.Button",
    "parent": "flxNoSelectedDisplayText",
    "pf": "userwidgetmodel",
    "retaincontentalignment": false,
    "retainflexpositionproperties": false,
    "texti18n": "i18n.products.Add_Feature",
    "wType": "Button",
    "zindex": 1
}