{
    "@class": "com.kony.gen.viz.model.component.KVizButton",
    "DNDConfig": null,
    "_height_": {
        "type": "string",
        "value": "22px"
    },
    "_margin_": [
        6,
        6,
        6,
        6
    ],
    "_padding_": [
        0,
        0,
        0,
        0
    ],
    "_right_": {
        "type": "string",
        "value": "10px"
    },
    "_skin_": "s05c3f1841124eb7b35b6acb92e16474",
    "_text_": "Add Feature",
    "_top_": {
        "type": "string",
        "value": "0px"
    },
    "_width_": {
        "type": "string",
        "value": "95px"
    },
    "canUpdateUI": true,
    "containerweight": 100,
    "contentalignment": 5,
    "displaytext": true,
    "focusskin": null,
    "id": "btnAddFeature1",
    "info": null,
    "iscustomlayout": false,
    "isvisible": false,
    "kuid": "ae3af3f3931b41d09305963857b08b7d",
    "name": "kony.ui.Button",
    "parent": "flxFeaturesTopWrapper2",
    "pf": "userwidgetmodel",
    "retaincontentalignment": false,
    "retainflexpositionproperties": false,
    "texti18n": "i18n.products.Add_Feature",
    "wType": "Button",
    "zindex": 1
}