{
    "@class": "com.kony.gen.viz.model.component.KVizButton",
    "DNDConfig": null,
    "_height_": {
        "type": "string",
        "value": "40dp"
    },
    "_left_": {
        "type": "string",
        "value": "20px"
    },
    "_margin_": [
        6,
        6,
        6,
        6
    ],
    "_padding_": [
        0,
        0,
        0,
        0
    ],
    "_skin_": "s95786d9b1a94ffda30200eb65b8f157",
    "_text_": "CANCEL",
    "_top_": {
        "type": "string",
        "value": "0%"
    },
    "_width_": {
        "type": "string",
        "value": "100px"
    },
    "canUpdateUI": true,
    "centery": {
        "type": "string",
        "value": "50%"
    },
    "containerweight": 100,
    "contentalignment": 5,
    "desktopweb": {
        "psp": {
            "hoverSkin": "sb8e007fed9946558dfe9c2762dca00f"
        }
    },
    "displaytext": true,
    "focusskin": "s95786d9b1a94ffda30200eb65b8f157",
    "id": "btnCancel",
    "info": null,
    "isvisible": true,
    "kuid": "jd288d83804b4436907e04f2eedff9db",
    "name": "kony.ui.Button",
    "parent": "flxAddFeatureBottomBar",
    "pf": "userwidgetmodel",
    "texti18n": "i18n.products.Cancel_CAPS",
    "wType": "Button",
    "zindex": 2
}