{
    "@class": "com.kony.gen.viz.model.component.KVizButton",
    "DNDConfig": null,
    "_height_": {
        "type": "string",
        "value": "22px"
    },
    "_margin_": [
        6,
        6,
        6,
        6
    ],
    "_padding_": [
        0,
        0,
        0,
        0
    ],
    "_right_": {
        "type": "string",
        "value": "1%"
    },
    "_skin_": "s05c3f1841124eb7b35b6acb92e16474",
    "_text_": "Edit",
    "_top_": {
        "type": "string",
        "value": "0%"
    },
    "_width_": {
        "type": "string",
        "value": "60px"
    },
    "canUpdateUI": true,
    "containerweight": 100,
    "contentalignment": 5,
    "displaytext": true,
    "focusskin": null,
    "id": "btnEditFeature",
    "info": null,
    "iscustomlayout": false,
    "isvisible": true,
    "kuid": "je29e8d6bd2f4e609d7ccc901825fa54",
    "name": "kony.ui.Button",
    "parent": "flxViewFeatureTop",
    "pf": "userwidgetmodel",
    "retaincontentalignment": false,
    "retainflexpositionproperties": false,
    "texti18n": "i18n.products.Edit",
    "wType": "Button",
    "zindex": 1
}