{
    "@class": "com.kony.gen.viz.model.component.KVizButton",
    "DNDConfig": null,
    "_height_": {
        "type": "string",
        "value": "40dp"
    },
    "_margin_": [
        6,
        6,
        6,
        6
    ],
    "_padding_": [
        0,
        0,
        0,
        0
    ],
    "_right_": {
        "type": "string",
        "value": "20px"
    },
    "_skin_": "s3c60f327c994b9595aae04de642fdbe",
    "_text_": "SAVE & CLOSE",
    "_top_": {
        "type": "string",
        "value": "0%"
    },
    "_width_": {
        "type": "string",
        "value": "145px"
    },
    "canUpdateUI": true,
    "centery": {
        "type": "string",
        "value": "50%"
    },
    "containerweight": 100,
    "contentalignment": 5,
    "desktopweb": {
        "psp": {}
    },
    "displaytext": true,
    "focusskin": "s3c60f327c994b9595aae04de642fdbe",
    "id": "btnSaveAndClose",
    "info": null,
    "isvisible": true,
    "kuid": "i4553b728c384a95ac613ddfb621ebae",
    "name": "kony.ui.Button",
    "parent": "flxAddFeatureBottomBar",
    "pf": "userwidgetmodel",
    "texti18n": "i18n.products.Save_and_Close_CAPS",
    "wType": "Button",
    "zindex": 1
}