{
    "DNDConfig": null,
    "_height_": {
        "type": "ref",
        "value": "preferred"
    },
    "_left_": {
        "type": "string",
        "value": "20px"
    },
    "_margin_": [
        0,
        0,
        0,
        0
    ],
    "_orientation_": 6,
    "_padding_": [
        0,
        0,
        0,
        0
    ],
    "_percent_": true,
    "_right_": {
        "type": "string",
        "value": "20px"
    },
    "_skin_": "s8ff24328417401b877c3ceb2a5fa27c",
    "_top_": {
        "type": "string",
        "value": "0px"
    },
    "allboxes": [],
    "autogrowmode": 1,
    "canUpdateUI": true,
    "children": [
        "flxAddFeatureDetails",
        "flxAddFeature1",
        "flxAddFeature2",
        "flxAddFeature3",
        "flxOptionDetails",
        "flxFeatureOption1",
        "flxOptionContainer",
        "btnAddValue"
    ],
    "clipbounds": true,
    "containerweight": 100,
    "enablescrolling": true,
    "id": "flxAddFeatureMainContainer",
    "info": null,
    "iscustomlayout": false,
    "isvisible": true,
    "kuid": "f2b343b2009d48a2b9268eec24395e49",
    "layouttype": 4,
    "name": "kony.ui.FlexContainer",
    "parent": "flxAddFeatureScrollMainContainer",
    "pf": "userwidgetmodel",
    "retaincontentalignment": false,
    "retainflexpositionproperties": false,
    "retainflowhorizontalalignment": false,
    "snapgridsize": 10,
    "snaptogrid": true,
    "wType": "FlexContainer",
    "widgetalignment": 1,
    "zindex": 1
}