{
    "DNDConfig": null,
    "_height_": {
        "type": "string",
        "value": "85%"
    },
    "_left_": {
        "type": "string",
        "value": "15%"
    },
    "_margin_": [
        0,
        0,
        0,
        0
    ],
    "_orientation_": 6,
    "_padding_": [
        0,
        0,
        0,
        0
    ],
    "_percent_": true,
    "_right_": {
        "type": "string",
        "value": "15%"
    },
    "_skin_": "sa62c536cb244209acfb3aa704a9e976",
    "allboxes": [],
    "autogrowmode": 0,
    "canUpdateUI": true,
    "centery": {
        "type": "string",
        "value": "50%"
    },
    "children": [
        "flxViewFeatureTopDetails",
        "flxViewFeatureScrollMain"
    ],
    "clipbounds": true,
    "containerweight": 100,
    "enablescrolling": true,
    "id": "flxViewFeatureDetailsPopup",
    "info": null,
    "iscustomlayout": false,
    "isvisible": false,
    "kuid": "f61db72996f54e1ab553d749a5c24011",
    "layouttype": 2,
    "name": "kony.ui.FlexContainer",
    "parent": "flxAddProductPopups",
    "pf": "userwidgetmodel",
    "retaincontentalignment": false,
    "retainflexpositionproperties": false,
    "retainflowhorizontalalignment": false,
    "snapgridsize": 10,
    "snaptogrid": true,
    "wType": "FlexContainer",
    "widgetalignment": 1,
    "zindex": 10
}