{
    "DNDConfig": null,
    "_height_": {
        "type": "string",
        "value": "10px"
    },
    "_left_": {
        "type": "string",
        "value": "0px"
    },
    "_margin_": [
        0,
        0,
        0,
        0
    ],
    "_orientation_": 6,
    "_padding_": [
        0,
        0,
        0,
        0
    ],
    "_percent_": true,
    "_skin_": "sb7502c4ada34b34906e9d5dd6b45360",
    "_top_": {
        "type": "string",
        "value": "0px"
    },
    "_width_": {
        "type": "string",
        "value": "100%"
    },
    "allboxes": [],
    "autogrowmode": 0,
    "canUpdateUI": true,
    "children": [],
    "clipbounds": true,
    "containerweight": 100,
    "enablescrolling": true,
    "id": "flxViewFeatureHeader",
    "info": null,
    "iscustomlayout": false,
    "isvisible": true,
    "kuid": "b8ab4ec7e9e04c84a7c812f1c70df5de",
    "layouttype": 2,
    "name": "kony.ui.FlexContainer",
    "parent": "flxViewFeatureTopDetails",
    "pf": "userwidgetmodel",
    "retaincontentalignment": false,
    "retainflexpositionproperties": false,
    "retainflowhorizontalalignment": false,
    "snapgridsize": 10,
    "snaptogrid": true,
    "wType": "FlexContainer",
    "widgetalignment": 1,
    "zindex": 1
}