{
    "DNDConfig": null,
    "_height_": {
        "type": "string",
        "value": "1px"
    },
    "_left_": {
        "type": "string",
        "value": "0px"
    },
    "_margin_": [
        0,
        0,
        0,
        0
    ],
    "_orientation_": 6,
    "_padding_": [
        0,
        0,
        0,
        0
    ],
    "_percent_": true,
    "_right_": {
        "type": "string",
        "value": "0px"
    },
    "_skin_": "s359b8df992e4815b389a9a5921207fa",
    "_top_": {
        "type": "string",
        "value": "43px"
    },
    "allboxes": [],
    "autogrowmode": 0,
    "canUpdateUI": true,
    "children": [],
    "clipbounds": true,
    "containerweight": 100,
    "enablescrolling": true,
    "id": "flxViewFeatureSeparator3",
    "info": null,
    "iscustomlayout": false,
    "isvisible": true,
    "kuid": "h1e41f95d97a4bdaa56360931f466acc",
    "layouttype": 2,
    "name": "kony.ui.FlexContainer",
    "parent": "flxViewFeatureSegHeading",
    "pf": "userwidgetmodel",
    "retaincontentalignment": false,
    "retainflexpositionproperties": false,
    "retainflowhorizontalalignment": false,
    "snapgridsize": 10,
    "snaptogrid": true,
    "wType": "FlexContainer",
    "widgetalignment": 1,
    "zindex": 1
}