{
    "DNDConfig": null,
    "_height_": {
        "type": "string",
        "value": "100px"
    },
    "_left_": {
        "type": "string",
        "value": "30%"
    },
    "_margin_": [
        0,
        0,
        0,
        0
    ],
    "_orientation_": 6,
    "_padding_": [
        0,
        0,
        0,
        0
    ],
    "_percent_": true,
    "_skin_": "s8ff24328417401b877c3ceb2a5fa27c",
    "_top_": {
        "type": "string",
        "value": "5px"
    },
    "_width_": {
        "type": "string",
        "value": "65%"
    },
    "allboxes": [],
    "autogrowmode": 0,
    "canUpdateUI": true,
    "children": [
        "lblFeatureDescTextCounter",
        "txtAreaFeatureDescription"
    ],
    "clipbounds": true,
    "containerId": true,
    "containerweight": 100,
    "enablescrolling": true,
    "id": "flxDescriptionContainer",
    "info": null,
    "iscustomlayout": false,
    "isvisible": true,
    "kuid": "ic764f28eb294c2aa0222229e65a1a11",
    "layouttype": 2,
    "name": "kony.ui.FlexContainer",
    "parent": "flxSegProductFeatureOption",
    "pf": "segProductFeatureOptionValues",
    "retaincontentalignment": false,
    "retainflexpositionproperties": false,
    "retainflowhorizontalalignment": false,
    "snapgridsize": 10,
    "snaptogrid": true,
    "wType": "FlexContainer",
    "widgetalignment": 1,
    "zindex": 1
}