{
    "@class": "com.kony.gen.viz.model.component.KVizUserWidget",
    "DNDConfig": null,
    "_children_": [],
    "_height_": {
        "type": "string",
        "value": "100%"
    },
    "_left_": {
        "type": "string",
        "value": "20px"
    },
    "_margin_": [
        0,
        0,
        0,
        0
    ],
    "_orientation_": 1,
    "_padding_": [
        0,
        0,
        0,
        0
    ],
    "_percent_": true,
    "_render_": true,
    "_right_": {
        "type": "string",
        "value": "20px"
    },
    "_skin_": "s8ff24328417401b877c3ceb2a5fa27c",
    "_top_": {
        "type": "string",
        "value": "0dp"
    },
    "_width_": {
        "type": "string",
        "value": ""
    },
    "areflexpropsreferenced": false,
    "autogrowmode": 0,
    "canUpdateUI": true,
    "clipbounds": true,
    "containerweight": 0,
    "dataDiffs": {
        "btnBanking": {
            "__events__": {},
            "__info__": {
                "kuid": "a6cac98df72442e6b8f9e70fe960b1b4",
                "srcKUID": "g8ac174dffd742a98b37a58d77d41e5b",
                "wType": "Button"
            }
        },
        "btnDeposits": {
            "__events__": {},
            "__info__": {
                "kuid": "jea07e4743d147c2b1eaef082abe10f8",
                "srcKUID": "e849d2a55101467997b1a63b0999c68f",
                "wType": "Button"
            }
        },
        "btnLoans": {
            "__events__": {},
            "__info__": {
                "kuid": "eace1e6959c84e4da63b68e8868c473e",
                "srcKUID": "hf58669dc8264c8682b1cb042bd81b54",
                "wType": "Button"
            }
        },
        "btnProfile": {
            "__events__": {},
            "__info__": {
                "kuid": "e0ab3ce0d97042c5ab97aca111d151d4",
                "srcKUID": "e79b2db640a3489e90e3bb84567c901b",
                "wType": "Button"
            }
        },
        "dashboardCommonTab": {
            "__events__": {},
            "__info__": {
                "isRoot": true,
                "kuid": "c57912f8effd4469a9b426e01ce9f271",
                "srcKUID": "ee36c0de5bc943068c423a26b2758cae",
                "wType": "FlexContainer"
            },
            "autogrowMode": {
                "Default": 0
            },
            "height": {
                "Default": {
                    "type": "string",
                    "value": "100%"
                }
            },
            "left": {
                "Default": {
                    "type": "string",
                    "value": "20px"
                }
            },
            "right": {
                "Default": {
                    "type": "string",
                    "value": "20px"
                }
            },
            "top": {
                "Default": {
                    "type": "string",
                    "value": "0dp"
                }
            },
            "width": {
                "Default": {
                    "type": "string",
                    "value": ""
                }
            }
        },
        "flxProductsTabsWrapper": {
            "__events__": {},
            "__info__": {
                "kuid": "f1ca5286374f4c93bbbd4dbc07d8936d",
                "srcKUID": "b7e39766b6884ea189cc43eb50245c93",
                "wType": "FlexContainer"
            }
        },
        "lblBottomSeperatorCommonTabs": {
            "__events__": {},
            "__info__": {
                "kuid": "c8a40cc47dd04394a49f8582d606b9d4",
                "srcKUID": "j35e600a19f644978859b4bf641d7458",
                "wType": "Label"
            }
        }
    },
    "id": "dashboardCommonTab",
    "info": null,
    "iscustomlayout": false,
    "isdatareferenced": false,
    "issegmentchild": false,
    "isvisible": true,
    "kuid": "c57912f8effd4469a9b426e01ce9f271",
    "layouttype": 2,
    "masterType": 0,
    "name": "kony.ui.UserWidgetInstance",
    "parent": "flxTabWrapper",
    "pf": "userwidgetmodel",
    "retaincontentalignment": false,
    "retainflexpositionproperties": false,
    "snaptogrid": true,
    "sourceUserWidget": "ee36c0de5bc943068c423a26b2758cae",
    "wType": "UserWidgetInstance"
}