{
    "@class": "com.kony.gen.viz.model.component.KVizUserWidget",
    "DNDConfig": null,
    "_children_": [],
    "_height_": {
        "type": "string",
        "value": "100%"
    },
    "_left_": {
        "type": "string",
        "value": "0dp"
    },
    "_margin_": [
        0,
        0,
        0,
        0
    ],
    "_orientation_": 1,
    "_padding_": [
        0,
        0,
        0,
        0
    ],
    "_percent_": true,
    "_render_": true,
    "_skin_": "s8ff24328417401b877c3ceb2a5fa27c",
    "_top_": {
        "type": "string",
        "value": "0dp"
    },
    "_width_": {
        "type": "string",
        "value": "100%"
    },
    "autogrowmode": 0,
    "canUpdateUI": true,
    "clipbounds": true,
    "containerweight": 0,
    "data": {
        "ide_alignPopups": "AS_UWI_id8641937d8445d9a4fc2fedbebcade0",
        "ide_closeAddProductComponent": "AS_UWI_h9c52059d9c64c4784053923c8a0cb46",
        "ide_formUpdateUI": "AS_UWI_g753f0e2b31943238f8695f9d6f2d69d",
        "productPurposes": "{\"values\":[\"Onboarding\",\"Campaigns\"]}"
    },
    "enablescrolling": true,
    "id": "addProduct",
    "info": null,
    "iscustomlayout": false,
    "issegmentchild": false,
    "isvisible": true,
    "kuid": "c2712667f4c14792a263622f3e98e1ef",
    "layouttype": 2,
    "masterType": 1,
    "name": "kony.ui.UserWidgetInstance",
    "parent": "flxAddProducts",
    "pf": "frmProduct",
    "retaincontentalignment": false,
    "retainflexpositionproperties": false,
    "retainflowhorizontalalignment": false,
    "snapgridsize": 10,
    "snaptogrid": true,
    "sourceUserWidget": "d485e924f4db429d96b786e20cdaa0a4",
    "wType": "UserWidgetInstance"
}