{
    "DNDConfig": null,
    "_height_": {
        "type": "ref",
        "value": "preferred"
    },
    "_left_": {
        "type": "string",
        "value": "31%"
    },
    "_margin_": [
        0,
        0,
        0,
        0
    ],
    "_orientation_": 6,
    "_padding_": [
        0,
        0,
        0,
        0
    ],
    "_percent_": true,
    "_skin_": "s8ff24328417401b877c3ceb2a5fa27c",
    "_width_": {
        "type": "string",
        "value": "20%"
    },
    "allboxes": [],
    "autogrowmode": 1,
    "canUpdateUI": true,
    "centery": {
        "type": "string",
        "value": "50%"
    },
    "children": [
        "lblAccountType",
        "lblIconFilterAccType"
    ],
    "clipbounds": true,
    "containerId": true,
    "containerweight": 100,
    "desktopweb": {
        "psp": {
            "hoverSkin": "s54b03ed0af548f4b10ba6e76cf19723"
        }
    },
    "disabledSkins": {},
    "enablescrolling": true,
    "id": "flxAccountType",
    "info": null,
    "iscustomlayout": false,
    "isvisible": true,
    "kuid": "e59ced96248147ab83ab7c45428ad3aa",
    "layouttype": 3,
    "name": "kony.ui.FlexContainer",
    "parent": "flxHeaderContainer",
    "pf": "segEnrollSelectedAccountsSec",
    "retaincontentalignment": false,
    "retainflexpositionproperties": false,
    "retainflowhorizontalalignment": false,
    "snapgridsize": 10,
    "snaptogrid": true,
    "wType": "FlexContainer",
    "widgetalignment": 1
}