{
    "DNDConfig": null,
    "_height_": {
        "type": "ref",
        "value": "preferred"
    },
    "_left_": {
        "type": "string",
        "value": "0dp"
    },
    "_margin_": [
        0,
        0,
        0,
        0
    ],
    "_orientation_": 6,
    "_padding_": [
        0,
        0,
        0,
        0
    ],
    "_percent_": true,
    "_skin_": "s438947e0b124486a93d616f381275f9",
    "_top_": {
        "type": "string",
        "value": "0dp"
    },
    "_width_": {
        "type": "string",
        "value": "100%"
    },
    "allboxes": [],
    "autogrowmode": 1,
    "canUpdateUI": true,
    "children": [
        "flxAccountSectionCont",
        "flxHeaderContainer"
    ],
    "clipbounds": true,
    "containerId": true,
    "containerweight": 100,
    "controllerInfo": {
        "default": {
            "channel": "desktop",
            "name": "flxEnrollSelectedAccountsSecController"
        }
    },
    "enablescrolling": true,
    "id": "flxEnrollSelectedAccountsSec",
    "info": null,
    "iscustomlayout": false,
    "isvisible": true,
    "kuid": "f1ee6cf452ce4816aea94dda3792368f",
    "layouttype": 2,
    "name": "kony.ui.FlexContainer",
    "parent": "segEnrollSelectedAccountsSec",
    "pf": "segEnrollSelectedAccountsSec",
    "retaincontentalignment": false,
    "retainflexpositionproperties": false,
    "retainflowhorizontalalignment": false,
    "snapgridsize": 10,
    "snaptogrid": true,
    "wType": "FlexContainer",
    "widgetalignment": 1
}