{
    "DNDConfig": null,
    "_height_": {
        "type": "ref",
        "value": "preferred"
    },
    "_left_": {
        "type": "string",
        "value": "15dp"
    },
    "_margin_": [
        0,
        0,
        0,
        0
    ],
    "_orientation_": 6,
    "_padding_": [
        0,
        0,
        0,
        0
    ],
    "_percent_": true,
    "_skin_": "s8ff24328417401b877c3ceb2a5fa27c",
    "_top_": {
        "type": "string",
        "value": "0dp"
    },
    "_width_": {
        "type": "string",
        "value": "90%"
    },
    "allboxes": [],
    "autogrowmode": 1,
    "canUpdateUI": true,
    "children": [
        "flxToggleArrow",
        "lblFeatureName"
    ],
    "clipbounds": true,
    "containerId": true,
    "containerweight": 100,
    "desktopweb": {
        "psp": {}
    },
    "disabledSkins": {
        "hoverSkin": "s5e20bcbd46e41d7a391e1272158fbd4"
    },
    "enablescrolling": true,
    "id": "flxLeft",
    "info": null,
    "iscustomlayout": false,
    "isvisible": true,
    "kuid": "j82c521baaf742c2ba07f61901783f06",
    "layouttype": 3,
    "name": "kony.ui.FlexContainer",
    "parent": "flxRow1",
    "pf": "segEnrollSelectedAccountsSec",
    "retaincontentalignment": false,
    "retainflexpositionproperties": false,
    "retainflowhorizontalalignment": false,
    "snapgridsize": 10,
    "snaptogrid": true,
    "wType": "FlexContainer",
    "widgetalignment": 1
}