{
    "DNDConfig": null,
    "__parentReadjusting__": false,
    "_height_": {
        "type": "ref",
        "value": "preferred"
    },
    "_left_": {
        "type": "string",
        "value": "6%"
    },
    "_margin_": [
        0,
        0,
        0,
        0
    ],
    "_orientation_": 6,
    "_padding_": [
        0,
        0,
        0,
        0
    ],
    "_percent_": true,
    "_skin_": "s62d8279227b40c0946d452d16cdafd5",
    "_top_": {
        "type": "string",
        "value": "255px"
    },
    "_width_": {
        "type": "string",
        "value": "260px"
    },
    "allboxes": [],
    "allowhorizontalbounce": false,
    "allowverticalbounce": true,
    "bounces": true,
    "canUpdateUI": true,
    "children": [
        "segCompanyDropdown",
        "richtextNoResult"
    ],
    "clipbounds": true,
    "containerweight": 100,
    "decelerat": false,
    "desktopweb": {
        "psp": {
            "hoverSkin": "sf65bc35863a4e39aeb1523714d95056"
        }
    },
    "dragg": false,
    "enablescrolling": true,
    "horizontalscrollindicator": true,
    "id": "flxCompanyDropdown",
    "info": null,
    "isvisible": false,
    "kuid": "d7697deab94c4026835907a35269d551",
    "layouttype": 2,
    "maxheight": {
        "type": "string",
        "value": "130px"
    },
    "name": "kony.ui.FlexScrollContainer",
    "pagingenabled": false,
    "parent": "flxMainContent",
    "pf": "frmCustomerManagement",
    "scrolldirection": 2,
    "snapgridsize": 10,
    "snaptogrid": true,
    "track": false,
    "verticalscrollindicator": true,
    "vizProps": {},
    "wType": "FlexScrollContainer",
    "widgetalignment": 1,
    "zindex": 200
}