{
    "DNDConfig": null,
    "__parentReadjusting__": false,
    "_height_": {
        "type": "string",
        "value": "100%"
    },
    "_left_": {
        "type": "string",
        "value": "20dp"
    },
    "_margin_": [
        0,
        0,
        0,
        0
    ],
    "_orientation_": 6,
    "_padding_": [
        0,
        0,
        0,
        0
    ],
    "_percent_": true,
    "_right_": {
        "type": "string",
        "value": "20dp"
    },
    "_skin_": "s8ff24328417401b877c3ceb2a5fa27c",
    "_top_": {
        "type": "string",
        "value": "0dp"
    },
    "allboxes": [],
    "autogrowmode": 0,
    "canUpdateUI": true,
    "children": [
        "lblFullName",
        "lblUsername",
        "lblEmailId",
        "lblRole",
        "lblPermissions",
        "flxStatus",
        "flxOptions",
        "lblSeperator"
    ],
    "clipbounds": true,
    "containerId": true,
    "containerweight": 100,
    "desktopweb": {
        "psp": {
            "hoverSkin": "s512ca636f844ef4aa81b2647c08ce24"
        }
    },
    "disabledSkins": {},
    "enablescrolling": true,
    "id": "flxUsersContainer",
    "info": null,
    "iscustomlayout": false,
    "isvisible": true,
    "kuid": "bae9f67f95104f20b0a410b492ab552c",
    "layouttype": 2,
    "name": "kony.ui.FlexContainer",
    "parent": "flxUsers",
    "pf": "segUsers",
    "retaincontentalignment": false,
    "retainflexpositionproperties": false,
    "retainflowhorizontalalignment": false,
    "snapgridsize": 10,
    "snaptogrid": true,
    "wType": "FlexContainer",
    "widgetalignment": 1
}