{
    "DNDConfig": null,
    "__parentReadjusting__": false,
    "_bottom_": {
        "type": "number",
        "value": "0"
    },
    "_height_": {
        "type": "string",
        "value": "100%"
    },
    "_left_": {
        "type": "string",
        "value": "0px"
    },
    "_margin_": [
        0,
        0,
        0,
        0
    ],
    "_orientation_": 6,
    "_padding_": [
        0,
        0,
        0,
        0
    ],
    "_percent_": true,
    "_right_": {
        "type": "string",
        "value": "35px"
    },
    "_skin_": "s8ff24328417401b877c3ceb2a5fa27c",
    "_top_": {
        "type": "string",
        "value": "-10px"
    },
    "allboxes": [],
    "canUpdateUI": true,
    "children": [
        "flxDetailTermsAndConditionsWrapper",
        "flxVersionsList"
    ],
    "clipbounds": false,
    "containerweight": 100,
    "enablescrolling": true,
    "id": "flxDetailTermsAndConditions",
    "info": null,
    "iscustomlayout": false,
    "isvisible": false,
    "kuid": "e74cc63c3983436a82b880a4dca1038d",
    "layouttype": 4,
    "name": "kony.ui.FlexContainer",
    "parent": "flxScrollMainContent",
    "pf": "frmTermsAndConditions",
    "retaincontentalignment": false,
    "retainflexpositionproperties": false,
    "retainflowhorizontalalignment": false,
    "snapgridsize": 10,
    "snaptogrid": true,
    "vizProps": {},
    "wType": "FlexContainer",
    "widgetalignment": 1,
    "zindex": 1
}