{
    "@class": "com.kony.gen.viz.model.component.KVizButton",
    "DNDConfig": null,
    "_height_": {
        "type": "string",
        "value": "22px"
    },
    "_margin_": [
        6,
        6,
        6,
        6
    ],
    "_padding_": [
        0,
        0,
        0,
        0
    ],
    "_right_": {
        "type": "string",
        "value": "20dp"
    },
    "_skin_": "s918f47f786b4145a0ce71b925c7b10d",
    "_text_": "",
    "_top_": {
        "type": "string",
        "value": "0dp"
    },
    "_width_": {
        "type": "string",
        "value": "106dp"
    },
    "canUpdateUI": true,
    "containerweight": 100,
    "contentalignment": 5,
    "desktopweb": {
        "psp": {
            "hoverSkin": "s2298852c1d6475da8f5c3a9c70d0f64"
        }
    },
    "disabledSkins": {
        "focusSkin": "s152a8ebff2840e2b2942e5ec1abbdb5"
    },
    "displaytext": true,
    "id": "btnViewEdit",
    "info": null,
    "isvisible": false,
    "kuid": "ee4f0f3affbc4aa397632a4050475eeb",
    "name": "kony.ui.Button",
    "paddinginpixel": false,
    "parent": "flxDetailHeadingCont",
    "pf": "userwidgetmodel",
    "texti18n": "i18n.frmCustomerProfileFeaturesActions.ViewContract",
    "wType": "Button",
    "zindex": 1
}