{
    "@class": "com.kony.gen.viz.model.component.KVizLabel",
    "DNDConfig": null,
    "_height_": {
        "type": "ref",
        "value": "preferred"
    },
    "_left_": {
        "type": "string",
        "value": "0px"
    },
    "_margin_": [
        1,
        1,
        1,
        1
    ],
    "_padding_": [
        0,
        0,
        0,
        0
    ],
    "_skin_": "s9160d55f44b4d7cbc562a2662ab77b6",
    "_text_": "Data for details",
    "_top_": {
        "type": "string",
        "value": "8px"
    },
    "_width_": {
        "type": "string",
        "value": "100%"
    },
    "_wrapping_": 2,
    "android": {
        "textStyle": {
            "letterSpacing": 0,
            "strikeThrough": false
        }
    },
    "canUpdateUI": true,
    "containerweight": 100,
    "contentalignment": 4,
    "id": "lblData1",
    "info": null,
    "ipad": {
        "psp": {
            "wrapping": 2
        }
    },
    "iphone": {
        "psp": {
            "wrapping": 2
        }
    },
    "isvisible": true,
    "kuid": "j5641c9d5b8a44c798f6e0a61274552b",
    "name": "kony.ui.Label",
    "parent": "flxColumn1",
    "pf": "userwidgetmodel",
    "texti18n": "i18n.userwidgetmodel.lblData1",
    "tooltip": "",
    "wType": "Label",
    "zindex": 1
}