{
    "@class": "com.kony.gen.viz.model.component.KVizLabel",
    "DNDConfig": null,
    "_height_": {
        "type": "ref",
        "value": "preferred"
    },
    "_left_": {
        "type": "string",
        "value": "80%"
    },
    "_margin_": [
        1,
        1,
        1,
        1
    ],
    "_padding_": [
        0,
        0,
        0,
        0
    ],
    "_skin_": "sce0701cd6374bd095f3efd22541a129",
    "_text_": "Add Condition",
    "_top_": {
        "type": "string",
        "value": "12dp"
    },
    "_width_": {
        "type": "ref",
        "value": "preferred"
    },
    "_wrapping_": 2,
    "android": {
        "textStyle": {
            "letterSpacing": 0,
            "strikeThrough": false
        }
    },
    "canUpdateUI": true,
    "containerId": true,
    "containerweight": 100,
    "contentalignment": 1,
    "desktopweb": {
        "psp": {
            "hoverSkin": "sd64aac56fd044eb84f368ac93518d46"
        }
    },
    "disabledSkins": {},
    "id": "lblAddApprovalCondition",
    "info": null,
    "ipad": {
        "psp": {
            "wrapping": 2
        }
    },
    "iphone": {
        "psp": {
            "wrapping": 2
        }
    },
    "isvisible": true,
    "kuid": "b8f87f5afaa54f8898f9185a30364e28",
    "name": "kony.ui.Label",
    "parent": "flxAddApprovalCont",
    "pf": "segAddApprovalRule",
    "tooltip": "",
    "wType": "Label",
    "zindex": 1
}