{
    "@class": "com.kony.gen.viz.model.component.KVizUserWidget",
    "DNDConfig": null,
    "__parentReadjusting__": false,
    "_children_": [],
    "_height_": {
        "type": "ref",
        "value": "preferred"
    },
    "_left_": "0dp",
    "_margin_": [
        0,
        0,
        0,
        0
    ],
    "_orientation_": 1,
    "_padding_": [
        0,
        0,
        0,
        0
    ],
    "_percent_": true,
    "_render_": true,
    "_skin_": "s8ff24328417401b877c3ceb2a5fa27c",
    "_top_": "0dp",
    "_width_": {
        "type": "string",
        "value": "100%"
    },
    "areflexpropsreferenced": false,
    "autogrowmode": 1,
    "canUpdateUI": true,
    "clipbounds": true,
    "containerweight": 0,
    "dataDiffs": {
        "ContactNum": {
            "__events__": {},
            "__info__": {
                "isRoot": true,
                "kuid": "c28cba3be7594ffba0cdb3a509237f6e",
                "srcKUID": "2a3f01ada4084b8ba9497e686113df17",
                "wType": "FlexContainer"
            },
            "autogrowMode": {
                "Default": 1
            },
            "height": {
                "Default": {
                    "type": "ref",
                    "value": "preferred"
                }
            }
        },
        "btnAdd": {
            "__events__": {},
            "__info__": {
                "kuid": "e25d6613e9ed46838edb7a0fa4595370",
                "srcKUID": "h4f4674faf2d44cc92cba5dec75614df",
                "wType": "Button"
            },
            "left": {
                "Default": {
                    "type": "number",
                    "value": "0"
                }
            }
        },
        "btnDeleteAdditionalDetails1": {
            "__events__": {},
            "__info__": {
                "kuid": "d57c3fe5fb1c43338c2e832f056511ff",
                "srcKUID": "cf80852a0589423f9de97e2abd843f79",
                "wType": "Button"
            }
        },
        "btnDeleteAdditionalDetails2": {
            "__events__": {},
            "__info__": {
                "kuid": "g4130ee985124a978ceaec9aa4d5a862",
                "srcKUID": "dec399262bbe423a80354b1cfbe62b2e",
                "wType": "Button"
            }
        },
        "btnEdit": {
            "__events__": {},
            "__info__": {
                "kuid": "ffb8cb3b704c4f648551145343a21e15",
                "srcKUID": "e0b5121ad0f346cb83c78256feda91c4",
                "wType": "Button"
            },
            "left": {
                "Default": {
                    "type": "string",
                    "value": ""
                }
            }
        },
        "flxAdditionalDetails1": {
            "__events__": {},
            "__info__": {
                "kuid": "jcb36d18205d4d70ba0c0831a7b21571",
                "srcKUID": "8f274598a7e748a38ee0cf98f399af04",
                "wType": "FlexContainer"
            }
        },
        "flxAdditionalDetails2": {
            "__events__": {},
            "__info__": {
                "kuid": "h23d8345e6764114bba62acfc18184bc",
                "srcKUID": "a20c2af64e704e42bc1e9f932b8561c6",
                "wType": "FlexContainer"
            }
        },
        "flxAddtionalDetailsHeader1": {
            "__events__": {},
            "__info__": {
                "kuid": "b96f485024c3409cb2109788170f7161",
                "srcKUID": "d018dc019cbf44f2a92507bb9bc17bc7",
                "wType": "FlexContainer"
            }
        },
        "flxAddtionalDetailsHeader2": {
            "__events__": {},
            "__info__": {
                "kuid": "ee03cc33ae8d4a25ae0e5f64724b7446",
                "srcKUID": "cfedf77ef5e5438cab96490c5ce21432",
                "wType": "FlexContainer"
            }
        },
        "flxButtons": {
            "__events__": {},
            "__info__": {
                "kuid": "ddbede2076614469a1a76042bce270f5",
                "srcKUID": "j888c4d3acc244dc95ecbede67d85944",
                "wType": "FlexContainer"
            },
            "layoutType": 2
        },
        "flxDetails1": {
            "__events__": {},
            "__info__": {
                "kuid": "d65f8d31b6f94fcaabec911eef0639fd",
                "srcKUID": "f4be5f0f6e5e4816b7437b542f4e67b2",
                "wType": "FlexContainer"
            }
        },
        "flxDetailsHeader": {
            "__events__": {},
            "__info__": {
                "kuid": "g2d6e561cbec45ef93a532957e2cbe47",
                "srcKUID": "3dabd45555d64cd8a70bf71a114616c1",
                "wType": "FlexContainer"
            }
        },
        "flxDetailsRow1": {
            "__events__": {},
            "__info__": {
                "kuid": "b47f2799df644a81a96032974ffc9f4b",
                "srcKUID": "34b7e0c82f79458a8490ba6b44ade6bb",
                "wType": "FlexContainer"
            }
        },
        "flxDetailsRow2": {
            "__events__": {},
            "__info__": {
                "kuid": "c6f8b7113cf847cba34f6fe61ca9ca37",
                "srcKUID": "8353fda036f749c3a5cfb8320d146f5f",
                "wType": "FlexContainer"
            }
        },
        "flxPrimaryCommunication": {
            "__events__": {},
            "__info__": {
                "kuid": "a79d7b6f600640ab951190d0d9fe12e1",
                "srcKUID": "db55107cdea14194b8e03a72cb8bd6e3",
                "wType": "FlexContainer"
            }
        },
        "flxPrimaryLabelAndTag": {
            "__events__": {},
            "__info__": {
                "kuid": "ef1b4f1c6927441496186d6e010ead98",
                "srcKUID": "c0b391784d33469e81c22d0fd11f050c",
                "wType": "FlexContainer"
            }
        },
        "lblAdditionalDetailsKey1": {
            "__events__": {},
            "__info__": {
                "kuid": "fcf133ab547841df988b978c919ad618",
                "srcKUID": "c2e48005d65141b3b0aeeae58ec481c0",
                "wType": "Label"
            }
        },
        "lblAdditionalDetailsKey2": {
            "__events__": {},
            "__info__": {
                "kuid": "ff1b89196c294b9eacc7855701afb1de",
                "srcKUID": "463768ff5aca47b196cc411583e794b5",
                "wType": "Label"
            }
        },
        "lblAdditionalDetailsValue1": {
            "__events__": {},
            "__info__": {
                "kuid": "jbce4fff73cf4b28929861b2dc0feb8a",
                "srcKUID": "e019f53193e048a1aaefe84d1d425f1e",
                "wType": "Label"
            },
            "left": {
                "Default": {
                    "type": "string",
                    "value": "0dp"
                }
            },
            "right": {
                "Default": {
                    "type": "string",
                    "value": "0dp"
                }
            },
            "top": {
                "Default": {
                    "type": "string",
                    "value": "30px"
                }
            },
            "width": {
                "Default": {
                    "type": "string",
                    "value": ""
                }
            }
        },
        "lblAdditionalDetailsValue2": {
            "__events__": {},
            "__info__": {
                "kuid": "ha4ab856c8334d25ba810dcc9aeaf2e9",
                "srcKUID": "c2a56ec38e464815b7cc59bf912d5593",
                "wType": "Label"
            },
            "right": {
                "Default": {
                    "type": "string",
                    "value": "0dp"
                }
            },
            "width": {
                "Default": {
                    "type": "string",
                    "value": ""
                }
            }
        },
        "lblDetailsHeader": {
            "__events__": {},
            "__info__": {
                "kuid": "d543de826d9e4055ad3e75511adb4cb2",
                "srcKUID": "d096056adc7f419aa4cf99e948457ead",
                "wType": "Label"
            }
        },
        "lblPrimaryCommunicationContact": {
            "__events__": {},
            "__info__": {
                "kuid": "ffd1b1a64a264811be9d85fb593e04d2",
                "srcKUID": "j505180465334da98b00cb1c232a2d14",
                "wType": "Label"
            }
        },
        "lblPrimaryKey": {
            "__events__": {},
            "__info__": {
                "kuid": "a80023d595f149dbbcee87118c499ffa",
                "srcKUID": "fe8d00b8a71b4d9dac1ec2aaebca8c6a",
                "wType": "Label"
            }
        },
        "lblPrimaryValue": {
            "__events__": {},
            "__info__": {
                "kuid": "e7492b4732d940eeaae22b7ee6a8ff73",
                "srcKUID": "c464b67daf2c413cb9d0d81d5e874777",
                "wType": "Label"
            },
            "right": {
                "Default": {
                    "type": "string",
                    "value": "0dp"
                }
            },
            "width": {
                "Default": {
                    "type": "string",
                    "value": ""
                }
            }
        }
    },
    "id": "ContactNum",
    "info": null,
    "isdatareferenced": false,
    "isvisible": true,
    "kuid": "c28cba3be7594ffba0cdb3a509237f6e",
    "layouttype": 4,
    "masterType": 0,
    "name": "kony.ui.UserWidgetInstance",
    "parent": "flxContactDetails",
    "pf": "frmCustomerProfileContacts",
    "snaptogrid": true,
    "sourceUserWidget": "2a3f01ada4084b8ba9497e686113df17",
    "vizprops": {
        "hidewidgethierarchy": false
    },
    "wType": "UserWidgetInstance"
}