{
    "@class": "com.kony.gen.viz.model.component.KVizUserWidget",
    "DNDConfig": null,
    "__parentReadjusting__": false,
    "_children_": [],
    "_height_": {
        "type": "string",
        "value": "100%"
    },
    "_left_": {
        "type": "string",
        "value": "0dp"
    },
    "_margin_": [
        0,
        0,
        0,
        0
    ],
    "_orientation_": 1,
    "_padding_": [
        0,
        0,
        0,
        0
    ],
    "_percent_": true,
    "_render_": true,
    "_skin_": "s39233a8d65f40d5b9120e116f6d9ef6",
    "_top_": {
        "type": "string",
        "value": "0dp"
    },
    "_width_": {
        "type": "string",
        "value": "100%"
    },
    "areflexpropsreferenced": false,
    "canUpdateUI": true,
    "clipbounds": true,
    "containerweight": 0,
    "dataDiffs": {
        "btnPopUpCancel": {
            "__events__": {},
            "__info__": {
                "kuid": "f7e22cbaef124b359b63bd2857c05511",
                "srcKUID": "d4ffebacb2fc450f90f34ff2c512b36f",
                "wType": "Button"
            },
            "i18n_text": null,
            "minWidth": {
                "Default": {
                    "type": "string",
                    "value": "80dp"
                }
            },
            "right": {
                "Default": {
                    "type": "string",
                    "value": "20px"
                }
            },
            "text": "NO, LEAVE IT AS IT IS",
            "width": {
                "Default": {
                    "type": "ref",
                    "value": "preferred"
                }
            }
        },
        "btnPopUpDelete": {
            "__events__": {},
            "__info__": {
                "kuid": "b5eee9019cf84c219637170d84913b3a",
                "srcKUID": "d74b32688d0448359e725db30e5db9ca",
                "wType": "Button"
            },
            "i18n_text": null,
            "text": "YES",
            "width": {
                "Default": {
                    "type": "ref",
                    "value": "preferred"
                }
            }
        },
        "flxPopUp": {
            "__events__": {},
            "__info__": {
                "kuid": "df70d17fe8e44ade914c717cc835a78b",
                "srcKUID": "f1999a7df0404922bf7e8acfb6a3780a",
                "wType": "FlexContainer"
            }
        },
        "flxPopUpButtons": {
            "__events__": {},
            "__info__": {
                "kuid": "fc3055fc47f74c58a24af4aa4b8a08fa",
                "srcKUID": "f009cbfda01245849be265a8e58d3cf3",
                "wType": "FlexContainer"
            }
        },
        "flxPopUpClose": {
            "__events__": {},
            "__info__": {
                "kuid": "de17be804d5c4aec9b0bf371634cd54f",
                "srcKUID": "f9727789f4894508b70f7d5ae8b7a9a2",
                "wType": "FlexContainer"
            }
        },
        "flxPopUpTopColor": {
            "__events__": {},
            "__info__": {
                "kuid": "i9b1c3e7dce047f5be2c0b8e8240040c",
                "srcKUID": "d5d6b9f19ae4477b8708d1b775160fb5",
                "wType": "FlexContainer"
            }
        },
        "flxPopupHeader": {
            "__events__": {},
            "__info__": {
                "kuid": "d2e72e6d11834bafb526b3e9041733dd",
                "srcKUID": "ad64beaac2734a82ad110cd93e7e9838",
                "wType": "FlexContainer"
            }
        },
        "fontIconImgCLose": {
            "__events__": {},
            "__info__": {
                "kuid": "g2ec889c341d4a71bd09ff664fbce8c4",
                "srcKUID": "hb8853052adb4ceb98482f3b9abdb6b1",
                "wType": "Label"
            }
        },
        "lblPopUpClose": {
            "__events__": {},
            "__info__": {
                "kuid": "d741a09faf5d40e9859084f8f32dba7f",
                "srcKUID": "j726c91d687f4bdea9b61ee15718ea91",
                "wType": "Label"
            }
        },
        "lblPopUpMainMessage": {
            "__events__": {},
            "__info__": {
                "kuid": "e1e2e24f470d432f9306089102fbd203",
                "srcKUID": "cf94c2324e174d609ee2a12b7557d0a5",
                "wType": "Label"
            },
            "i18n_text": null,
            "text": "Set the Branch Offline?"
        },
        "popUp": {
            "__events__": {},
            "__info__": {
                "isRoot": true,
                "kuid": "i3fa7d82efcb495aac0c42c229ea1102",
                "srcKUID": "bf3aac0ddc8b47a0b463a18207905574",
                "wType": "FlexContainer"
            }
        },
        "rtxPopUpDisclaimer": {
            "__events__": {},
            "__info__": {
                "kuid": "dc44053b3d18455bb98f98a3a9e7542b",
                "srcKUID": "j4d87455f6ec44dbacababd4bf714b40",
                "wType": "RichText"
            },
            "i18n_text": "i18n.frmCustomerManagementController.Are_you_sure_to",
            "maxWidth": {
                "Default": {
                    "type": "string",
                    "value": "540px"
                }
            },
            "minWidth": {
                "Default": {
                    "type": "string",
                    "value": ""
                }
            },
            "text": "Locking a user will prevent the user from logging into the retail banking mobile and online banking applications.<br><br>Are you sure you want to lock this user? "
        }
    },
    "id": "popUpConfirmation",
    "info": null,
    "isdatareferenced": false,
    "isvisible": true,
    "kuid": "i3fa7d82efcb495aac0c42c229ea1102",
    "layouttype": 2,
    "masterType": 0,
    "name": "kony.ui.UserWidgetInstance",
    "parent": "flxPopUpConfirmation",
    "pf": "frmCustomerProfileContacts",
    "snaptogrid": true,
    "sourceUserWidget": "bf3aac0ddc8b47a0b463a18207905574",
    "vizprops": {
        "hidewidgethierarchy": false
    },
    "wType": "UserWidgetInstance",
    "zindex": 1
}