{
    "DNDConfig": null,
    "_height_": {
        "type": "string",
        "value": "25px"
    },
    "_margin_": [
        0,
        0,
        0,
        0
    ],
    "_orientation_": 6,
    "_padding_": [
        0,
        0,
        0,
        0
    ],
    "_percent_": true,
    "_right_": {
        "type": "string",
        "value": "10px"
    },
    "_skin_": "sf619648c7f34aac8b212e95c7b43377",
    "_width_": {
        "type": "string",
        "value": "25px"
    },
    "allboxes": [],
    "autogrowmode": 0,
    "canUpdateUI": true,
    "centery": {
        "type": "string",
        "value": "50%"
    },
    "children": [
        "lblIconOptions"
    ],
    "clipbounds": true,
    "containerId": true,
    "containerweight": 100,
    "desktopweb": {
        "psp": {
            "hoverSkin": "scd6759b91984d0791be140ca44627a3"
        }
    },
    "disabledSkins": {},
    "enablescrolling": true,
    "focusskin": "scd6759b91984d0791be140ca44627a3",
    "id": "flxOptions",
    "info": null,
    "isvisible": true,
    "kuid": "i29444553fcd451d92fe75798c73597e",
    "layouttype": 2,
    "name": "kony.ui.FlexContainer",
    "parent": "flxProductAddedFeatures",
    "pf": "segProductAddedFeatures",
    "snapgridsize": 10,
    "snaptogrid": true,
    "wType": "FlexContainer",
    "widgetalignment": 1,
    "zindex": 2
}