{
    "DNDConfig": null,
    "_height_": {
        "type": "string",
        "value": "45px"
    },
    "_left_": {
        "type": "string",
        "value": "0dp"
    },
    "_margin_": [
        0,
        0,
        0,
        0
    ],
    "_orientation_": 6,
    "_padding_": [
        0,
        0,
        0,
        0
    ],
    "_percent_": true,
    "_skin_": "s094cf034ba74d778fe9c91095115ace",
    "_top_": {
        "type": "string",
        "value": "0dp"
    },
    "_width_": {
        "type": "string",
        "value": "100%"
    },
    "allboxes": [],
    "autogrowmode": 0,
    "canUpdateUI": true,
    "children": [
        "lblSegFeatureName",
        "lblSegFeatureGroup",
        "lblSegType",
        "flxOptions"
    ],
    "clipbounds": true,
    "containerId": true,
    "containerweight": 100,
    "controllerInfo": {
        "default": {
            "channel": "desktop",
            "name": "flxProductAddedFeaturesController"
        }
    },
    "enablescrolling": true,
    "friendlyName": "flxProductAddedFeatures",
    "id": "flxProductAddedFeatures",
    "info": null,
    "isTemplate": true,
    "iscustomlayout": false,
    "isvisible": true,
    "kuid": "e716b7d82afb43ce8a43f17c08e9e6d8",
    "layouttype": 2,
    "name": "kony.ui.FlexContainer",
    "parent": "segProductAddedFeatures",
    "pf": "segProductAddedFeatures",
    "retaincontentalignment": false,
    "retainflexpositionproperties": false,
    "retainflowhorizontalalignment": false,
    "snapgridsize": 10,
    "snaptogrid": true,
    "wType": "FlexContainer",
    "widgetalignment": 1
}