{
    "@class": "com.kony.gen.viz.model.component.KVizButton",
    "DNDConfig": null,
    "__parentReadjusting__": false,
    "_bottom_": {
        "type": "string",
        "value": "15px"
    },
    "_height_": {
        "type": "ref",
        "value": "preferred"
    },
    "_left_": {
        "type": "string",
        "value": "20px"
    },
    "_margin_": [
        6,
        6,
        6,
        6
    ],
    "_padding_": [
        0,
        0,
        0,
        0
    ],
    "_skin_": "s08f7c8829ac4d47a409798cfb3d0ac9",
    "_text_": "USER DETAILS",
    "_top_": {
        "type": "string",
        "value": "20px"
    },
    "_width_": {
        "type": "ref",
        "value": "preferred"
    },
    "canUpdateUI": true,
    "containerweight": 100,
    "contentalignment": 5,
    "disabledSkins": {
        "focusSkin": "s152a8ebff2840e2b2942e5ec1abbdb5"
    },
    "displaytext": true,
    "id": "btnOptionDetails",
    "info": null,
    "isvisible": true,
    "kuid": "cfd6a5e4f14849c6a2ea0f0e415b8fc3",
    "name": "kony.ui.Button",
    "parent": "flxOptionDetails",
    "pf": "frmUsers",
    "texti18n": "i18n.users.USERDETAILS",
    "wType": "Button",
    "zindex": 1
}