{
    "DNDConfig": null,
    "__parentReadjusting__": false,
    "_height_": {
        "type": "string",
        "value": "35dp"
    },
    "_left_": {
        "type": "string",
        "value": "0dp"
    },
    "_margin_": [
        0,
        0,
        0,
        0
    ],
    "_orientation_": 6,
    "_padding_": [
        0,
        0,
        0,
        0
    ],
    "_percent_": true,
    "_skin_": "sf598223b874459aab2d7ef437cd1abe",
    "_top_": {
        "type": "string",
        "value": "0dp"
    },
    "_width_": {
        "type": "string",
        "value": "100%"
    },
    "allboxes": [],
    "autogrowmode": 0,
    "canUpdateUI": true,
    "children": [
        "imgOption1",
        "lblOption1"
    ],
    "clipbounds": true,
    "containerweight": 100,
    "desktopweb": {
        "psp": {
            "hoverSkin": "sde33ec2f5e64c3ba56b689f3250609f"
        }
    },
    "disabledSkins": {},
    "enablescrolling": true,
    "id": "flxOption1",
    "info": null,
    "isvisible": false,
    "kuid": "fc9fc35c5b4649ddba41c7fff490aca2",
    "layouttype": 3,
    "name": "kony.ui.FlexContainer",
    "parent": "flxMenuOptions",
    "pf": "frmUsers",
    "snapgridsize": 10,
    "snaptogrid": true,
    "wType": "FlexContainer",
    "widgetalignment": 1,
    "zindex": 1
}