{
    "DNDConfig": null,
    "__parentReadjusting__": false,
    "_height_": {
        "type": "string",
        "value": "85px"
    },
    "_left_": {
        "type": "string",
        "value": "10dp"
    },
    "_margin_": [
        0,
        0,
        0,
        0
    ],
    "_orientation_": 6,
    "_padding_": [
        0,
        0,
        0,
        0
    ],
    "_percent_": true,
    "_skin_": "s254a5b616ad4a03b0fda81132ac3e80",
    "_top_": {
        "type": "string",
        "value": "2%"
    },
    "_width_": {
        "type": "string",
        "value": "30%"
    },
    "allboxes": [],
    "autogrowmode": 0,
    "canUpdateUI": true,
    "children": [
        "lblReenterPasswordUser",
        "txtbxReenterPasswordUser",
        "CopylblLineUser0d53d486f5ead4f",
        "lblCheckPasswordMatching",
        "CopylblUserNameNA0ded79a49f56f43"
    ],
    "clipbounds": true,
    "containerweight": 100,
    "enablescrolling": true,
    "id": "flxReenterPasswordUser",
    "info": null,
    "isvisible": false,
    "kuid": "e55f137a35544b8eaaf307fc9908a783",
    "layouttype": 2,
    "name": "kony.ui.FlexContainer",
    "parent": "flxLoginFields",
    "pf": "frmUsers",
    "snapgridsize": 10,
    "snaptogrid": true,
    "wType": "FlexContainer",
    "widgetalignment": 1,
    "zindex": 1
}