{
    "DNDConfig": null,
    "__parentReadjusting__": false,
    "_height_": {
        "type": "string",
        "value": "33dp"
    },
    "_left_": {
        "type": "string",
        "value": "188dp"
    },
    "_margin_": [
        0,
        0,
        0,
        0
    ],
    "_orientation_": 6,
    "_padding_": [
        0,
        0,
        0,
        0
    ],
    "_percent_": true,
    "_skin_": "s89d9f5cebff45219abf70b3ec055a0c",
    "_top_": {
        "type": "string",
        "value": "44dp"
    },
    "_width_": {
        "type": "string",
        "value": "134px"
    },
    "allboxes": [],
    "autogrowmode": 0,
    "canUpdateUI": true,
    "children": [
        "lblSelectStatus",
        "flxDropDown2"
    ],
    "clipbounds": true,
    "containerweight": 100,
    "desktopweb": {
        "psp": {
            "hoverSkin": "s54b03ed0af548f4b10ba6e76cf19723"
        }
    },
    "enablescrolling": true,
    "id": "flxStatusDropDown",
    "info": null,
    "iscustomlayout": false,
    "isvisible": true,
    "kuid": "d85535f8371f43858959aad6b15189ef",
    "layouttype": 2,
    "name": "kony.ui.FlexContainer",
    "parent": "flxAdvSearchWrapper",
    "pf": "frmUsers",
    "retaincontentalignment": false,
    "retainflexpositionproperties": false,
    "snapgridsize": 10,
    "snaptogrid": true,
    "wType": "FlexContainer",
    "widgetalignment": 1,
    "zindex": 1
}