{
    "@class": "com.kony.gen.viz.model.component.KVizImage2",
    "DNDConfig": null,
    "__parentReadjusting__": false,
    "_base64_": null,
    "_height_": {
        "type": "string",
        "value": "25dp"
    },
    "_margin_": [
        0,
        0,
        0,
        0
    ],
    "_padding_": [
        0,
        0,
        0,
        0
    ],
    "_right_": {
        "type": "string",
        "value": "5dp"
    },
    "_skin_": "scb3eadeab304cf6a70f0c93d4dd3714",
    "_src_": "downrow.png",
    "_top_": {
        "type": "string",
        "value": "1dp"
    },
    "_width_": {
        "type": "string",
        "value": "25dp"
    },
    "canUpdateUI": true,
    "containerweight": 100,
    "context": {
        "channel": "desktop",
        "formID": "frmUsers",
        "platform": "desktopweb",
        "templateType": "forms",
        "topLevelBox": null
    },
    "id": "imgArrow1",
    "imagescalemode": 1,
    "imagewhenfailed": "downrow.png",
    "imagewhiledownloading": "downrow.png",
    "info": null,
    "invokedProperty": "imageWhenFailed",
    "isvisible": false,
    "kuid": "he00b192fc0b46d89223af0033a3b0d4",
    "name": "kony.ui.Image2",
    "parent": "flxCityUserData",
    "pf": "frmUsers",
    "srcType": 1,
    "wType": "Image",
    "widgetalignment": 5,
    "zindex": 10
}