{
    "@class": "com.kony.gen.viz.model.component.KVizLabel",
    "DNDConfig": null,
    "__parentReadjusting__": false,
    "_height_": {
        "type": "ref",
        "value": "preferred"
    },
    "_left_": {
        "type": "string",
        "value": "30px"
    },
    "_margin_": [
        1,
        1,
        1,
        1
    ],
    "_padding_": [
        0,
        0,
        0,
        0
    ],
    "_skin_": "s342822cceca4117b0c6f27410828780",
    "_text_": "ADD USERS",
    "_top_": {
        "type": "number",
        "value": "30"
    },
    "_width_": {
        "type": "string",
        "value": "70%"
    },
    "_wrapping_": 2,
    "android": {
        "textStyle": {
            "letterSpacing": 0,
            "strikeThrough": false
        }
    },
    "canUpdateUI": true,
    "containerweight": 100,
    "contentalignment": 4,
    "id": "lblAddOptionsHeading",
    "info": null,
    "ipad": {
        "psp": {
            "wrapping": 2
        }
    },
    "iphone": {
        "psp": {
            "wrapping": 2
        }
    },
    "isvisible": false,
    "kuid": "ada22843b4944f9cb5efca3ee899e4a7",
    "name": "kony.ui.Label",
    "parent": "flxAddOptionsSection",
    "pf": "frmUsers",
    "texti18n": "i18n.frmPermissionsController.ADD_USERS",
    "tooltip": "",
    "wType": "Label",
    "zindex": 1
}