{
    "@class": "com.kony.gen.viz.model.component.KVizLabel",
    "DNDConfig": null,
    "__parentReadjusting__": false,
    "_bottom_": {
        "type": "string",
        "value": "0px"
    },
    "_height_": {
        "type": "ref",
        "value": "preferred"
    },
    "_left_": {
        "type": "string",
        "value": "1dp"
    },
    "_margin_": [
        1,
        1,
        1,
        1
    ],
    "_padding_": [
        0,
        0,
        0,
        0
    ],
    "_skin_": "s5c249bbab594de988e993b2d8343a2b",
    "_text_": "Password not matching",
    "_width_": {
        "type": "string",
        "value": "100%"
    },
    "_wrapping_": 2,
    "android": {
        "textStyle": {
            "letterSpacing": 0,
            "strikeThrough": false
        }
    },
    "canUpdateUI": true,
    "containerweight": 100,
    "contentalignment": 4,
    "desktopweb": {
        "psp": {
            "hoverSkin": "sffdce076bb646aa98573b469c99f946"
        }
    },
    "id": "lblCheckPasswordMatching",
    "info": null,
    "ipad": {
        "psp": {
            "wrapping": 2
        }
    },
    "iphone": {
        "psp": {
            "wrapping": 2
        }
    },
    "isvisible": true,
    "kuid": "g298036c91bf4fdfad4b258dba26974f",
    "name": "kony.ui.Label",
    "parent": "flxReenterPasswordUser",
    "pf": "frmUsers",
    "texti18n": "i18n.frmUsers.lblCheckPasswordMatching",
    "tooltip": "",
    "wType": "Label",
    "zindex": 1
}