{
    "@class": "com.kony.gen.viz.model.component.KVizListBox",
    "DNDConfig": null,
    "__parentReadjusting__": false,
    "_height_": {
        "type": "string",
        "value": "30dp"
    },
    "_left_": {
        "type": "string",
        "value": "0dp"
    },
    "_margin_": [
        0,
        0,
        0,
        0
    ],
    "_padding_": [
        0,
        0,
        0,
        0
    ],
    "_skin_": "sb8e9dd49a9a4a00a34135782c9e5ebe",
    "_top_": {
        "type": "string",
        "value": "0dp"
    },
    "_width_": {
        "type": "string",
        "value": "120dp"
    },
    "canUpdateUI": true,
    "containerweight": 100,
    "contentalignment": 4,
    "context": {
        "channel": "desktop",
        "formID": "frmUsers",
        "platform": "desktopweb",
        "templateType": "forms",
        "topLevelBox": null
    },
    "groupcells": false,
    "id": "lbxPaginationKA",
    "info": null,
    "isvisible": true,
    "kuid": "db3015f62b4b4791990e612a84c8e8c7",
    "masterdata": [
        [
            "lb1",
            "Page 1 of 20"
        ],
        [
            "lb2",
            "Page 2 of 20"
        ],
        [
            "lb3",
            "Page 3 of 20"
        ],
        [
            "lb4",
            "Page 4 of 20"
        ]
    ],
    "name": "kony.ui.ListBox",
    "parent": "flxPagination1",
    "pf": "frmUsers",
    "selectedkey": "lb1",
    "selectedkeys": null,
    "selectedkeyvalue": [
        "lb1",
        "Page 1 of 20"
    ],
    "selectedkeyvalues": null,
    "size": 18,
    "viewconfig": {
        "toggleViewConfig": {
            "viewStyle": 0
        }
    },
    "viewtype": 0,
    "wType": "ListBox",
    "zindex": 1
}