{
    "@class": "com.kony.gen.viz.model.component.KVizListBox",
    "DNDConfig": null,
    "__parentReadjusting__": false,
    "_height_": {
        "type": "string",
        "value": "40px"
    },
    "_left_": {
        "type": "string",
        "value": "0dp"
    },
    "_margin_": [
        0,
        0,
        0,
        0
    ],
    "_padding_": [
        2,
        0,
        0,
        0
    ],
    "_skin_": "s79056a31f8a470b91c90a1f3316997c",
    "_top_": {
        "type": "string",
        "value": "25dp"
    },
    "_width_": {
        "type": "string",
        "value": "100%"
    },
    "canUpdateUI": true,
    "containerweight": 100,
    "contentalignment": 4,
    "desktopweb": {
        "psp": {
            "hoverSkin": "s4b6bb24bfde45ee94cdeea2260408d3",
            "multiple": false
        }
    },
    "focusskin": "sc4a2c26f1694f9cb34846ddf7be7730",
    "groupcells": false,
    "id": "lstbxCityUser",
    "info": null,
    "isvisible": false,
    "kiosk": {
        "psp": {
            "placeholder": "Select City"
        }
    },
    "kuid": "b0e00f40f0fb4efbb36e3373a158ab9f",
    "masterdata": [
        [
            "lb1",
            "Select"
        ],
        [
            "lb2",
            "Mumbai"
        ],
        [
            "lb3",
            "Delhi"
        ],
        [
            "lb4",
            "Hyderabad"
        ]
    ],
    "multiselect": false,
    "name": "kony.ui.ListBox",
    "paddinginpixel": false,
    "parent": "flxCityUser1",
    "pf": "frmUsers",
    "selectedkey": "lb1",
    "selectedkeys": null,
    "selectedkeyvalue": [
        "lb1",
        "Select"
    ],
    "selectedkeyvalues": null,
    "size": 18,
    "viewconfig": {
        "toggleViewConfig": {
            "viewStyle": 0
        }
    },
    "viewtype": 0,
    "wType": "ListBox",
    "zindex": 1
}