{
    "@class": "com.kony.gen.viz.model.component.KVizListBox",
    "DNDConfig": null,
    "__parentReadjusting__": false,
    "_height_": {
        "type": "string",
        "value": "40px"
    },
    "_left_": {
        "type": "string",
        "value": "0dp"
    },
    "_margin_": [
        0,
        0,
        0,
        0
    ],
    "_padding_": [
        1,
        0,
        0,
        0
    ],
    "_skin_": "s79056a31f8a470b91c90a1f3316997c",
    "_top_": {
        "type": "string",
        "value": "25dp"
    },
    "_width_": {
        "type": "string",
        "value": "100%"
    },
    "canUpdateUI": true,
    "containerweight": 100,
    "contentalignment": 4,
    "context": {
        "channel": "desktop",
        "formID": "frmUsers",
        "platform": "desktopweb",
        "templateType": "forms",
        "topLevelBox": null
    },
    "desktopweb": {
        "psp": {
            "hoverSkin": "s4b6bb24bfde45ee94cdeea2260408d3"
        }
    },
    "focusskin": "sc4a2c26f1694f9cb34846ddf7be7730",
    "groupcells": false,
    "id": "lstbxWorkLocationUser",
    "info": null,
    "isvisible": true,
    "kuid": "e767a9db5fff4db8b835a4a796a3e3af",
    "masterdata": [
        [
            "lb1",
            "Select an Office location"
        ],
        [
            "lb2",
            "New York"
        ],
        [
            "lb3",
            "London"
        ],
        [
            "lb4",
            "Paris"
        ],
        [
            "lb5",
            "New Delhi"
        ],
        [
            "lb6",
            "Tokyo"
        ]
    ],
    "name": "kony.ui.ListBox",
    "parent": "flxOfficeLocation",
    "pf": "frmUsers",
    "selectedkey": "lb1",
    "selectedkeys": null,
    "selectedkeyvalue": [
        "lb1",
        "Select an Office location"
    ],
    "selectedkeyvalues": null,
    "size": 18,
    "viewconfig": {
        "toggleViewConfig": {
            "viewStyle": 0
        }
    },
    "viewtype": 0,
    "wType": "ListBox",
    "zindex": 1
}