{
    "@class": "com.kony.gen.viz.model.container.KVizSegment2",
    "DNDConfig": null,
    "__parentReadjusting__": false,
    "_data_": [
        {
            "imgCheckBox": {
                "@class": "com.viz.ide.model.segment.ImageSegmentData",
                "src": "checkboxnormal.png"
            },
            "lblDescription": {
                "@class": "com.viz.ide.model.segment.SimpleTextSegmentData",
                "text": "KL098234 - Westheimer"
            }
        },
        {
            "imgCheckBox": {
                "@class": "com.viz.ide.model.segment.ImageSegmentData",
                "src": "checkboxnormal.png"
            },
            "lblDescription": {
                "@class": "com.viz.ide.model.segment.SimpleTextSegmentData",
                "text": "KL098234 - Westheimer"
            }
        },
        {
            "imgCheckBox": {
                "@class": "com.viz.ide.model.segment.ImageSegmentData",
                "src": "checkboxnormal.png"
            },
            "lblDescription": {
                "@class": "com.viz.ide.model.segment.SimpleTextSegmentData",
                "text": "KL098234 - Westheimer"
            }
        },
        {
            "imgCheckBox": {
                "@class": "com.viz.ide.model.segment.ImageSegmentData",
                "src": "checkboxnormal.png"
            },
            "lblDescription": {
                "@class": "com.viz.ide.model.segment.SimpleTextSegmentData",
                "text": "KL098234 - Westheimer"
            }
        },
        {
            "imgCheckBox": {
                "@class": "com.viz.ide.model.segment.ImageSegmentData",
                "src": "checkboxnormal.png"
            },
            "lblDescription": {
                "@class": "com.viz.ide.model.segment.SimpleTextSegmentData",
                "text": "KL098234 - Westheimer"
            }
        },
        {
            "imgCheckBox": {
                "@class": "com.viz.ide.model.segment.ImageSegmentData",
                "src": "checkboxnormal.png"
            },
            "lblDescription": {
                "@class": "com.viz.ide.model.segment.SimpleTextSegmentData",
                "text": "KL098234 - Westheimer"
            }
        }
    ],
    "_height_": {
        "type": "ref",
        "value": "preferred"
    },
    "_indicator_": "none",
    "_left_": {
        "type": "string",
        "value": "0dp"
    },
    "_margin_": [
        0,
        0,
        0,
        0
    ],
    "_orientation_": 2,
    "_padding_": [
        0,
        0,
        0,
        0
    ],
    "_right_": {
        "type": "string",
        "value": "0px"
    },
    "_top_": {
        "type": "string",
        "value": "10dp"
    },
    "autogrowmode": 1,
    "canUpdateUI": true,
    "containerweight": 100,
    "counter": "05",
    "disabledSkins": {
        "rowSkin": "s54014e0d4204ce9acd27107655ded87"
    },
    "focusedindex": null,
    "focuseditem": null,
    "groupcells": false,
    "hasSections": false,
    "id": "segStatusDropDown",
    "info": null,
    "invokedProperty": "unselectedStateImage",
    "ipad": {
        "psp": {
            "indicator": "rowselect"
        }
    },
    "iphone": {
        "psp": {
            "indicator": "rowselect"
        }
    },
    "isvisible": true,
    "kuid": "de1b267154fc4a469a4ad776d0bbdaa3",
    "masterdata": {},
    "name": "kony.ui.SegmentedUI2",
    "needpageindicator": true,
    "pageoffdotimage": "pageoffdot.png",
    "pageondotimage": "pageondot.png",
    "paginationconfig": {
        "position": "bottom"
    },
    "parent": "flxStatusFilterDropdown",
    "pf": "frmUsers",
    "retainselection": false,
    "rowTemplateId": "c5f26cf7948340dca2b2393f38acc2f0",
    "rowcounter": 5,
    "rowfocusskin": "se901dcdd2ae4a58a81f21c009edf99e",
    "rowtemplate": "flxSearchDropDown",
    "screenlevelwidget": false,
    "seccounter": 0,
    "sectionHeaderTemplateId": null,
    "sectionheaderskin": "sffa0c1a0560403189088e98f7b4f498",
    "selectedRows": null,
    "selectedState": false,
    "selectedindex": null,
    "selectedindices": null,
    "selecteditems": null,
    "selectedsectionindex": 0,
    "selectimage": "checkboxselected.png",
    "selectionbehavior": "multiselect",
    "selectionbehaviorconfig": {
        "imageIdentifier": "imgCheckBox",
        "selectedStateImage": "checkboxselected.png",
        "unselectedStateImage": "checkbox.png"
    },
    "selectionindicator": "imgCheckBox",
    "separatorrequired": false,
    "showscrollbars": false,
    "unselectimage": "checkbox.png",
    "viewtype": "tableview",
    "vizProps": {},
    "wType": "Segment",
    "widgetalignment": 5,
    "widgetdatamap": {
        "flxCheckBox": "flxCheckBox",
        "flxSearchDropDown": "flxSearchDropDown",
        "imgCheckBox": "imgCheckBox",
        "lblDescription": "lblDescription"
    },
    "zindex": 1
}