{
    "@class": "com.kony.gen.viz.model.component.KVizUserWidget",
    "DNDConfig": null,
    "__parentReadjusting__": false,
    "_children_": [],
    "_desktopweb_": {},
    "_height_": {
        "type": "ref",
        "value": "preferred"
    },
    "_left_": {
        "type": "string",
        "value": "0dp"
    },
    "_margin_": [
        0,
        0,
        0,
        0
    ],
    "_orientation_": 1,
    "_padding_": [
        0,
        0,
        0,
        0
    ],
    "_percent_": true,
    "_render_": true,
    "_responsiveData_": {},
    "_skin_": "s8ff24328417401b877c3ceb2a5fa27c",
    "_top_": {
        "type": "string",
        "value": "5dp"
    },
    "_vizProps_": {
        "hidewidgethierarchy": false
    },
    "_width_": {
        "type": "ref",
        "value": "preferred"
    },
    "areflexpropsreferenced": false,
    "autogrowmode": 1,
    "canUpdateUI": true,
    "clipbounds": true,
    "containerweight": 0,
    "dataDiffs": {
        "flxArrowImage": {
            "__events__": {},
            "__info__": {
                "kuid": "a6b4e7d0436044aeb731ab60396adde4",
                "srcKUID": "e7b826a9ded041789bb5730cdd1eb78d",
                "wType": "FlexContainer"
            }
        },
        "flxChechboxOuter": {
            "__events__": {},
            "__info__": {
                "kuid": "a0f542213a774d24830a016553aa0231",
                "srcKUID": "b678997e4ce643379e29f831f9e86639",
                "wType": "FlexContainer"
            }
        },
        "imgUpArrow": {
            "__events__": {},
            "__info__": {
                "kuid": "bef445470d9542fcb98106e2dd9ae21a",
                "srcKUID": "f853b1ee32b74c379a8ff3fd820d5ce1",
                "wType": "Image"
            },
            "left": {
                "Default": {
                    "type": "string",
                    "value": ""
                }
            },
            "right": {
                "Default": {
                    "type": "string",
                    "value": "15dp"
                }
            },
            "src": "uparrow_2x.png"
        },
        "segStatusFilterDropdown": {
            "__events__": {},
            "__info__": {
                "kuid": "f31b16ecee764c30adc45e747e404555",
                "srcKUID": "ida2f212b38b4e25bdb9fcb01c874379",
                "wType": "Segment"
            }
        },
        "statusFilterMenu": {
            "__events__": {},
            "__info__": {
                "isRoot": true,
                "kuid": "h6acb3cad0fc4545995a8e58d29c5b3c",
                "srcKUID": "dd73ab57bfd74a4b8c7dc5be300ddec8",
                "wType": "FlexContainer"
            },
            "width": {
                "Default": {
                    "type": "ref",
                    "value": "preferred"
                }
            }
        }
    },
    "id": "statusFilterMenu",
    "info": null,
    "iscustomlayout": false,
    "isdatareferenced": false,
    "isvisible": true,
    "kuid": "j947cfc4277b4e3cb65adc07eefa6944",
    "layouttype": 2,
    "masterType": 0,
    "name": "kony.ui.UserWidgetInstance",
    "parent": "flxUserStatusFilter",
    "pf": "frmUsers",
    "retaincontentalignment": false,
    "retainflexpositionproperties": false,
    "snaptogrid": true,
    "sourceUserWidget": "dd73ab57bfd74a4b8c7dc5be300ddec8",
    "wType": "UserWidgetInstance",
    "zindex": 5
}