{
    "@class": "com.kony.gen.viz.model.component.KVizTextBox2",
    "DNDConfig": null,
    "__parentReadjusting__": false,
    "_height_": {
        "type": "string",
        "value": "40px"
    },
    "_left_": {
        "type": "string",
        "value": "10dp"
    },
    "_margin_": [
        0,
        0,
        0,
        0
    ],
    "_padding_": [
        4,
        0,
        0,
        0
    ],
    "_placeholder_": "Username",
    "_skin_": "sbee7cb7767e4302933dc427fdfe2b99",
    "_text_": "",
    "_top_": {
        "type": "string",
        "value": "35dp"
    },
    "_width_": {
        "type": "string",
        "value": "200dp"
    },
    "autocapitalize": "none",
    "autocomplete": false,
    "autocorrect": false,
    "autofilter": false,
    "canUpdateUI": true,
    "containerheight": "",
    "containerheightmode": 1,
    "containerweight": 100,
    "contentalignment": 4,
    "desktopweb": {
        "psp": {
            "hoverSkin": "sdd37a4822ab40a49ec4fc7d50d5db5f"
        }
    },
    "focusskin": "s9357d21bfa3405db1e4511ef5053cc0",
    "id": "txtbxUserNameUsr",
    "info": null,
    "isvisible": false,
    "keyboardtype": "A",
    "kuid": "b5f0565cd49d446c8ef8dda0a9f30336",
    "maxtextlength": 35,
    "mode": "A",
    "name": "kony.ui.TextBox2",
    "paddinginpixel": false,
    "parent": "flxUserNameUser",
    "pf": "frmUsers",
    "securetextentry": false,
    "textinputmode": "A",
    "viewtype": "default",
    "wType": "TextField",
    "zindex": 1
}