{
    "@class": "com.kony.gen.viz.model.component.KVizLabel",
    "DNDConfig": null,
    "_height_": {
        "type": "ref",
        "value": "preferred"
    },
    "_left_": {
        "type": "string",
        "value": "1.50%"
    },
    "_margin_": [
        1,
        1,
        1,
        1
    ],
    "_padding_": [
        0,
        0,
        0,
        0
    ],
    "_skin_": "s6090eebac4742bf9ab83ff54697953a",
    "_text_": "View",
    "_width_": {
        "type": "string",
        "value": "8%"
    },
    "_wrapping_": 2,
    "android": {
        "textStyle": {
            "letterSpacing": 0,
            "strikeThrough": false
        }
    },
    "canUpdateUI": true,
    "centery": {
        "type": "string",
        "value": "50%"
    },
    "containerId": true,
    "containerweight": 100,
    "contentalignment": 4,
    "id": "lblView",
    "info": null,
    "ipad": {
        "psp": {
            "wrapping": 2
        }
    },
    "iphone": {
        "psp": {
            "wrapping": 2
        }
    },
    "isvisible": true,
    "kuid": "j6043c68e3e24215a5c81bc18042e3ca",
    "name": "kony.ui.Label",
    "parent": "flxAssignedCustomers",
    "pf": "segUserDetails",
    "texti18n": "i18n.frmAdManagement.View",
    "tooltip": "",
    "wType": "Label",
    "zindex": 1
}