{
    "@class": "com.kony.gen.viz.model.component.KVizButton",
    "DNDConfig": null,
    "__parentReadjusting__": false,
    "_height_": {
        "type": "string",
        "value": "40px"
    },
    "_left_": {
        "type": "string",
        "value": "20px"
    },
    "_margin_": [
        6,
        6,
        6,
        6
    ],
    "_padding_": [
        0,
        0,
        0,
        0
    ],
    "_skin_": "s95786d9b1a94ffda30200eb65b8f157",
    "_text_": "CANCEL",
    "_top_": {
        "type": "string",
        "value": "0%"
    },
    "_width_": {
        "type": "string",
        "value": "105px"
    },
    "canUpdateUI": true,
    "centery": {
        "type": "string",
        "value": "50%"
    },
    "containerweight": 100,
    "contentalignment": 5,
    "desktopweb": {
        "psp": {
            "hoverSkin": "sb8e007fed9946558dfe9c2762dca00f"
        }
    },
    "disabledSkins": {
        "focusSkin": "s3fead79081947b1b06e45ac20ca46d4"
    },
    "displaytext": true,
    "id": "btnAddFeatureCancel",
    "info": null,
    "isvisible": true,
    "kuid": "i7464b271a1944e08eea31e48fa2a52a",
    "name": "kony.ui.Button",
    "paddinginpixel": false,
    "parent": "flxAddFeaturePopupButtons",
    "pf": "userwidgetmodel",
    "texti18n": "i18n.permission.CANCEL",
    "wType": "Button",
    "zindex": 20
}