{
    "@class": "com.kony.gen.viz.model.component.KVizButton",
    "DNDConfig": null,
    "__parentReadjusting__": false,
    "_height_": {
        "type": "string",
        "value": "40px"
    },
    "_margin_": [
        6,
        6,
        6,
        6
    ],
    "_padding_": [
        3,
        0,
        3,
        0
    ],
    "_right_": {
        "type": "string",
        "value": "20px"
    },
    "_skin_": "s3c60f327c994b9595aae04de642fdbe",
    "_text_": "ADD PRODUCT LINE",
    "_width_": {
        "type": "string",
        "value": "180px"
    },
    "canUpdateUI": true,
    "centery": {
        "type": "string",
        "value": "50%"
    },
    "containerweight": 100,
    "contentalignment": 5,
    "desktopweb": {
        "psp": {
            "hoverSkin": "s7db9565c1ce4ed8bc9c274c79bb2eca"
        }
    },
    "displaytext": true,
    "focusskin": "s3c60f327c994b9595aae04de642fdbe",
    "id": "btnAddProductLine",
    "info": null,
    "isvisible": true,
    "kuid": "ab35c384181041baa07969adf4e6c0f5",
    "minwidth": {
        "type": "string",
        "value": "100px"
    },
    "name": "kony.ui.Button",
    "paddinginpixel": false,
    "parent": "flxAddProductLinePopupButtons",
    "pf": "userwidgetmodel",
    "wType": "Button",
    "zindex": 20
}