{
    "@class": "com.kony.gen.viz.model.component.KVizButton",
    "DNDConfig": null,
    "__parentReadjusting__": false,
    "_height_": {
        "type": "string",
        "value": "22px"
    },
    "_margin_": [
        6,
        6,
        6,
        6
    ],
    "_padding_": [
        0,
        0,
        0,
        0
    ],
    "_right_": {
        "type": "string",
        "value": "20px"
    },
    "_skin_": "s05c3f1841124eb7b35b6acb92e16474",
    "_text_": "Edit",
    "_top_": {
        "type": "string",
        "value": "50px"
    },
    "_width_": {
        "type": "string",
        "value": "53px"
    },
    "canUpdateUI": true,
    "containerweight": 100,
    "contentalignment": 5,
    "desktopweb": {
        "psp": {
            "hoverSkin": "sb8e007fed9946558dfe9c2762dca00f"
        }
    },
    "disabledSkins": {},
    "displaytext": true,
    "focusskin": "sb8e007fed9946558dfe9c2762dca00f",
    "id": "btnEditProductGroup",
    "info": null,
    "iscustomlayout": false,
    "isvisible": true,
    "kuid": "g47c3ab2dae64b9297310f3fc68f77a9",
    "name": "kony.ui.Button",
    "parent": "flxViewProductGroup",
    "pf": "userwidgetmodel",
    "retaincontentalignment": false,
    "retainflexpositionproperties": false,
    "wType": "Button",
    "zindex": 1
}