{
    "DNDConfig": null,
    "__parentReadjusting__": false,
    "_height_": {
        "type": "ref",
        "value": "preferred"
    },
    "_left_": {
        "type": "string",
        "value": "30%"
    },
    "_margin_": [
        0,
        0,
        0,
        0
    ],
    "_orientation_": 6,
    "_padding_": [
        0,
        0,
        0,
        0
    ],
    "_percent_": true,
    "_skin_": "s95edc30363644b8baa53eef4f04bbcf",
    "_width_": {
        "type": "string",
        "value": "120px"
    },
    "allboxes": [],
    "autogrowmode": 1,
    "canUpdateUI": true,
    "centery": {
        "type": "string",
        "value": "50%"
    },
    "children": [
        "lblFeatureGroupHeader",
        "fontIconOptionsFeatureGroup"
    ],
    "clipbounds": true,
    "containerweight": 100,
    "enablescrolling": true,
    "id": "flxFeatureGroupHeader",
    "info": null,
    "iscustomlayout": false,
    "isvisible": true,
    "kuid": "fc804ed0fe8243fbb3ac27d184505b9c",
    "layouttype": 3,
    "name": "kony.ui.FlexContainer",
    "parent": "flxProductFeatureSegHeaders",
    "pf": "userwidgetmodel",
    "retaincontentalignment": false,
    "retainflexpositionproperties": false,
    "retainflowhorizontalalignment": false,
    "snapgridsize": 10,
    "snaptogrid": true,
    "wType": "FlexContainer",
    "widgetalignment": 1
}