{
    "DNDConfig": null,
    "__parentReadjusting__": false,
    "_bottom_": {
        "type": "string",
        "value": "0px"
    },
    "_left_": {
        "type": "string",
        "value": "0px"
    },
    "_margin_": [
        0,
        0,
        0,
        0
    ],
    "_orientation_": 6,
    "_padding_": [
        0,
        0,
        0,
        0
    ],
    "_percent_": true,
    "_skin_": "s8ff24328417401b877c3ceb2a5fa27c",
    "_top_": {
        "type": "string",
        "value": "45px"
    },
    "_width_": {
        "type": "string",
        "value": "100%"
    },
    "allboxes": [],
    "autogrowmode": 0,
    "canUpdateUI": true,
    "children": [
        "lblProductGroupTopHeader",
        "btnAddProductGroups",
        "lblSeparatorSearchPG",
        "flxProductGroupSegHeaders",
        "flxSegProductGroup",
        "flxNoResultFoundPG",
        "searchBoxProductGroup"
    ],
    "clipbounds": true,
    "containerweight": 100,
    "enablescrolling": true,
    "id": "flxManageProductGroup",
    "info": null,
    "iscustomlayout": false,
    "isvisible": false,
    "kuid": "a2ef98bada1841a3b5bc1d481c8de437",
    "layouttype": 2,
    "name": "kony.ui.FlexContainer",
    "parent": "flxManageProducts",
    "pf": "userwidgetmodel",
    "retaincontentalignment": false,
    "retainflexpositionproperties": false,
    "retainflowhorizontalalignment": false,
    "snapgridsize": 10,
    "snaptogrid": true,
    "wType": "FlexContainer",
    "widgetalignment": 1,
    "zindex": 4
}