{
    "@class": "com.kony.gen.viz.model.component.KVizListBox",
    "DNDConfig": null,
    "__parentReadjusting__": false,
    "_height_": {
        "type": "string",
        "value": "40px"
    },
    "_left_": {
        "type": "string",
        "value": "0px"
    },
    "_margin_": [
        0,
        0,
        0,
        0
    ],
    "_padding_": [
        2,
        0,
        0,
        0
    ],
    "_right_": {
        "type": "string",
        "value": "15px"
    },
    "_skin_": "s99b746bd3eb4f598a3f966bd12deaa9",
    "_top_": {
        "type": "string",
        "value": "30px"
    },
    "canUpdateUI": true,
    "containerweight": 100,
    "contentalignment": 4,
    "desktopweb": {
        "psp": {
            "hoverSkin": "s44124b03793406484d400c989c8ec4f"
        }
    },
    "focusskin": "sc4a2c26f1694f9cb34846ddf7be7730",
    "groupcells": false,
    "id": "lstbxAssociatedProductLine",
    "info": null,
    "isvisible": true,
    "kiosk": {
        "psp": {
            "placeholder": "Choose Product Line"
        }
    },
    "kuid": "c7ac78fa2b6f4771a612398f9f4a96cf",
    "masterdata": [
        [
            "lb1",
            "Select"
        ],
        [
            "lb2",
            "Telengana"
        ],
        [
            "lb3",
            "Maharastra"
        ]
    ],
    "name": "kony.ui.ListBox",
    "paddinginpixel": false,
    "parent": "flxAssociatedProductLine",
    "pf": "userwidgetmodel",
    "selectedkey": "lb1",
    "selectedkeys": null,
    "selectedkeyvalue": [
        "lb1",
        "Select"
    ],
    "selectedkeyvalues": null,
    "size": 18,
    "viewconfig": {
        "toggleViewConfig": {
            "viewStyle": 0
        }
    },
    "viewtype": 0,
    "wType": "ListBox",
    "zindex": 1
}