{
    "@class": "com.kony.gen.viz.model.component.KVizUserWidget",
    "DNDConfig": null,
    "__parentReadjusting__": false,
    "_children_": [],
    "_height_": {
        "type": "ref",
        "value": "preferred"
    },
    "_left_": {
        "type": "string",
        "value": "0px"
    },
    "_margin_": [
        0,
        0,
        0,
        0
    ],
    "_orientation_": 1,
    "_padding_": [
        0,
        0,
        0,
        0
    ],
    "_percent_": true,
    "_skin_": "s8ff24328417401b877c3ceb2a5fa27c",
    "_top_": {
        "type": "string",
        "value": "110px"
    },
    "_width_": {
        "type": "string",
        "value": "100%"
    },
    "areflexpropsreferenced": false,
    "autogrowmode": 1,
    "canUpdateUI": true,
    "clipbounds": true,
    "containerweight": 0,
    "dataDiffs": {
        "errorMsg": {
            "__events__": {},
            "__info__": {
                "isRoot": true,
                "kuid": "a29e1d6daa1a4379a4bc7469942704c5",
                "srcKUID": "a23c55c15b3d49f6ba6a08000114f1cf",
                "wType": "FlexContainer"
            },
            "isVisible": false,
            "left": {
                "Default": {
                    "type": "string",
                    "value": "0px"
                }
            },
            "right": {
                "Default": {
                    "type": "string",
                    "value": ""
                }
            },
            "top": {
                "Default": {
                    "type": "string",
                    "value": "110px"
                }
            },
            "width": {
                "Default": {
                    "type": "string",
                    "value": "100%"
                }
            }
        },
        "lblErrorIcon": {
            "__events__": {},
            "__info__": {
                "kuid": "gc5ca7997d71471ba1a4fe09643c5690",
                "srcKUID": "ec7d71f61f014241a619fd96c59b0435",
                "wType": "Label"
            }
        },
        "lblErrorText": {
            "__events__": {},
            "__info__": {
                "kuid": "gbe85bb8fe754c5fa53ee53fc46d5488",
                "srcKUID": "ia85a4bdb50f477ebcfd44610c2f56ae",
                "wType": "Label"
            },
            "i18n_text": "i18n.ProfileManagement.errMsgFieldCantEmpty"
        }
    },
    "enablescrolling": true,
    "id": "ProductGroupDescError",
    "info": null,
    "iscustomlayout": false,
    "isdatareferenced": false,
    "issegmentchild": false,
    "isvisible": true,
    "kuid": "a29e1d6daa1a4379a4bc7469942704c5",
    "layouttype": 3,
    "masterType": 0,
    "name": "kony.ui.UserWidgetInstance",
    "parent": "flxAddProductGroupDesc",
    "pf": "userwidgetmodel",
    "retaincontentalignment": false,
    "retainflexpositionproperties": false,
    "retainflowhorizontalalignment": false,
    "snapgridsize": 10,
    "snaptogrid": true,
    "sourceUserWidget": "a23c55c15b3d49f6ba6a08000114f1cf",
    "wType": "UserWidgetInstance"
}