{
    "@class": "com.kony.gen.viz.model.component.KVizUserWidget",
    "DNDConfig": null,
    "__parentReadjusting__": false,
    "_children_": [],
    "_height_": {
        "type": "ref",
        "value": "preferred"
    },
    "_left_": {
        "type": "string",
        "value": "0px"
    },
    "_margin_": [
        0,
        0,
        0,
        0
    ],
    "_orientation_": 1,
    "_padding_": [
        0,
        0,
        0,
        0
    ],
    "_percent_": true,
    "_right_": {
        "type": "string",
        "value": "0px"
    },
    "_skin_": "s8ff24328417401b877c3ceb2a5fa27c",
    "_top_": {
        "type": "string",
        "value": "77px"
    },
    "areflexpropsreferenced": false,
    "autogrowmode": 1,
    "canUpdateUI": true,
    "clipbounds": true,
    "containerweight": 0,
    "dataDiffs": {
        "errorMsg": {
            "__events__": {},
            "__info__": {
                "isRoot": true,
                "kuid": "ebc94ed7de2747e5bcac8a134bc1eb07",
                "srcKUID": "a23c55c15b3d49f6ba6a08000114f1cf",
                "wType": "FlexContainer"
            },
            "isVisible": false,
            "left": {
                "Default": {
                    "type": "string",
                    "value": "0px"
                }
            },
            "right": {
                "Default": {
                    "type": "string",
                    "value": "0px"
                }
            },
            "top": {
                "Default": {
                    "type": "string",
                    "value": "77px"
                }
            },
            "width": {
                "Default": {
                    "type": "string",
                    "value": ""
                }
            }
        },
        "lblErrorIcon": {
            "__events__": {},
            "__info__": {
                "kuid": "dd296829f4e24c9490a8211691582f36",
                "srcKUID": "ec7d71f61f014241a619fd96c59b0435",
                "wType": "Label"
            }
        },
        "lblErrorText": {
            "__events__": {},
            "__info__": {
                "kuid": "fa5b9a727ed540168fb5851d524f92b0",
                "srcKUID": "ia85a4bdb50f477ebcfd44610c2f56ae",
                "wType": "Label"
            },
            "i18n_text": null,
            "text": "Enter Product Group Reference"
        }
    },
    "enablescrolling": true,
    "id": "ProductGroupRefError",
    "info": null,
    "iscustomlayout": false,
    "isdatareferenced": false,
    "isvisible": true,
    "kuid": "ebc94ed7de2747e5bcac8a134bc1eb07",
    "layouttype": 3,
    "masterType": 0,
    "name": "kony.ui.UserWidgetInstance",
    "parent": "flxProductGroupRef",
    "pf": "userwidgetmodel",
    "retaincontentalignment": false,
    "retainflexpositionproperties": false,
    "retainflowhorizontalalignment": false,
    "snapgridsize": 10,
    "snaptogrid": true,
    "sourceUserWidget": "a23c55c15b3d49f6ba6a08000114f1cf",
    "wType": "UserWidgetInstance"
}