{
    "@class": "com.kony.gen.viz.model.component.KVizUserWidget",
    "DNDConfig": null,
    "__parentReadjusting__": false,
    "_children_": [],
    "_height_": {
        "type": "string",
        "value": "40px"
    },
    "_margin_": [
        0,
        0,
        0,
        0
    ],
    "_orientation_": 1,
    "_padding_": [
        0,
        0,
        0,
        0
    ],
    "_percent_": true,
    "_right_": {
        "type": "string",
        "value": "20px"
    },
    "_skin_": "s8ff24328417401b877c3ceb2a5fa27c",
    "_top_": {
        "type": "string",
        "value": "60px"
    },
    "_width_": {
        "type": "string",
        "value": "400px"
    },
    "areflexpropsreferenced": false,
    "autogrowmode": 0,
    "canUpdateUI": true,
    "clipbounds": true,
    "containerweight": 0,
    "dataDiffs": {
        "flxSearchCancel": {
            "__events__": {},
            "__info__": {
                "kuid": "c2b74f905be44609b59eb57323c67144",
                "srcKUID": "if8da966186f4fbc8a611755319422d1",
                "wType": "FlexContainer"
            }
        },
        "flxSearchContainer": {
            "__events__": {},
            "__info__": {
                "kuid": "fc35254c05764e5ab79c81ee24bfd6df",
                "srcKUID": "id2daeeb43b24e2aaf8d8f93d875b462",
                "wType": "FlexContainer"
            }
        },
        "fonticonClose": {
            "__events__": {},
            "__info__": {
                "kuid": "e4b44558d7fb461b9dfcf004eba30bc7",
                "srcKUID": "cc2672a1d2304e88b6875972d6deb3aa",
                "wType": "Label"
            }
        },
        "fonticonSearch": {
            "__events__": {},
            "__info__": {
                "kuid": "bd9022f18f1842cfbc1c9f53def4d9b7",
                "srcKUID": "afc1fd25856d42938c8ed3a6b5c5bad9",
                "wType": "Label"
            }
        },
        "imgSearchCancel": {
            "__events__": {},
            "__info__": {
                "kuid": "fc324872e4aa47708b5b6fd6f0cbde39",
                "srcKUID": "dd56b9e4408f4404b4c2ed5dcbe40a35",
                "wType": "Image"
            }
        },
        "imgSearchIcon": {
            "__events__": {},
            "__info__": {
                "kuid": "b4980491f2414ad2a55e953f360d3145",
                "srcKUID": "c91e4804deac4cde9a8b4cd63a4ef700",
                "wType": "Image"
            }
        },
        "searchBox": {
            "__events__": {},
            "__info__": {
                "isRoot": true,
                "kuid": "h6a5b0d985ae4a5682473e1f563a5c63",
                "srcKUID": "g2c76d9ce07e4bbfb27b6d554840795a",
                "wType": "FlexContainer"
            },
            "left": {
                "Default": {
                    "type": "string",
                    "value": ""
                }
            },
            "right": {
                "Default": {
                    "type": "string",
                    "value": "20px"
                }
            },
            "top": {
                "Default": {
                    "type": "string",
                    "value": "60px"
                }
            },
            "width": {
                "Default": {
                    "type": "string",
                    "value": "400px"
                }
            }
        },
        "tbxSearchBox": {
            "__events__": {},
            "__info__": {
                "kuid": "d3813e67b5f94d90b98ad6ca5d62cde6",
                "srcKUID": "ce1618e678b9439dbde2faf87cb3fbba",
                "wType": "TextField"
            },
            "placeholder": "Search by product line",
            "text": ""
        }
    },
    "enablescrolling": true,
    "id": "searchBoxProductLine",
    "info": null,
    "iscustomlayout": false,
    "isdatareferenced": false,
    "issegmentchild": false,
    "isvisible": true,
    "kuid": "h6a5b0d985ae4a5682473e1f563a5c63",
    "layouttype": 2,
    "masterType": 0,
    "name": "kony.ui.UserWidgetInstance",
    "parent": "flxManageProductLine",
    "pf": "userwidgetmodel",
    "retaincontentalignment": false,
    "retainflexpositionproperties": false,
    "retainflowhorizontalalignment": false,
    "snapgridsize": 10,
    "snaptogrid": true,
    "sourceUserWidget": "g2c76d9ce07e4bbfb27b6d554840795a",
    "wType": "UserWidgetInstance"
}