{
    "@class": "com.kony.gen.viz.model.container.KVizSegment2",
    "DNDConfig": null,
    "__parentReadjusting__": false,
    "_data_": [
        {
            "lblDelete": {
                "@class": "com.viz.ide.model.segment.SimpleTextSegmentData",
                "i18nkey": "i18n.frmFAQ.fonticonDelete",
                "text": ""
            },
            "lblEvent": {
                "@class": "com.viz.ide.model.segment.SimpleTextSegmentData",
                "text": "Events Name"
            },
            "lblSeparator": {
                "@class": "com.viz.ide.model.segment.SimpleTextSegmentData",
                "text": "Label"
            }
        },
        {
            "lblDelete": {
                "@class": "com.viz.ide.model.segment.SimpleTextSegmentData",
                "text": ""
            },
            "lblEvent": {
                "@class": "com.viz.ide.model.segment.SimpleTextSegmentData",
                "text": "Events Name"
            },
            "lblSeparator": {
                "@class": "com.viz.ide.model.segment.SimpleTextSegmentData",
                "text": "Label"
            }
        },
        {
            "lblDelete": {
                "@class": "com.viz.ide.model.segment.SimpleTextSegmentData",
                "text": ""
            },
            "lblEvent": {
                "@class": "com.viz.ide.model.segment.SimpleTextSegmentData",
                "text": "Events Name"
            },
            "lblSeparator": {
                "@class": "com.viz.ide.model.segment.SimpleTextSegmentData",
                "text": "Label"
            }
        }
    ],
    "_height_": {
        "type": "ref",
        "value": "preferred"
    },
    "_indicator_": "none",
    "_left_": {
        "type": "string",
        "value": "20px"
    },
    "_margin_": [
        0,
        0,
        0,
        0
    ],
    "_orientation_": 2,
    "_padding_": [
        0,
        0,
        0,
        0
    ],
    "_right_": {
        "type": "string",
        "value": "20px"
    },
    "_top_": {
        "type": "string",
        "value": "0px"
    },
    "autogrowmode": 1,
    "canUpdateUI": true,
    "containerweight": 100,
    "counter": "02",
    "desktop": {
        "_data_": [
            {
                "lblEdit": {
                    "@class": "com.viz.ide.model.segment.SimpleTextSegmentData",
                    "text": ""
                },
                "lblGroup": {
                    "@class": "com.viz.ide.model.segment.SimpleTextSegmentData",
                    "text": "Group Reference"
                },
                "lblName": {
                    "@class": "com.viz.ide.model.segment.SimpleTextSegmentData",
                    "text": "Product Group"
                },
                "lblSeparator": {
                    "@class": "com.viz.ide.model.segment.SimpleTextSegmentData",
                    "text": "Label"
                },
                "lblType": {
                    "@class": "com.viz.ide.model.segment.SimpleTextSegmentData",
                    "text": "Product Line"
                }
            },
            {
                "lblEdit": {
                    "@class": "com.viz.ide.model.segment.SimpleTextSegmentData",
                    "text": ""
                },
                "lblGroup": {
                    "@class": "com.viz.ide.model.segment.SimpleTextSegmentData",
                    "text": "Group Reference"
                },
                "lblName": {
                    "@class": "com.viz.ide.model.segment.SimpleTextSegmentData",
                    "text": "Product Group"
                },
                "lblSeparator": {
                    "@class": "com.viz.ide.model.segment.SimpleTextSegmentData",
                    "text": "Label"
                },
                "lblType": {
                    "@class": "com.viz.ide.model.segment.SimpleTextSegmentData",
                    "text": "Product Line"
                }
            },
            {
                "lblEdit": {
                    "@class": "com.viz.ide.model.segment.SimpleTextSegmentData",
                    "text": ""
                },
                "lblGroup": {
                    "@class": "com.viz.ide.model.segment.SimpleTextSegmentData",
                    "text": "Group Reference"
                },
                "lblName": {
                    "@class": "com.viz.ide.model.segment.SimpleTextSegmentData",
                    "text": "Product Group"
                },
                "lblSeparator": {
                    "@class": "com.viz.ide.model.segment.SimpleTextSegmentData",
                    "text": "Label"
                },
                "lblType": {
                    "@class": "com.viz.ide.model.segment.SimpleTextSegmentData",
                    "text": "Product Line"
                }
            }
        ],
        "rowTemplateId": "b0961e5e59ca48d7981fae61f84bf67c",
        "rowtemplate": "flxProductFeature",
        "widgetdatamap": {
            "flxEdit": "flxEdit",
            "flxProductFeature": "flxProductFeature",
            "lblEdit": "lblEdit",
            "lblGroup": "lblGroup",
            "lblName": "lblName",
            "lblSeparator": "lblSeparator",
            "lblType": "lblType"
        }
    },
    "focusedindex": null,
    "focuseditem": null,
    "groupcells": false,
    "hasSections": false,
    "id": "segProductFeature",
    "info": null,
    "ipad": {
        "psp": {
            "indicator": "rowselect"
        }
    },
    "iphone": {
        "psp": {
            "indicator": "rowselect"
        }
    },
    "iscustomlayout": false,
    "isvisible": true,
    "kuid": "b406735389d04b3180e0929a6d4fcb47",
    "masterdata": {},
    "name": "kony.ui.SegmentedUI2",
    "needpageindicator": true,
    "pageoffdotimage": "pageoffdot.png",
    "pageondotimage": "pageondot.png",
    "paginationconfig": {
        "position": "bottom"
    },
    "parent": "flxSegFeature",
    "pf": "userwidgetmodel",
    "retaincontentalignment": false,
    "retainflexpositionproperties": false,
    "retainselection": false,
    "rowcounter": 2,
    "rowfocusskin": "se901dcdd2ae4a58a81f21c009edf99e",
    "rowskin": "s587c8a9e5804ec88f65e379570597f6",
    "rowtemplate": "flxEventsView",
    "screenlevelwidget": false,
    "seccounter": 0,
    "sectionheaderskin": "sffa0c1a0560403189088e98f7b4f498",
    "selectedRows": null,
    "selectedState": false,
    "selectedindex": null,
    "selectedindices": null,
    "selecteditems": null,
    "selectedsectionindex": null,
    "selectionbehavior": "default",
    "separatorrequired": false,
    "showscrollbars": false,
    "viewtype": "tableview",
    "vizProps": {},
    "wType": "Segment",
    "widgetalignment": 5,
    "widgetdatamap": {
        "flxEdit": "flxEdit",
        "flxProductFeature": "flxProductFeature",
        "lblEdit": "lblEdit",
        "lblGroup": "lblGroup",
        "lblName": "lblName",
        "lblSeparator": "lblSeparator",
        "lblType": "lblType"
    },
    "zindex": 1
}