{
    "@class": "com.kony.gen.viz.model.component.KVizTextBox2",
    "DNDConfig": null,
    "__parentReadjusting__": false,
    "_height_": {
        "type": "string",
        "value": "40dp"
    },
    "_left_": {
        "type": "string",
        "value": "0px"
    },
    "_margin_": [
        0,
        0,
        0,
        0
    ],
    "_padding_": [
        2,
        0,
        0,
        0
    ],
    "_placeholder_": "Product Group Name",
    "_right_": {
        "type": "string",
        "value": "15px"
    },
    "_skin_": "sb0928a17ad247e68e88ceff72677d13",
    "_text_": "",
    "_top_": {
        "type": "string",
        "value": "30px"
    },
    "autocapitalize": "none",
    "autocomplete": false,
    "autocorrect": false,
    "autofilter": false,
    "canUpdateUI": true,
    "containerheight": "",
    "containerheightmode": 1,
    "containerweight": 100,
    "contentalignment": 4,
    "desktopweb": {
        "placeholderSkin": "s991a46145be4f469ff36441429e61d7"
    },
    "disabledSkins": {},
    "focusskin": "s9357d21bfa3405db1e4511ef5053cc0",
    "id": "txtProductGroupName",
    "info": null,
    "iscustomlayout": false,
    "isvisible": true,
    "keyboardtype": "A",
    "kuid": "d5cdb77ee0424e5d89c29cc8c78fa898",
    "maxtextlength": 50,
    "mode": "A",
    "name": "kony.ui.TextBox2",
    "paddinginpixel": false,
    "parent": "flxProductGroupName",
    "pf": "userwidgetmodel",
    "placeholderskin": "s991a46145be4f469ff36441429e61d7",
    "retaincontentalignment": false,
    "retainflexpositionproperties": false,
    "securetextentry": false,
    "textinputmode": "A",
    "tooltip": "",
    "viewtype": "default",
    "wType": "TextField",
    "zindex": 1
}