{
    "@class": "com.kony.gen.viz.model.component.KVizUserWidget",
    "DNDConfig": null,
    "_children_": [],
    "_height_": {
        "type": "string",
        "value": "80px"
    },
    "_left_": {
        "type": "string",
        "value": "20dp"
    },
    "_margin_": [
        0,
        0,
        0,
        0
    ],
    "_orientation_": 1,
    "_padding_": [
        0,
        0,
        0,
        0
    ],
    "_percent_": true,
    "_right_": {
        "type": "string",
        "value": "20dp"
    },
    "_skin_": "s8ff24328417401b877c3ceb2a5fa27c",
    "_top_": {
        "type": "string",
        "value": "0dp"
    },
    "android": {},
    "androidwearos": {},
    "areflexpropsreferenced": false,
    "autogrowmode": 0,
    "canUpdateUI": true,
    "clipbounds": true,
    "containerweight": 0,
    "dataDiffs": {
        "btnCancel": {
            "__events__": {},
            "__info__": {
                "kuid": "j5569e1df68646e088b0b3956573b3af",
                "srcKUID": "hb7e8e6dc73a4044aaa1636cb1f70704",
                "wType": "Button"
            }
        },
        "btnNext": {
            "__events__": {},
            "__info__": {
                "kuid": "f64a7dac9d594ca0beb09b2d1d49aa0c",
                "srcKUID": "if89a3cc957141078b03996441e09d8c",
                "wType": "Button"
            }
        },
        "btnSave": {
            "__events__": {},
            "__info__": {
                "kuid": "g1e2ada17bd34721aa191d5bfd272208",
                "srcKUID": "af70c434338f4068a24a87b45c58f9ee",
                "wType": "Button"
            },
            "i18n_text": "i18n.frmEnrollCustomer.SaveChanges_UC",
            "text": "",
            "width": {
                "Default": {
                    "type": "string",
                    "value": "156dp"
                }
            }
        },
        "commonButtons": {
            "__events__": {},
            "__info__": {
                "isRoot": true,
                "kuid": "b20cb7e272cf41b59de223832efce24e",
                "srcKUID": "cc441f293bdb4489aebfc9b06fe5513e",
                "wType": "FlexContainer"
            },
            "left": {
                "Default": {
                    "type": "string",
                    "value": "20dp"
                }
            },
            "right": {
                "Default": {
                    "type": "string",
                    "value": "20dp"
                }
            },
            "width": {
                "Default": {
                    "type": "string",
                    "value": ""
                }
            }
        },
        "flxRightButtons": {
            "__events__": {},
            "__info__": {
                "kuid": "af323e260e21487c8605a8855024461c",
                "srcKUID": "beae25c502d54e038c70de835ec18eca",
                "wType": "FlexContainer"
            },
            "width": {
                "Default": {
                    "type": "string",
                    "value": "275dp"
                }
            }
        }
    },
    "desktopweb": {},
    "enablescrolling": true,
    "id": "commonButtonsEditSignatories",
    "info": null,
    "ipad": {},
    "iphone": {},
    "isdatareferenced": false,
    "isvisible": true,
    "kiosk": {},
    "kuid": "b20cb7e272cf41b59de223832efce24e",
    "layouttype": 2,
    "masterType": 0,
    "name": "kony.ui.UserWidgetInstance",
    "parent": "flxEnrollEditSignatoryButtons",
    "pf": "frmEnrollCustomer",
    "snapgridsize": 10,
    "snaptogrid": true,
    "sourceUserWidget": "cc441f293bdb4489aebfc9b06fe5513e",
    "spa": {},
    "spaan": {},
    "spaandroidtablet": {},
    "spabb": {},
    "spaip": {},
    "spaipad": {},
    "spamobile": {},
    "spatablet": {},
    "spawindowstablet": {},
    "spawinphone8": {},
    "tabrcandroid": {},
    "vizProps": {
        "hidewidgethierarchy": false
    },
    "wType": "UserWidgetInstance",
    "windows10": {},
    "windows8": {},
    "winphone10": {},
    "winphone8": {}
}